Seed,1,2,3,4,5,6,7,8,9,10
Correct M,true,true,true,true,true,true,true,true,true,true
Max Depth,222,222,222,222,222,222,222,222,222,222
Max Tests,222,222,222,222,222,222,222,222,222,222
EQ Queries,7,9,6,5,5,5,15,6,13,8
MQ Tests,55296,55944,28728,25272,16416,16416,141912,20304,100872,45360
EQ Tests,245,322,332,260,252,270,369,241,402,271
ALL Tests,55541,56266,29060,25532,16668,16686,142281,20545,101274,45631
MQ Steps,2156976,1568160,640440,590976,234360,283824,7513776,311904,3299832,1057752
EQ Steps,7296,9311,10140,7865,9007,7592,12110,6870,12088,8978
ALL Steps,2164272,1577471,650580,598841,243367,291416,7525886,318774,3311920,1066730
