Seed,1,2,3,4,5,6,7,8,9,10
Correct M,true,true,true,true,true,true,true,true,true,true
Max Depth,96,96,96,96,96,96,96,96,96,96
Max Tests,96,96,96,96,96,96,96,96,96,96
EQ Queries,2,2,3,3,3,4,3,3,3,3
MQ Tests,640,896,960,1216,1280,1664,1344,640,1536,832
EQ Tests,99,101,189,187,192,169,103,103,152,112
ALL Tests,739,997,1149,1403,1472,1833,1447,743,1688,944
MQ Steps,4800,8512,7040,9664,10624,13760,13376,3520,17408,5440
EQ Steps,2993,2946,5508,5826,7094,4967,3598,2954,4437,3753
ALL Steps,7793,11458,12548,15490,17718,18727,16974,6474,21845,9193
