Seed,1,2,3,4,5,6,7,8,9,10
Correct M,true,true,true,true,true,true,true,true,true,true
Max Depth,132,132,132,132,132,132,132,132,132,132
Max Tests,132,132,132,132,132,132,132,132,132,132
EQ Queries,4,4,5,5,4,5,6,4,5,4
MQ Tests,7992,14688,17928,10584,15336,14040,48600,8424,19008,15120
EQ Tests,186,147,174,165,189,265,214,222,171,241
ALL Tests,8178,14835,18102,10749,15525,14305,48814,8646,19179,15361
MQ Steps,79704,215136,268272,122904,330480,229824,1764072,92448,339120,309528
EQ Steps,6029,4370,5150,5240,6814,7542,7276,6214,4808,8128
ALL Steps,85733,219506,273422,128144,337294,237366,1771348,98662,343928,317656
