Seed,1,2,3,4,5,6,7,8,9,10
Correct M,true,true,true,true,true,true,true,true,true,true
Max Depth,12732,12732,12732,12732,12732,12732,12732,12732,12732,12732
Max Tests,12732,12732,12732,12732,12732,12732,12732,12732,12732,12732
EQ Queries,7,4,6,7,6,5,6,5,7,7
MQ Tests,63000,40000,80000,78000,73000,58000,65000,54000,91000,70000
EQ Tests,13921,14035,15039,13090,18828,14593,20272,15122,13817,24963
ALL Tests,76921,54035,95039,91090,91828,72593,85272,69122,104817,94963
MQ Steps,559000,400000,1124000,958000,787000,716000,683000,573000,1095000,740000
EQ Steps,436586,434035,468054,405321,580192,450851,622254,462454,429610,774071
ALL Steps,995586,834035,1592054,1363321,1367192,1166851,1305254,1035454,1524610,1514071
