Seed,1,2,3,4,5,6,7,8,9,10
Correct M,true,true,true,true,true,true,true,true,true,true
Max Depth,70,70,70,70,70,70,70,70,70,70
Max Tests,70,70,70,70,70,70,70,70,70,70
EQ Queries,4,4,3,4,3,4,4,3,4,4
MQ Tests,135762,167706,69212,145079,87846,143748,122452,85184,95832,99825
EQ Tests,139,115,82,112,82,108,143,82,121,121
ALL Tests,135901,167821,69294,145191,87928,143856,122595,85266,95953,99946
MQ Steps,2771142,4055557,1315028,3215696,1832787,3075941,2310616,2000493,1847428,1577235
EQ Steps,4063,3435,2369,3227,2428,3459,4399,2544,3386,3705
ALL Steps,2775205,4058992,1317397,3218923,1835215,3079400,2315015,2003037,1850814,1580940
