Seed,1,2,3,4,5,6,7,8,9,10
Correct M,true,true,true,true,true,true,true,true,true,true
Max Depth,44,44,44,44,44,44,44,44,44,44
Max Tests,44,44,44,44,44,44,44,44,44,44
EQ Queries,2,2,2,2,2,2,2,2,2,2
MQ Tests,2744,1715,1715,4802,4459,1715,2744,1715,1715,5145
EQ Tests,53,57,45,82,46,50,45,46,48,50
ALL Tests,2797,1772,1760,4884,4505,1765,2789,1761,1763,5195
MQ Steps,17836,8575,8575,45619,40131,8575,17836,8575,8575,51450
EQ Steps,314,296,294,426,198,281,268,229,270,276
ALL Steps,18150,8871,8869,46045,40329,8856,18104,8804,8845,51726
