Seed,1,2,3,4,5,6,7,8,9,10
Correct M,true,true,true,true,true,true,true,true,true,true
Max Depth,276,276,276,276,276,276,276,276,276,276
Max Tests,276,276,276,276,276,276,276,276,276,276
EQ Queries,85,53,70,56,45,69,38,65,37,76
MQ Tests,4984,2562,4445,3045,1806,3395,2156,3388,1554,4235
EQ Tests,606,410,595,547,561,506,446,547,387,481
ALL Tests,5590,2972,5040,3592,2367,3901,2602,3935,1941,4716
MQ Steps,65695,22953,59220,31927,14819,38059,23408,32809,13944,50799
EQ Steps,4845,2655,4385,3743,3508,3851,3037,3725,2498,3745
ALL Steps,70540,25608,63605,35670,18327,41910,26445,36534,16442,54544
