Seed,1,2,3,4,5,6,7,8,9,10
Correct M,true,true,true,true,true,true,true,true,true,true
Max Depth,148,148,148,148,148,148,148,148,148,148
Max Tests,148,148,148,148,148,148,148,148,148,148
EQ Queries,43,41,39,61,34,87,47,63,47,44
MQ Tests,8514,8148,7620,11430,6078,17118,8982,12390,8448,7818
EQ Tests,318,363,258,337,295,1008,552,504,449,398
ALL Tests,8832,8511,7878,11767,6373,18126,9534,12894,8897,8216
MQ Steps,181320,175602,160680,235920,122376,371196,191304,266328,169014,160560
EQ Steps,9659,10963,7750,10264,8776,29934,16722,15073,12910,12115
ALL Steps,190979,186565,168430,246184,131152,401130,208026,281401,181924,172675
