Seed,1,2,3,4,5,6,7,8,9,10
Correct M,true,true,true,true,true,true,true,true,true,true
Max Depth,487,487,487,487,487,487,487,487,487,487
Max Tests,487,487,487,487,487,487,487,487,487,487
EQ Queries,110,89,73,90,91,71,92,101,69,104
MQ Tests,38236,29205,24970,30426,30470,27643,31911,35673,22209,37015
EQ Tests,1662,970,1235,1279,1492,1292,2802,2019,1119,2004
ALL Tests,39898,30175,26205,31705,31962,28935,34713,37692,23328,39019
MQ Steps,795366,574662,504669,611721,624624,611424,645139,727111,427416,776556
EQ Steps,50053,29163,36843,38708,44989,38675,84895,60695,32688,60670
ALL Steps,845419,603825,541512,650429,669613,650099,730034,787806,460104,837226
