Seed,1,2,3,4,5,6,7,8,9,10
Correct M,true,true,true,true,true,true,true,true,true,true
Max Depth,788,788,788,788,788,788,788,788,788,788
Max Tests,788,788,788,788,788,788,788,788,788,788
EQ Queries,124,182,116,120,107,100,91,103,136,150
MQ Tests,16158,23388,12510,15606,14766,12330,12816,14928,15096,24768
EQ Tests,1369,1697,1195,1618,1723,1786,1336,1492,1479,1774
ALL Tests,17527,25085,13705,17224,16489,14116,14152,16420,16575,26542
MQ Steps,395250,477774,229932,362610,390882,277896,342882,376356,309450,639186
EQ Steps,39286,46445,32766,48373,49985,50276,40810,42025,42356,50085
ALL Steps,434536,524219,262698,410983,440867,328172,383692,418381,351806,689271
