Seed,1,2,3,4,5,6,7,8,9,10
Correct M,true,true,true,true,true,true,true,true,true,true
Max Depth,1726,1726,1726,1726,1726,1726,1726,1726,1726,1726
Max Tests,1726,1726,1726,1726,1726,1726,1726,1726,1726,1726
EQ Queries,118,109,106,103,108,110,106,101,116,124
MQ Tests,15939,15983,15026,15466,13816,14718,16071,11990,14993,20680
EQ Tests,3990,3692,4381,3261,4409,4212,4459,3117,3774,5765
ALL Tests,19929,19675,19407,18727,18225,18930,20530,15107,18767,26445
MQ Steps,192764,190399,190674,219626,153395,169400,202796,136301,188089,305195
EQ Steps,120322,110113,133370,101206,134037,124058,136924,90666,113204,178445
ALL Steps,313086,300512,324044,320832,287432,293458,339720,226967,301293,483640
