Seed,1,2,3,4,5,6,7,8,9,10
Correct M,true,true,true,true,true,true,true,true,true,true
Max Depth,65,65,65,65,65,65,65,65,65,65
Max Tests,65,65,65,65,65,65,65,65,65,65
EQ Queries,533,546,415,429,297,330,404,365,313,406
MQ Tests,57420,55814,58333,49071,33836,39897,48862,39556,28424,42933
EQ Tests,1377,1354,889,948,684,639,783,822,787,925
ALL Tests,58797,57168,59222,50019,34520,40536,49645,40378,29211,43858
MQ Steps,800976,773597,942150,653928,455983,567281,668987,517748,333157,547404
EQ Steps,17027,16744,12537,11729,8286,8378,10459,10008,8313,10668
ALL Steps,818003,790341,954687,665657,464269,575659,679446,527756,341470,558072
