Seed,1,2,3,4,5,6,7,8,9,10
Correct M,true,true,true,true,true,true,true,true,true,true
Max Depth,9620,9620,9620,9620,9620,9620,9620,9620,9620,9620
Max Tests,9620,9620,9620,9620,9620,9620,9620,9620,9620,9620
EQ Queries,136,130,155,123,166,151,154,128,118,111
MQ Tests,13600,13890,18420,11370,18300,15860,15180,12770,12840,11120
EQ Tests,21852,23851,31421,19045,31263,19870,23498,21207,16947,28431
ALL Tests,35452,37741,49841,30415,49563,35730,38678,33977,29787,39551
MQ Steps,140390,146500,213520,129430,190980,163030,150640,119430,139160,108250
EQ Steps,679511,733999,974365,581435,958632,612349,717259,650047,521201,877601
ALL Steps,819901,880499,1187885,710865,1149612,775379,867899,769477,660361,985851
