Seed,1,2,3,4,5,6,7,8,9,10
Correct M,true,true,true,true,true,true,true,true,true,true
Max Depth,16,16,16,16,16,16,16,16,16,16
Max Tests,16,16,16,16,16,16,16,16,16,16
EQ Queries,5,3,5,4,2,4,4,5,4,8
MQ Tests,4802,2940,6321,5292,1176,3185,5537,5243,4900,12936
EQ Tests,30,18,20,19,17,19,19,26,34,26
ALL Tests,4832,2958,6341,5311,1193,3204,5556,5269,4934,12962
MQ Steps,78106,55370,126126,111132,15876,46060,119511,91875,106967,289835
EQ Steps,980,522,643,537,476,646,548,752,970,852
ALL Steps,79086,55892,126769,111669,16352,46706,120059,92627,107937,290687
