Seed,1,2,3,4,5,6,7,8,9,10
Correct M,true,true,true,true,true,true,true,true,true,true
Max Depth,134,134,134,134,134,134,134,134,134,134
Max Tests,134,134,134,134,134,134,134,134,134,134
EQ Queries,8,7,5,6,6,7,8,6,7,6
MQ Tests,12463,6655,8712,7381,9075,6655,11858,5324,9922,7744
EQ Tests,240,233,147,162,254,160,200,282,235,183
ALL Tests,12703,6888,8859,7543,9329,6815,12058,5606,10157,7927
MQ Steps,146652,49368,114466,71390,111562,54692,132253,46343,104665,75504
EQ Steps,7248,6747,3852,5238,9063,4501,6463,8206,6929,6113
ALL Steps,153900,56115,118318,76628,120625,59193,138716,54549,111594,81617
