Seed,1,2,3,4,5,6,7,8,9,10
Correct M,true,true,true,true,true,true,true,true,true,true
Max Depth,30,30,30,30,30,30,30,30,30,30
Max Tests,30,30,30,30,30,30,30,30,30,30
EQ Queries,4,5,5,4,3,5,5,4,5,5
MQ Tests,2904,2783,4719,1936,2299,2904,4719,2299,2662,3388
EQ Tests,49,45,46,37,44,44,52,42,45,42
ALL Tests,2953,2828,4765,1973,2343,2948,4771,2341,2707,3430
MQ Steps,19844,16940,45859,11374,16819,18997,57717,14762,16456,27588
EQ Steps,335,258,325,226,212,287,341,237,274,252
ALL Steps,20179,17198,46184,11600,17031,19284,58058,14999,16730,27840
