Seed,1,2,3,4,5,6,7,8,9,10
Correct M,true,true,true,true,true,true,true,true,true,true
Max Depth,54,54,54,54,54,54,54,54,54,54
Max Tests,54,54,54,54,54,54,54,54,54,54
EQ Queries,3,4,4,5,4,4,3,3,5,3
MQ Tests,6050,14278,13915,20449,12584,10164,5445,6655,15851,9559
EQ Tests,79,71,82,74,104,60,62,64,70,57
ALL Tests,6129,14349,13997,20523,12688,10224,5507,6719,15921,9616
MQ Steps,96437,317504,302742,480975,266926,177386,76472,119427,341462,209814
EQ Steps,2373,2050,2369,2226,3069,1943,1981,1943,1953,1731
ALL Steps,98810,319554,305111,483201,269995,179329,78453,121370,343415,211545
