Seed,1,2,3,4,5,6,7,8,9,10
Correct M,true,true,true,true,true,true,true,true,true,true
Max Depth,29564,29564,29564,29564,29564,29564,29564,29564,29564,29564
Max Tests,29564,29564,29564,29564,29564,29564,29564,29564,29564,29564
EQ Queries,24,30,28,20,27,27,21,19,26,23
MQ Tests,88814,119427,102487,77077,108658,115192,81796,67276,99099,86031
EQ Tests,75523,102956,53204,92967,65359,73131,38204,65773,58366,47241
ALL Tests,164337,222383,155691,170044,174017,188323,120000,133049,157465,133272
MQ Steps,1850211,2666356,2061235,1649230,2437061,2607429,1767689,1364275,2137949,1795519
EQ Steps,2261733,3094136,1595243,2790443,1959451,2197022,1145344,1973106,1751813,1416183
ALL Steps,4111944,5760492,3656478,4439673,4396512,4804451,2913033,3337381,3889762,3211702
