Seed,1,2,3,4,5,6,7,8,9,10
Correct M,true,true,true,true,true,true,true,true,true,true
Max Depth,60,60,60,60,60,60,60,60,60,60
Max Tests,60,60,60,60,60,60,60,60,60,60
EQ Queries,8,8,8,7,8,7,6,7,6,7
MQ Tests,31218,30613,25289,25047,25773,20207,17182,25894,16456,26136
EQ Tests,154,95,134,96,154,98,117,115,111,138
ALL Tests,31372,30708,25423,25143,25927,20305,17299,26009,16567,26274
MQ Steps,722733,691999,480007,519574,523688,371228,302863,578622,304194,561440
EQ Steps,4525,2800,3867,2858,4558,3129,3594,3612,3125,4182
ALL Steps,727258,694799,483874,522432,528246,374357,306457,582234,307319,565622
