Seed,1,2,3,4,5,6,7,8,9,10
Correct M,true,true,true,true,true,true,true,true,true,true
Max Depth,12,12,12,12,12,12,12,12,12,12
Max Tests,12,12,12,12,12,12,12,12,12,12
EQ Queries,4,9,6,5,12,7,5,4,4,7
MQ Tests,490,6174,2548,1862,6174,3675,2744,2205,931,4067
EQ Tests,20,25,19,18,36,22,20,17,21,31
ALL Tests,510,6199,2567,1880,6210,3697,2764,2222,952,4098
MQ Steps,1862,84770,25137,14945,65758,42826,32634,36897,5145,46158
EQ Steps,644,676,459,514,684,580,399,367,499,923
ALL Steps,2506,85446,25596,15459,66442,43406,33033,37264,5644,47081
