Seed,1,2,3,4,5,6,7,8,9,10
Correct M,true,true,true,true,true,true,true,true,true,true
Max Depth,223,223,223,223,223,223,223,223,223,223
Max Tests,223,223,223,223,223,223,223,223,223,223
EQ Queries,9,7,9,8,7,8,11,8,8,9
MQ Tests,12342,6897,12947,12100,10890,10527,17908,8833,16940,11253
EQ Tests,258,319,260,405,283,445,309,481,254,429
ALL Tests,12600,7216,13207,12505,11173,10972,18217,9314,17194,11682
MQ Steps,133947,54934,131769,135036,133100,96800,198319,87846,269951,100551
EQ Steps,7761,9276,7577,12542,9739,13022,10328,14363,7545,13677
ALL Steps,141708,64210,139346,147578,142839,109822,208647,102209,277496,114228
