Seed,1,2,3,4,5,6,7,8,9,10
Correct M,true,true,true,true,true,true,true,true,true,true
Max Depth,863,863,863,863,863,863,863,863,863,863
Max Tests,863,863,863,863,863,863,863,863,863,863
EQ Queries,19,17,22,12,18,15,15,18,14,21
MQ Tests,21528,15840,23796,9720,22212,13824,18900,21384,13536,23400
EQ Tests,1172,997,1795,913,1690,956,901,1498,958,1770
ALL Tests,22700,16837,25591,10633,23902,14780,19801,22882,14494,25170
MQ Steps,658332,324360,873036,210240,775512,296100,1095012,616248,337932,667800
EQ Steps,36000,30149,54219,28650,52210,28886,29521,44213,29999,54587
ALL Steps,694332,354509,927255,238890,827722,324986,1124533,660461,367931,722387
