Seed,1,2,3,4,5,6,7,8,9,10
Correct M,true,true,true,true,true,true,true,true,true,true
Max Depth,1727,1727,1727,1727,1727,1727,1727,1727,1727,1727
Max Tests,1727,1727,1727,1727,1727,1727,1727,1727,1727,1727
EQ Queries,15,15,23,17,23,17,19,18,17,9
MQ Tests,18324,16884,27900,20988,30744,23112,23652,21636,19944,11412
EQ Tests,2038,2615,2369,5120,4559,1879,4065,1815,1868,1744
ALL Tests,20362,19499,30269,26108,35303,24991,27717,23451,21812,13156
MQ Steps,410832,370368,639684,473868,725400,554904,543240,485640,441468,268956
EQ Steps,61296,77471,70383,154915,136798,56185,122695,54758,54946,52598
ALL Steps,472128,447839,710067,628783,862198,611089,665935,540398,496414,321554
