Seed,1,2,3,4,5,6,7,8,9,10
Correct M,true,true,true,true,true,true,true,true,true,true
Max Depth,12,12,12,12,12,12,12,12,12,12
Max Tests,12,12,12,12,12,12,12,12,12,12
EQ Queries,3,3,3,2,3,3,3,3,3,3
MQ Tests,1372,539,441,294,1127,539,686,343,637,833
EQ Tests,31,17,19,13,17,18,23,14,16,18
ALL Tests,1403,556,460,307,1144,557,709,357,653,851
MQ Steps,15386,2891,2156,1323,9261,2891,4508,1421,3920,7056
EQ Steps,180,87,103,89,82,106,134,63,68,92
ALL Steps,15566,2978,2259,1412,9343,2997,4642,1484,3988,7148
