Seed,1,2,3,4,5,6,7,8,9,10
Correct M,true,true,true,true,true,true,true,true,true,true
Max Depth,300,300,300,300,300,300,300,300,300,300
Max Tests,300,300,300,300,300,300,300,300,300,300
EQ Queries,11,6,8,8,9,9,9,8,8,8
MQ Tests,24805,6171,17424,10527,9801,14520,14036,8470,16093,13068
EQ Tests,624,396,365,391,429,525,335,555,401,666
ALL Tests,25429,6567,17789,10918,10230,15045,14371,9025,16494,13734
MQ Steps,489808,49126,312543,103939,87604,156695,164681,83732,235950,156695
EQ Steps,19305,11614,11320,11967,13782,15154,11148,17115,12225,20974
ALL Steps,509113,60740,323863,115906,101386,171849,175829,100847,248175,177669
