Seed,1,2,3,4,5,6,7,8,9,10
Correct M,true,true,true,true,true,true,true,true,true,true
Max Depth,1181,1181,1181,1181,1181,1181,1181,1181,1181,1181
Max Tests,1181,1181,1181,1181,1181,1181,1181,1181,1181,1181
EQ Queries,11,15,16,15,13,17,15,21,18,14
MQ Tests,48158,45375,100914,57354,36663,57233,70180,105996,57959,43802
EQ Tests,1989,2387,2733,2757,1721,1768,2350,3185,2837,2983
ALL Tests,50147,47762,103647,60111,38384,59001,72530,109181,60796,46785
MQ Steps,1641486,999823,5213043,1884696,951907,1376738,2052160,4144129,1410981,1011802
EQ Steps,60328,72608,84121,88024,53115,51865,74360,94909,87609,93677
ALL Steps,1701814,1072431,5297164,1972720,1005022,1428603,2126520,4239038,1498590,1105479
