Seed,1,2,3,4,5,6,7,8,9,10
Correct M,true,true,true,true,true,true,true,true,true,true
Max Depth,1846,1846,1846,1846,1846,1846,1846,1846,1846,1846
Max Tests,1846,1846,1846,1846,1846,1846,1846,1846,1846,1846
EQ Queries,15,14,23,13,27,20,19,19,16,9
MQ Tests,18360,15840,26208,15552,35784,27648,23904,25056,19116,11700
EQ Tests,2157,2734,1929,1928,3075,2006,4184,1928,1987,1900
ALL Tests,20517,18574,28137,17480,38859,29654,28088,26984,21103,13600
MQ Steps,412488,350532,570132,344988,840924,669492,540936,597348,428220,282780
EQ Steps,64817,80594,57210,57968,92232,59809,126377,58089,58531,57633
ALL Steps,477305,431126,627342,402956,933156,729301,667313,655437,486751,340413
