Seed,1,2,3,4,5,6,7,8,9,10
Correct M,true,true,true,true,true,true,true,true,true,true
Max Depth,7,7,7,7,7,7,7,7,7,7
Max Tests,7,7,7,7,7,7,7,7,7,7
EQ Queries,3,3,2,2,2,3,3,3,2,3
MQ Tests,3283,2940,1911,1323,1176,2548,3528,2352,2156,2989
EQ Tests,12,9,8,8,8,10,9,14,9,12
ALL Tests,3295,2949,1919,1331,1184,2558,3537,2366,2165,3001
MQ Steps,61544,55370,40131,19845,15876,39690,73304,35672,50666,55517
EQ Steps,430,248,253,234,232,308,292,378,259,423
ALL Steps,61974,55618,40384,20079,16108,39998,73596,36050,50925,55940
