digraph g {
	s0 [shape="circle" label="s0"];
	s1 [shape="circle" label="s1"];
	s2 [shape="circle" label="s2"];
	s3 [shape="circle" label="s3"];
	s4 [shape="circle" label="s4"];
	s5 [shape="circle" label="s5"];
	s6 [shape="circle" label="s6"];
	s7 [shape="circle" label="s7"];
	s8 [shape="circle" label="s8"];
	s9 [shape="circle" label="s9"];
	s10 [shape="circle" label="s10"];
	s11 [shape="circle" label="s11"];
	s12 [shape="circle" label="s12"];
	s13 [shape="circle" label="s13"];
	s14 [shape="circle" label="s14"];
	s15 [shape="circle" label="s15"];
	s16 [shape="circle" label="s16"];
	s0 -> s2 [label="IFRAME_0_0 / OOK"];
	s0 -> s16 [label="IFRAME_0_1 / OOK"];
	s0 -> s15 [label="IFRAME_0_2 / OOK"];
	s0 -> s14 [label="IFRAME_0_3 / OOK"];
	s0 -> s1 [label="IFRAME_1_0 / OOK"];
	s0 -> s13 [label="IFRAME_1_1 / OOK"];
	s0 -> s12 [label="IFRAME_1_2 / OOK"];
	s0 -> s11 [label="IFRAME_1_3 / OOK"];
	s0 -> s10 [label="IFRAME_2_0 / OOK"];
	s0 -> s9 [label="IFRAME_2_1 / OOK"];
	s0 -> s8 [label="IFRAME_2_2 / OOK"];
	s0 -> s7 [label="IFRAME_2_3 / OOK"];
	s0 -> s6 [label="IFRAME_3_0 / OOK"];
	s0 -> s5 [label="IFRAME_3_1 / OOK"];
	s0 -> s4 [label="IFRAME_3_2 / OOK"];
	s0 -> s3 [label="IFRAME_3_3 / OOK"];
	s0 -> s0 [label="ILOSE / OOK"];
	s0 -> s0 [label="IREAD / ONOK"];
	s1 -> s2 [label="IFRAME_0_0 / OOK"];
	s1 -> s16 [label="IFRAME_0_1 / OOK"];
	s1 -> s15 [label="IFRAME_0_2 / OOK"];
	s1 -> s14 [label="IFRAME_0_3 / OOK"];
	s1 -> s1 [label="IFRAME_1_0 / OOK"];
	s1 -> s13 [label="IFRAME_1_1 / OOK"];
	s1 -> s12 [label="IFRAME_1_2 / OOK"];
	s1 -> s11 [label="IFRAME_1_3 / OOK"];
	s1 -> s10 [label="IFRAME_2_0 / OOK"];
	s1 -> s9 [label="IFRAME_2_1 / OOK"];
	s1 -> s8 [label="IFRAME_2_2 / OOK"];
	s1 -> s7 [label="IFRAME_2_3 / OOK"];
	s1 -> s6 [label="IFRAME_3_0 / OOK"];
	s1 -> s5 [label="IFRAME_3_1 / OOK"];
	s1 -> s4 [label="IFRAME_3_2 / OOK"];
	s1 -> s3 [label="IFRAME_3_3 / OOK"];
	s1 -> s0 [label="ILOSE / OOK"];
	s1 -> s0 [label="IREAD / OFRAME_1_0"];
	s2 -> s2 [label="IFRAME_0_0 / OOK"];
	s2 -> s16 [label="IFRAME_0_1 / OOK"];
	s2 -> s15 [label="IFRAME_0_2 / OOK"];
	s2 -> s14 [label="IFRAME_0_3 / OOK"];
	s2 -> s1 [label="IFRAME_1_0 / OOK"];
	s2 -> s13 [label="IFRAME_1_1 / OOK"];
	s2 -> s12 [label="IFRAME_1_2 / OOK"];
	s2 -> s11 [label="IFRAME_1_3 / OOK"];
	s2 -> s10 [label="IFRAME_2_0 / OOK"];
	s2 -> s9 [label="IFRAME_2_1 / OOK"];
	s2 -> s8 [label="IFRAME_2_2 / OOK"];
	s2 -> s7 [label="IFRAME_2_3 / OOK"];
	s2 -> s6 [label="IFRAME_3_0 / OOK"];
	s2 -> s5 [label="IFRAME_3_1 / OOK"];
	s2 -> s4 [label="IFRAME_3_2 / OOK"];
	s2 -> s3 [label="IFRAME_3_3 / OOK"];
	s2 -> s0 [label="ILOSE / OOK"];
	s2 -> s0 [label="IREAD / OFRAME_0_0"];
	s3 -> s2 [label="IFRAME_0_0 / OOK"];
	s3 -> s16 [label="IFRAME_0_1 / OOK"];
	s3 -> s15 [label="IFRAME_0_2 / OOK"];
	s3 -> s14 [label="IFRAME_0_3 / OOK"];
	s3 -> s1 [label="IFRAME_1_0 / OOK"];
	s3 -> s13 [label="IFRAME_1_1 / OOK"];
	s3 -> s12 [label="IFRAME_1_2 / OOK"];
	s3 -> s11 [label="IFRAME_1_3 / OOK"];
	s3 -> s10 [label="IFRAME_2_0 / OOK"];
	s3 -> s9 [label="IFRAME_2_1 / OOK"];
	s3 -> s8 [label="IFRAME_2_2 / OOK"];
	s3 -> s7 [label="IFRAME_2_3 / OOK"];
	s3 -> s6 [label="IFRAME_3_0 / OOK"];
	s3 -> s5 [label="IFRAME_3_1 / OOK"];
	s3 -> s4 [label="IFRAME_3_2 / OOK"];
	s3 -> s3 [label="IFRAME_3_3 / OOK"];
	s3 -> s0 [label="ILOSE / OOK"];
	s3 -> s0 [label="IREAD / OFRAME_3_3"];
	s4 -> s2 [label="IFRAME_0_0 / OOK"];
	s4 -> s16 [label="IFRAME_0_1 / OOK"];
	s4 -> s15 [label="IFRAME_0_2 / OOK"];
	s4 -> s14 [label="IFRAME_0_3 / OOK"];
	s4 -> s1 [label="IFRAME_1_0 / OOK"];
	s4 -> s13 [label="IFRAME_1_1 / OOK"];
	s4 -> s12 [label="IFRAME_1_2 / OOK"];
	s4 -> s11 [label="IFRAME_1_3 / OOK"];
	s4 -> s10 [label="IFRAME_2_0 / OOK"];
	s4 -> s9 [label="IFRAME_2_1 / OOK"];
	s4 -> s8 [label="IFRAME_2_2 / OOK"];
	s4 -> s7 [label="IFRAME_2_3 / OOK"];
	s4 -> s6 [label="IFRAME_3_0 / OOK"];
	s4 -> s5 [label="IFRAME_3_1 / OOK"];
	s4 -> s4 [label="IFRAME_3_2 / OOK"];
	s4 -> s3 [label="IFRAME_3_3 / OOK"];
	s4 -> s0 [label="ILOSE / OOK"];
	s4 -> s0 [label="IREAD / OFRAME_3_2"];
	s5 -> s2 [label="IFRAME_0_0 / OOK"];
	s5 -> s16 [label="IFRAME_0_1 / OOK"];
	s5 -> s15 [label="IFRAME_0_2 / OOK"];
	s5 -> s14 [label="IFRAME_0_3 / OOK"];
	s5 -> s1 [label="IFRAME_1_0 / OOK"];
	s5 -> s13 [label="IFRAME_1_1 / OOK"];
	s5 -> s12 [label="IFRAME_1_2 / OOK"];
	s5 -> s11 [label="IFRAME_1_3 / OOK"];
	s5 -> s10 [label="IFRAME_2_0 / OOK"];
	s5 -> s9 [label="IFRAME_2_1 / OOK"];
	s5 -> s8 [label="IFRAME_2_2 / OOK"];
	s5 -> s7 [label="IFRAME_2_3 / OOK"];
	s5 -> s6 [label="IFRAME_3_0 / OOK"];
	s5 -> s5 [label="IFRAME_3_1 / OOK"];
	s5 -> s4 [label="IFRAME_3_2 / OOK"];
	s5 -> s3 [label="IFRAME_3_3 / OOK"];
	s5 -> s0 [label="ILOSE / OOK"];
	s5 -> s0 [label="IREAD / OFRAME_3_1"];
	s6 -> s2 [label="IFRAME_0_0 / OOK"];
	s6 -> s16 [label="IFRAME_0_1 / OOK"];
	s6 -> s15 [label="IFRAME_0_2 / OOK"];
	s6 -> s14 [label="IFRAME_0_3 / OOK"];
	s6 -> s1 [label="IFRAME_1_0 / OOK"];
	s6 -> s13 [label="IFRAME_1_1 / OOK"];
	s6 -> s12 [label="IFRAME_1_2 / OOK"];
	s6 -> s11 [label="IFRAME_1_3 / OOK"];
	s6 -> s10 [label="IFRAME_2_0 / OOK"];
	s6 -> s9 [label="IFRAME_2_1 / OOK"];
	s6 -> s8 [label="IFRAME_2_2 / OOK"];
	s6 -> s7 [label="IFRAME_2_3 / OOK"];
	s6 -> s6 [label="IFRAME_3_0 / OOK"];
	s6 -> s5 [label="IFRAME_3_1 / OOK"];
	s6 -> s4 [label="IFRAME_3_2 / OOK"];
	s6 -> s3 [label="IFRAME_3_3 / OOK"];
	s6 -> s0 [label="ILOSE / OOK"];
	s6 -> s0 [label="IREAD / OFRAME_3_0"];
	s7 -> s2 [label="IFRAME_0_0 / OOK"];
	s7 -> s16 [label="IFRAME_0_1 / OOK"];
	s7 -> s15 [label="IFRAME_0_2 / OOK"];
	s7 -> s14 [label="IFRAME_0_3 / OOK"];
	s7 -> s1 [label="IFRAME_1_0 / OOK"];
	s7 -> s13 [label="IFRAME_1_1 / OOK"];
	s7 -> s12 [label="IFRAME_1_2 / OOK"];
	s7 -> s11 [label="IFRAME_1_3 / OOK"];
	s7 -> s10 [label="IFRAME_2_0 / OOK"];
	s7 -> s9 [label="IFRAME_2_1 / OOK"];
	s7 -> s8 [label="IFRAME_2_2 / OOK"];
	s7 -> s7 [label="IFRAME_2_3 / OOK"];
	s7 -> s6 [label="IFRAME_3_0 / OOK"];
	s7 -> s5 [label="IFRAME_3_1 / OOK"];
	s7 -> s4 [label="IFRAME_3_2 / OOK"];
	s7 -> s3 [label="IFRAME_3_3 / OOK"];
	s7 -> s0 [label="ILOSE / OOK"];
	s7 -> s0 [label="IREAD / OFRAME_2_3"];
	s8 -> s2 [label="IFRAME_0_0 / OOK"];
	s8 -> s16 [label="IFRAME_0_1 / OOK"];
	s8 -> s15 [label="IFRAME_0_2 / OOK"];
	s8 -> s14 [label="IFRAME_0_3 / OOK"];
	s8 -> s1 [label="IFRAME_1_0 / OOK"];
	s8 -> s13 [label="IFRAME_1_1 / OOK"];
	s8 -> s12 [label="IFRAME_1_2 / OOK"];
	s8 -> s11 [label="IFRAME_1_3 / OOK"];
	s8 -> s10 [label="IFRAME_2_0 / OOK"];
	s8 -> s9 [label="IFRAME_2_1 / OOK"];
	s8 -> s8 [label="IFRAME_2_2 / OOK"];
	s8 -> s7 [label="IFRAME_2_3 / OOK"];
	s8 -> s6 [label="IFRAME_3_0 / OOK"];
	s8 -> s5 [label="IFRAME_3_1 / OOK"];
	s8 -> s4 [label="IFRAME_3_2 / OOK"];
	s8 -> s3 [label="IFRAME_3_3 / OOK"];
	s8 -> s0 [label="ILOSE / OOK"];
	s8 -> s0 [label="IREAD / OFRAME_2_2"];
	s9 -> s2 [label="IFRAME_0_0 / OOK"];
	s9 -> s16 [label="IFRAME_0_1 / OOK"];
	s9 -> s15 [label="IFRAME_0_2 / OOK"];
	s9 -> s14 [label="IFRAME_0_3 / OOK"];
	s9 -> s1 [label="IFRAME_1_0 / OOK"];
	s9 -> s13 [label="IFRAME_1_1 / OOK"];
	s9 -> s12 [label="IFRAME_1_2 / OOK"];
	s9 -> s11 [label="IFRAME_1_3 / OOK"];
	s9 -> s10 [label="IFRAME_2_0 / OOK"];
	s9 -> s9 [label="IFRAME_2_1 / OOK"];
	s9 -> s8 [label="IFRAME_2_2 / OOK"];
	s9 -> s7 [label="IFRAME_2_3 / OOK"];
	s9 -> s6 [label="IFRAME_3_0 / OOK"];
	s9 -> s5 [label="IFRAME_3_1 / OOK"];
	s9 -> s4 [label="IFRAME_3_2 / OOK"];
	s9 -> s3 [label="IFRAME_3_3 / OOK"];
	s9 -> s0 [label="ILOSE / OOK"];
	s9 -> s0 [label="IREAD / OFRAME_2_1"];
	s10 -> s2 [label="IFRAME_0_0 / OOK"];
	s10 -> s16 [label="IFRAME_0_1 / OOK"];
	s10 -> s15 [label="IFRAME_0_2 / OOK"];
	s10 -> s14 [label="IFRAME_0_3 / OOK"];
	s10 -> s1 [label="IFRAME_1_0 / OOK"];
	s10 -> s13 [label="IFRAME_1_1 / OOK"];
	s10 -> s12 [label="IFRAME_1_2 / OOK"];
	s10 -> s11 [label="IFRAME_1_3 / OOK"];
	s10 -> s10 [label="IFRAME_2_0 / OOK"];
	s10 -> s9 [label="IFRAME_2_1 / OOK"];
	s10 -> s8 [label="IFRAME_2_2 / OOK"];
	s10 -> s7 [label="IFRAME_2_3 / OOK"];
	s10 -> s6 [label="IFRAME_3_0 / OOK"];
	s10 -> s5 [label="IFRAME_3_1 / OOK"];
	s10 -> s4 [label="IFRAME_3_2 / OOK"];
	s10 -> s3 [label="IFRAME_3_3 / OOK"];
	s10 -> s0 [label="ILOSE / OOK"];
	s10 -> s0 [label="IREAD / OFRAME_2_0"];
	s11 -> s2 [label="IFRAME_0_0 / OOK"];
	s11 -> s16 [label="IFRAME_0_1 / OOK"];
	s11 -> s15 [label="IFRAME_0_2 / OOK"];
	s11 -> s14 [label="IFRAME_0_3 / OOK"];
	s11 -> s1 [label="IFRAME_1_0 / OOK"];
	s11 -> s13 [label="IFRAME_1_1 / OOK"];
	s11 -> s12 [label="IFRAME_1_2 / OOK"];
	s11 -> s11 [label="IFRAME_1_3 / OOK"];
	s11 -> s10 [label="IFRAME_2_0 / OOK"];
	s11 -> s9 [label="IFRAME_2_1 / OOK"];
	s11 -> s8 [label="IFRAME_2_2 / OOK"];
	s11 -> s7 [label="IFRAME_2_3 / OOK"];
	s11 -> s6 [label="IFRAME_3_0 / OOK"];
	s11 -> s5 [label="IFRAME_3_1 / OOK"];
	s11 -> s4 [label="IFRAME_3_2 / OOK"];
	s11 -> s3 [label="IFRAME_3_3 / OOK"];
	s11 -> s0 [label="ILOSE / OOK"];
	s11 -> s0 [label="IREAD / OFRAME_1_3"];
	s12 -> s2 [label="IFRAME_0_0 / OOK"];
	s12 -> s16 [label="IFRAME_0_1 / OOK"];
	s12 -> s15 [label="IFRAME_0_2 / OOK"];
	s12 -> s14 [label="IFRAME_0_3 / OOK"];
	s12 -> s1 [label="IFRAME_1_0 / OOK"];
	s12 -> s13 [label="IFRAME_1_1 / OOK"];
	s12 -> s12 [label="IFRAME_1_2 / OOK"];
	s12 -> s11 [label="IFRAME_1_3 / OOK"];
	s12 -> s10 [label="IFRAME_2_0 / OOK"];
	s12 -> s9 [label="IFRAME_2_1 / OOK"];
	s12 -> s8 [label="IFRAME_2_2 / OOK"];
	s12 -> s7 [label="IFRAME_2_3 / OOK"];
	s12 -> s6 [label="IFRAME_3_0 / OOK"];
	s12 -> s5 [label="IFRAME_3_1 / OOK"];
	s12 -> s4 [label="IFRAME_3_2 / OOK"];
	s12 -> s3 [label="IFRAME_3_3 / OOK"];
	s12 -> s0 [label="ILOSE / OOK"];
	s12 -> s0 [label="IREAD / OFRAME_1_2"];
	s13 -> s2 [label="IFRAME_0_0 / OOK"];
	s13 -> s16 [label="IFRAME_0_1 / OOK"];
	s13 -> s15 [label="IFRAME_0_2 / OOK"];
	s13 -> s14 [label="IFRAME_0_3 / OOK"];
	s13 -> s1 [label="IFRAME_1_0 / OOK"];
	s13 -> s13 [label="IFRAME_1_1 / OOK"];
	s13 -> s12 [label="IFRAME_1_2 / OOK"];
	s13 -> s11 [label="IFRAME_1_3 / OOK"];
	s13 -> s10 [label="IFRAME_2_0 / OOK"];
	s13 -> s9 [label="IFRAME_2_1 / OOK"];
	s13 -> s8 [label="IFRAME_2_2 / OOK"];
	s13 -> s7 [label="IFRAME_2_3 / OOK"];
	s13 -> s6 [label="IFRAME_3_0 / OOK"];
	s13 -> s5 [label="IFRAME_3_1 / OOK"];
	s13 -> s4 [label="IFRAME_3_2 / OOK"];
	s13 -> s3 [label="IFRAME_3_3 / OOK"];
	s13 -> s0 [label="ILOSE / OOK"];
	s13 -> s0 [label="IREAD / OFRAME_1_1"];
	s14 -> s2 [label="IFRAME_0_0 / OOK"];
	s14 -> s16 [label="IFRAME_0_1 / OOK"];
	s14 -> s15 [label="IFRAME_0_2 / OOK"];
	s14 -> s14 [label="IFRAME_0_3 / OOK"];
	s14 -> s1 [label="IFRAME_1_0 / OOK"];
	s14 -> s13 [label="IFRAME_1_1 / OOK"];
	s14 -> s12 [label="IFRAME_1_2 / OOK"];
	s14 -> s11 [label="IFRAME_1_3 / OOK"];
	s14 -> s10 [label="IFRAME_2_0 / OOK"];
	s14 -> s9 [label="IFRAME_2_1 / OOK"];
	s14 -> s8 [label="IFRAME_2_2 / OOK"];
	s14 -> s7 [label="IFRAME_2_3 / OOK"];
	s14 -> s6 [label="IFRAME_3_0 / OOK"];
	s14 -> s5 [label="IFRAME_3_1 / OOK"];
	s14 -> s4 [label="IFRAME_3_2 / OOK"];
	s14 -> s3 [label="IFRAME_3_3 / OOK"];
	s14 -> s0 [label="ILOSE / OOK"];
	s14 -> s0 [label="IREAD / OFRAME_0_3"];
	s15 -> s2 [label="IFRAME_0_0 / OOK"];
	s15 -> s16 [label="IFRAME_0_1 / OOK"];
	s15 -> s15 [label="IFRAME_0_2 / OOK"];
	s15 -> s14 [label="IFRAME_0_3 / OOK"];
	s15 -> s1 [label="IFRAME_1_0 / OOK"];
	s15 -> s13 [label="IFRAME_1_1 / OOK"];
	s15 -> s12 [label="IFRAME_1_2 / OOK"];
	s15 -> s11 [label="IFRAME_1_3 / OOK"];
	s15 -> s10 [label="IFRAME_2_0 / OOK"];
	s15 -> s9 [label="IFRAME_2_1 / OOK"];
	s15 -> s8 [label="IFRAME_2_2 / OOK"];
	s15 -> s7 [label="IFRAME_2_3 / OOK"];
	s15 -> s6 [label="IFRAME_3_0 / OOK"];
	s15 -> s5 [label="IFRAME_3_1 / OOK"];
	s15 -> s4 [label="IFRAME_3_2 / OOK"];
	s15 -> s3 [label="IFRAME_3_3 / OOK"];
	s15 -> s0 [label="ILOSE / OOK"];
	s15 -> s0 [label="IREAD / OFRAME_0_2"];
	s16 -> s2 [label="IFRAME_0_0 / OOK"];
	s16 -> s16 [label="IFRAME_0_1 / OOK"];
	s16 -> s15 [label="IFRAME_0_2 / OOK"];
	s16 -> s14 [label="IFRAME_0_3 / OOK"];
	s16 -> s1 [label="IFRAME_1_0 / OOK"];
	s16 -> s13 [label="IFRAME_1_1 / OOK"];
	s16 -> s12 [label="IFRAME_1_2 / OOK"];
	s16 -> s11 [label="IFRAME_1_3 / OOK"];
	s16 -> s10 [label="IFRAME_2_0 / OOK"];
	s16 -> s9 [label="IFRAME_2_1 / OOK"];
	s16 -> s8 [label="IFRAME_2_2 / OOK"];
	s16 -> s7 [label="IFRAME_2_3 / OOK"];
	s16 -> s6 [label="IFRAME_3_0 / OOK"];
	s16 -> s5 [label="IFRAME_3_1 / OOK"];
	s16 -> s4 [label="IFRAME_3_2 / OOK"];
	s16 -> s3 [label="IFRAME_3_3 / OOK"];
	s16 -> s0 [label="ILOSE / OOK"];
	s16 -> s0 [label="IREAD / OFRAME_0_1"];
__start0 [label="" shape="none" width="0" height="0"];
__start0 -> s0;
}
