digraph g {
	s0 [shape="circle" label="s0"];
	s1 [shape="circle" label="s1"];
	s2 [shape="circle" label="s2"];
	s3 [shape="circle" label="s3"];
	s4 [shape="circle" label="s4"];
	s5 [shape="circle" label="s5"];
	s6 [shape="circle" label="s6"];
	s7 [shape="circle" label="s7"];
	s8 [shape="circle" label="s8"];
	s9 [shape="circle" label="s9"];
	s10 [shape="circle" label="s10"];
	s11 [shape="circle" label="s11"];
	s12 [shape="circle" label="s12"];
	s13 [shape="circle" label="s13"];
	s14 [shape="circle" label="s14"];
	s0 -> s0 [label="IACK_0 / ONOK"];
	s0 -> s0 [label="IACK_1 / OOK"];
	s0 -> s0 [label="IACK_2 / OOK"];
	s0 -> s3 [label="IIN_0 / OOK"];
	s0 -> s1 [label="IIN_1 / OOK"];
	s0 -> s4 [label="IIN_2 / OOK"];
	s0 -> s0 [label="ISENDFRAME / ONOK"];
	s1 -> s1 [label="IACK_0 / ONOK"];
	s1 -> s1 [label="IACK_1 / OOK"];
	s1 -> s1 [label="IACK_2 / OOK"];
	s1 -> s2 [label="IIN_0 / ONOK"];
	s1 -> s2 [label="IIN_1 / ONOK"];
	s1 -> s2 [label="IIN_2 / ONOK"];
	s1 -> s5 [label="ISENDFRAME / OFRAME_1_0"];
	s2 -> s2 [label="IACK_0 / ONOK"];
	s2 -> s2 [label="IACK_1 / ONOK"];
	s2 -> s2 [label="IACK_2 / ONOK"];
	s2 -> s2 [label="IIN_0 / ONOK"];
	s2 -> s2 [label="IIN_1 / ONOK"];
	s2 -> s2 [label="IIN_2 / ONOK"];
	s2 -> s2 [label="ISENDFRAME / ONOK"];
	s3 -> s3 [label="IACK_0 / ONOK"];
	s3 -> s3 [label="IACK_1 / OOK"];
	s3 -> s3 [label="IACK_2 / OOK"];
	s3 -> s2 [label="IIN_0 / ONOK"];
	s3 -> s2 [label="IIN_1 / ONOK"];
	s3 -> s2 [label="IIN_2 / ONOK"];
	s3 -> s13 [label="ISENDFRAME / OFRAME_0_0"];
	s4 -> s4 [label="IACK_0 / ONOK"];
	s4 -> s4 [label="IACK_1 / OOK"];
	s4 -> s4 [label="IACK_2 / OOK"];
	s4 -> s2 [label="IIN_0 / ONOK"];
	s4 -> s2 [label="IIN_1 / ONOK"];
	s4 -> s2 [label="IIN_2 / ONOK"];
	s4 -> s14 [label="ISENDFRAME / OFRAME_2_0"];
	s5 -> s6 [label="IACK_0 / OOK"];
	s5 -> s5 [label="IACK_1 / OOK"];
	s5 -> s5 [label="IACK_2 / OOK"];
	s5 -> s2 [label="IIN_0 / ONOK"];
	s5 -> s2 [label="IIN_1 / ONOK"];
	s5 -> s2 [label="IIN_2 / ONOK"];
	s5 -> s5 [label="ISENDFRAME / OFRAME_1_0"];
	s6 -> s6 [label="IACK_0 / OOK"];
	s6 -> s6 [label="IACK_1 / ONOK"];
	s6 -> s6 [label="IACK_2 / ONOK"];
	s6 -> s7 [label="IIN_0 / OOK"];
	s6 -> s11 [label="IIN_1 / OOK"];
	s6 -> s9 [label="IIN_2 / OOK"];
	s6 -> s6 [label="ISENDFRAME / ONOK"];
	s7 -> s7 [label="IACK_0 / OOK"];
	s7 -> s7 [label="IACK_1 / ONOK"];
	s7 -> s7 [label="IACK_2 / ONOK"];
	s7 -> s2 [label="IIN_0 / ONOK"];
	s7 -> s2 [label="IIN_1 / ONOK"];
	s7 -> s2 [label="IIN_2 / ONOK"];
	s7 -> s8 [label="ISENDFRAME / OFRAME_0_1"];
	s8 -> s8 [label="IACK_0 / OOK"];
	s8 -> s0 [label="IACK_1 / OOK"];
	s8 -> s0 [label="IACK_2 / OOK"];
	s8 -> s2 [label="IIN_0 / ONOK"];
	s8 -> s2 [label="IIN_1 / ONOK"];
	s8 -> s2 [label="IIN_2 / ONOK"];
	s8 -> s8 [label="ISENDFRAME / OFRAME_0_1"];
	s9 -> s9 [label="IACK_0 / OOK"];
	s9 -> s9 [label="IACK_1 / ONOK"];
	s9 -> s9 [label="IACK_2 / ONOK"];
	s9 -> s2 [label="IIN_0 / ONOK"];
	s9 -> s2 [label="IIN_1 / ONOK"];
	s9 -> s2 [label="IIN_2 / ONOK"];
	s9 -> s10 [label="ISENDFRAME / OFRAME_2_1"];
	s10 -> s10 [label="IACK_0 / OOK"];
	s10 -> s0 [label="IACK_1 / OOK"];
	s10 -> s0 [label="IACK_2 / OOK"];
	s10 -> s2 [label="IIN_0 / ONOK"];
	s10 -> s2 [label="IIN_1 / ONOK"];
	s10 -> s2 [label="IIN_2 / ONOK"];
	s10 -> s10 [label="ISENDFRAME / OFRAME_2_1"];
	s11 -> s11 [label="IACK_0 / OOK"];
	s11 -> s11 [label="IACK_1 / ONOK"];
	s11 -> s11 [label="IACK_2 / ONOK"];
	s11 -> s2 [label="IIN_0 / ONOK"];
	s11 -> s2 [label="IIN_1 / ONOK"];
	s11 -> s2 [label="IIN_2 / ONOK"];
	s11 -> s12 [label="ISENDFRAME / OFRAME_1_1"];
	s12 -> s12 [label="IACK_0 / OOK"];
	s12 -> s0 [label="IACK_1 / OOK"];
	s12 -> s0 [label="IACK_2 / OOK"];
	s12 -> s2 [label="IIN_0 / ONOK"];
	s12 -> s2 [label="IIN_1 / ONOK"];
	s12 -> s2 [label="IIN_2 / ONOK"];
	s12 -> s12 [label="ISENDFRAME / OFRAME_1_1"];
	s13 -> s6 [label="IACK_0 / OOK"];
	s13 -> s13 [label="IACK_1 / OOK"];
	s13 -> s13 [label="IACK_2 / OOK"];
	s13 -> s2 [label="IIN_0 / ONOK"];
	s13 -> s2 [label="IIN_1 / ONOK"];
	s13 -> s2 [label="IIN_2 / ONOK"];
	s13 -> s13 [label="ISENDFRAME / OFRAME_0_0"];
	s14 -> s6 [label="IACK_0 / OOK"];
	s14 -> s14 [label="IACK_1 / OOK"];
	s14 -> s14 [label="IACK_2 / OOK"];
	s14 -> s2 [label="IIN_0 / ONOK"];
	s14 -> s2 [label="IIN_1 / ONOK"];
	s14 -> s2 [label="IIN_2 / ONOK"];
	s14 -> s14 [label="ISENDFRAME / OFRAME_2_0"];
__start0 [label="" shape="none" width="0" height="0"];
__start0 -> s0;
}
