digraph g {
	s0 [shape="circle" label="s0"];
	s1 [shape="circle" label="s1"];
	s2 [shape="circle" label="s2"];
	s3 [shape="circle" label="s3"];
	s4 [shape="circle" label="s4"];
	s5 [shape="circle" label="s5"];
	s0 -> s0 [label="generateACSecondARQC / 6D00"];
	s0 -> s0 [label="generateACSecondTC / 6D00"];
	s0 -> s0 [label="generateACFirstAAC / 6D00"];
	s0 -> s0 [label="getValidData / 6A88"];
	s0 -> s0 [label="getProcessingOptionsInvalid / 6D00"];
	s0 -> s0 [label="generateACSecondAAC / 6D00"];
	s0 -> s0 [label="generateACFirstTC / 6D00"];
	s0 -> s0 [label="getInvalidData / 6A88"];
	s0 -> s1 [label="selectApplication / 9000"];
	s0 -> s0 [label="generateACFirstARQC / 6D00"];
	s0 -> s0 [label="readValidRecord / 6E00"];
	s0 -> s0 [label="getProcessingOptions / 6D00"];
	s0 -> s0 [label="readInvalidRecord / 6E00"];
	s0 -> s0 [label="internalAuthenticate / 6E00"];
	s1 -> s1 [label="generateACSecondARQC / 6985"];
	s1 -> s1 [label="generateACSecondTC / 6985"];
	s1 -> s1 [label="generateACFirstAAC / 6985"];
	s1 -> s1 [label="getValidData / 9000"];
	s1 -> s1 [label="getProcessingOptionsInvalid / 6985"];
	s1 -> s1 [label="generateACSecondAAC / 6985"];
	s1 -> s1 [label="generateACFirstTC / 6985"];
	s1 -> s1 [label="getInvalidData / 6A88"];
	s1 -> s1 [label="selectApplication / 9000"];
	s1 -> s1 [label="generateACFirstARQC / 6985"];
	s1 -> s1 [label="readValidRecord / 9000"];
	s1 -> s2 [label="getProcessingOptions / 9000"];
	s1 -> s1 [label="readInvalidRecord / 6A82"];
	s1 -> s1 [label="internalAuthenticate / 6985"];
	s2 -> s1 [label="generateACSecondARQC / 6700"];
	s2 -> s1 [label="generateACSecondTC / 6700"];
	s2 -> s4 [label="generateACFirstAAC / 900000"];
	s2 -> s2 [label="getValidData / 9000"];
	s2 -> s1 [label="getProcessingOptionsInvalid / 6985"];
	s2 -> s1 [label="generateACSecondAAC / 6700"];
	s2 -> s3 [label="generateACFirstTC / 900080"];
	s2 -> s1 [label="getInvalidData / 6A88"];
	s2 -> s1 [label="selectApplication / 9000"];
	s2 -> s3 [label="generateACFirstARQC / 900080"];
	s2 -> s2 [label="readValidRecord / 9000"];
	s2 -> s1 [label="getProcessingOptions / 6985"];
	s2 -> s1 [label="readInvalidRecord / 6A82"];
	s2 -> s5 [label="internalAuthenticate / 9000"];
	s3 -> s1 [label="generateACSecondARQC / 6A86"];
	s3 -> s4 [label="generateACSecondTC / 900000"];
	s3 -> s1 [label="generateACFirstAAC / 6700"];
	s3 -> s1 [label="getValidData / 6985"];
	s3 -> s1 [label="getProcessingOptionsInvalid / 6985"];
	s3 -> s4 [label="generateACSecondAAC / 900000"];
	s3 -> s1 [label="generateACFirstTC / 6700"];
	s3 -> s1 [label="getInvalidData / 6985"];
	s3 -> s1 [label="selectApplication / 9000"];
	s3 -> s1 [label="generateACFirstARQC / 6A86"];
	s3 -> s1 [label="readValidRecord / 6985"];
	s3 -> s1 [label="getProcessingOptions / 6985"];
	s3 -> s1 [label="readInvalidRecord / 6985"];
	s3 -> s1 [label="internalAuthenticate / 6985"];
	s4 -> s1 [label="generateACSecondARQC / 6985"];
	s4 -> s1 [label="generateACSecondTC / 6985"];
	s4 -> s1 [label="generateACFirstAAC / 6985"];
	s4 -> s1 [label="getValidData / 6985"];
	s4 -> s1 [label="getProcessingOptionsInvalid / 6985"];
	s4 -> s1 [label="generateACSecondAAC / 6985"];
	s4 -> s1 [label="generateACFirstTC / 6985"];
	s4 -> s1 [label="getInvalidData / 6985"];
	s4 -> s1 [label="selectApplication / 9000"];
	s4 -> s1 [label="generateACFirstARQC / 6985"];
	s4 -> s1 [label="readValidRecord / 6985"];
	s4 -> s1 [label="getProcessingOptions / 6985"];
	s4 -> s1 [label="readInvalidRecord / 6985"];
	s4 -> s1 [label="internalAuthenticate / 6985"];
	s5 -> s1 [label="generateACSecondARQC / 6700"];
	s5 -> s1 [label="generateACSecondTC / 6700"];
	s5 -> s4 [label="generateACFirstAAC / 900000"];
	s5 -> s5 [label="getValidData / 9000"];
	s5 -> s1 [label="getProcessingOptionsInvalid / 6985"];
	s5 -> s1 [label="generateACSecondAAC / 6700"];
	s5 -> s3 [label="generateACFirstTC / 900080"];
	s5 -> s1 [label="getInvalidData / 6A88"];
	s5 -> s1 [label="selectApplication / 9000"];
	s5 -> s3 [label="generateACFirstARQC / 900080"];
	s5 -> s5 [label="readValidRecord / 9000"];
	s5 -> s1 [label="getProcessingOptions / 6985"];
	s5 -> s1 [label="readInvalidRecord / 6A82"];
	s5 -> s1 [label="internalAuthenticate / 6985"];
__start0 [label="" shape="none" width="0" height="0"];
__start0 -> s0;
}
