digraph g {
	s0 [shape="circle" label="s0"];
	s1 [shape="circle" label="s1"];
	s2 [shape="circle" label="s2"];
	s3 [shape="circle" label="s3"];
	s4 [shape="circle" label="s4"];
	s5 [shape="circle" label="s5"];
	s6 [shape="circle" label="s6"];
	s7 [shape="circle" label="s7"];
	s8 [shape="circle" label="s8"];
	s9 [shape="circle" label="s9"];
	s10 [shape="circle" label="s10"];
	s11 [shape="circle" label="s11"];
	s12 [shape="circle" label="s12"];
	s13 [shape="circle" label="s13"];
	s14 [shape="circle" label="s14"];
	s15 [shape="circle" label="s15"];
	s16 [shape="circle" label="s16"];
	s17 [shape="circle" label="s17"];
	s18 [shape="circle" label="s18"];
	s19 [shape="circle" label="s19"];
	s20 [shape="circle" label="s20"];
	s21 [shape="circle" label="s21"];
	s22 [shape="circle" label="s22"];
	s23 [shape="circle" label="s23"];
	s24 [shape="circle" label="s24"];
	s25 [shape="circle" label="s25"];
	s26 [shape="circle" label="s26"];
	s27 [shape="circle" label="s27"];
	s28 [shape="circle" label="s28"];
	s29 [shape="circle" label="s29"];
	s30 [shape="circle" label="s30"];
	s31 [shape="circle" label="s31"];
	s32 [shape="circle" label="s32"];
	s33 [shape="circle" label="s33"];
	s34 [shape="circle" label="s34"];
	s35 [shape="circle" label="s35"];
	s36 [shape="circle" label="s36"];
	s37 [shape="circle" label="s37"];
	s38 [shape="circle" label="s38"];
	s39 [shape="circle" label="s39"];
	s40 [shape="circle" label="s40"];
	s41 [shape="circle" label="s41"];
	s42 [shape="circle" label="s42"];
	s43 [shape="circle" label="s43"];
	s44 [shape="circle" label="s44"];
	s45 [shape="circle" label="s45"];
	s46 [shape="circle" label="s46"];
	s47 [shape="circle" label="s47"];
	s48 [shape="circle" label="s48"];
	s49 [shape="circle" label="s49"];
	s50 [shape="circle" label="s50"];
	s51 [shape="circle" label="s51"];
	s52 [shape="circle" label="s52"];
	s53 [shape="circle" label="s53"];
	s54 [shape="circle" label="s54"];
	s55 [shape="circle" label="s55"];
	s56 [shape="circle" label="s56"];
	s57 [shape="circle" label="s57"];
	s58 [shape="circle" label="s58"];
	s59 [shape="circle" label="s59"];
	s60 [shape="circle" label="s60"];
	s61 [shape="circle" label="s61"];
	s62 [shape="circle" label="s62"];
	s63 [shape="circle" label="s63"];
	s64 [shape="circle" label="s64"];
	s65 [shape="circle" label="s65"];
	s66 [shape="circle" label="s66"];
	s67 [shape="circle" label="s67"];
	s68 [shape="circle" label="s68"];
	s69 [shape="circle" label="s69"];
	s70 [shape="circle" label="s70"];
	s71 [shape="circle" label="s71"];
	s72 [shape="circle" label="s72"];
	s73 [shape="circle" label="s73"];
	s74 [shape="circle" label="s74"];
	s75 [shape="circle" label="s75"];
	s76 [shape="circle" label="s76"];
	s77 [shape="circle" label="s77"];
	s78 [shape="circle" label="s78"];
	s79 [shape="circle" label="s79"];
	s80 [shape="circle" label="s80"];
	s81 [shape="circle" label="s81"];
	s82 [shape="circle" label="s82"];
	s83 [shape="circle" label="s83"];
	s84 [shape="circle" label="s84"];
	s85 [shape="circle" label="s85"];
	s86 [shape="circle" label="s86"];
	s87 [shape="circle" label="s87"];
	s88 [shape="circle" label="s88"];
	s89 [shape="circle" label="s89"];
	s90 [shape="circle" label="s90"];
	s91 [shape="circle" label="s91"];
	s92 [shape="circle" label="s92"];
	s93 [shape="circle" label="s93"];
	s94 [shape="circle" label="s94"];
	s95 [shape="circle" label="s95"];
	s96 [shape="circle" label="s96"];
	s97 [shape="circle" label="s97"];
	s98 [shape="circle" label="s98"];
	s99 [shape="circle" label="s99"];
	s100 [shape="circle" label="s100"];
	s101 [shape="circle" label="s101"];
	s102 [shape="circle" label="s102"];
	s103 [shape="circle" label="s103"];
	s104 [shape="circle" label="s104"];
	s105 [shape="circle" label="s105"];
	s106 [shape="circle" label="s106"];
	s107 [shape="circle" label="s107"];
	s108 [shape="circle" label="s108"];
	s109 [shape="circle" label="s109"];
	s110 [shape="circle" label="s110"];
	s111 [shape="circle" label="s111"];
	s112 [shape="circle" label="s112"];
	s113 [shape="circle" label="s113"];
	s114 [shape="circle" label="s114"];
	s115 [shape="circle" label="s115"];
	s116 [shape="circle" label="s116"];
	s117 [shape="circle" label="s117"];
	s118 [shape="circle" label="s118"];
	s119 [shape="circle" label="s119"];
	s120 [shape="circle" label="s120"];
	s121 [shape="circle" label="s121"];
	s122 [shape="circle" label="s122"];
	s123 [shape="circle" label="s123"];
	s124 [shape="circle" label="s124"];
	s125 [shape="circle" label="s125"];
	s126 [shape="circle" label="s126"];
	s127 [shape="circle" label="s127"];
	s128 [shape="circle" label="s128"];
	s129 [shape="circle" label="s129"];
	s130 [shape="circle" label="s130"];
	s131 [shape="circle" label="s131"];
	s132 [shape="circle" label="s132"];
	s133 [shape="circle" label="s133"];
	s134 [shape="circle" label="s134"];
	s135 [shape="circle" label="s135"];
	s136 [shape="circle" label="s136"];
	s137 [shape="circle" label="s137"];
	s138 [shape="circle" label="s138"];
	s139 [shape="circle" label="s139"];
	s140 [shape="circle" label="s140"];
	s141 [shape="circle" label="s141"];
	s142 [shape="circle" label="s142"];
	s143 [shape="circle" label="s143"];
	s144 [shape="circle" label="s144"];
	s145 [shape="circle" label="s145"];
	s146 [shape="circle" label="s146"];
	s147 [shape="circle" label="s147"];
	s148 [shape="circle" label="s148"];
	s149 [shape="circle" label="s149"];
	s150 [shape="circle" label="s150"];
	s151 [shape="circle" label="s151"];
	s152 [shape="circle" label="s152"];
	s153 [shape="circle" label="s153"];
	s154 [shape="circle" label="s154"];
	s155 [shape="circle" label="s155"];
	s0 -> s0 [label="IACK / ONOK"];
	s0 -> s6 [label="IREQ_0_0_0 / OFRAME_1_0_0_0"];
	s0 -> s26 [label="IREQ_0_0_1 / OFRAME_1_0_0_0"];
	s0 -> s1 [label="IREQ_0_1_0 / OFRAME_1_0_0_0"];
	s0 -> s19 [label="IREQ_0_1_1 / OFRAME_1_0_0_0"];
	s0 -> s14 [label="IREQ_1_0_0 / OFRAME_1_0_0_1"];
	s0 -> s3 [label="IREQ_1_0_1 / OFRAME_1_0_0_1"];
	s0 -> s27 [label="IREQ_1_1_0 / OFRAME_1_0_0_1"];
	s0 -> s22 [label="IREQ_1_1_1 / OFRAME_1_0_0_1"];
	s0 -> s0 [label="ITIMEOUT / ONOK"];
	s1 -> s2 [label="IACK / OFRAME_0_0_1_1"];
	s1 -> s1 [label="IREQ_0_0_0 / ONOK"];
	s1 -> s1 [label="IREQ_0_0_1 / ONOK"];
	s1 -> s1 [label="IREQ_0_1_0 / ONOK"];
	s1 -> s1 [label="IREQ_0_1_1 / ONOK"];
	s1 -> s1 [label="IREQ_1_0_0 / ONOK"];
	s1 -> s1 [label="IREQ_1_0_1 / ONOK"];
	s1 -> s1 [label="IREQ_1_1_0 / ONOK"];
	s1 -> s1 [label="IREQ_1_1_1 / ONOK"];
	s1 -> s144 [label="ITIMEOUT / OFRAME_1_0_0_0"];
	s2 -> s7 [label="IACK / OFRAME_0_1_0_0"];
	s2 -> s2 [label="IREQ_0_0_0 / ONOK"];
	s2 -> s2 [label="IREQ_0_0_1 / ONOK"];
	s2 -> s2 [label="IREQ_0_1_0 / ONOK"];
	s2 -> s2 [label="IREQ_0_1_1 / ONOK"];
	s2 -> s2 [label="IREQ_1_0_0 / ONOK"];
	s2 -> s2 [label="IREQ_1_0_1 / ONOK"];
	s2 -> s2 [label="IREQ_1_1_0 / ONOK"];
	s2 -> s2 [label="IREQ_1_1_1 / ONOK"];
	s2 -> s50 [label="ITIMEOUT / OFRAME_0_0_1_1"];
	s3 -> s4 [label="IACK / OFRAME_0_0_1_0"];
	s3 -> s3 [label="IREQ_0_0_0 / ONOK"];
	s3 -> s3 [label="IREQ_0_0_1 / ONOK"];
	s3 -> s3 [label="IREQ_0_1_0 / ONOK"];
	s3 -> s3 [label="IREQ_0_1_1 / ONOK"];
	s3 -> s3 [label="IREQ_1_0_0 / ONOK"];
	s3 -> s3 [label="IREQ_1_0_1 / ONOK"];
	s3 -> s3 [label="IREQ_1_1_0 / ONOK"];
	s3 -> s3 [label="IREQ_1_1_1 / ONOK"];
	s3 -> s126 [label="ITIMEOUT / OFRAME_1_0_0_1"];
	s4 -> s5 [label="IACK / OFRAME_0_1_0_1"];
	s4 -> s4 [label="IREQ_0_0_0 / ONOK"];
	s4 -> s4 [label="IREQ_0_0_1 / ONOK"];
	s4 -> s4 [label="IREQ_0_1_0 / ONOK"];
	s4 -> s4 [label="IREQ_0_1_1 / ONOK"];
	s4 -> s4 [label="IREQ_1_0_0 / ONOK"];
	s4 -> s4 [label="IREQ_1_0_1 / ONOK"];
	s4 -> s4 [label="IREQ_1_1_0 / ONOK"];
	s4 -> s4 [label="IREQ_1_1_1 / ONOK"];
	s4 -> s122 [label="ITIMEOUT / OFRAME_0_0_1_0"];
	s5 -> s8 [label="IACK / OCONF_1"];
	s5 -> s5 [label="IREQ_0_0_0 / ONOK"];
	s5 -> s5 [label="IREQ_0_0_1 / ONOK"];
	s5 -> s5 [label="IREQ_0_1_0 / ONOK"];
	s5 -> s5 [label="IREQ_0_1_1 / ONOK"];
	s5 -> s5 [label="IREQ_1_0_0 / ONOK"];
	s5 -> s5 [label="IREQ_1_0_1 / ONOK"];
	s5 -> s5 [label="IREQ_1_1_0 / ONOK"];
	s5 -> s5 [label="IREQ_1_1_1 / ONOK"];
	s5 -> s68 [label="ITIMEOUT / OFRAME_0_1_0_1"];
	s6 -> s13 [label="IACK / OFRAME_0_0_1_0"];
	s6 -> s6 [label="IREQ_0_0_0 / ONOK"];
	s6 -> s6 [label="IREQ_0_0_1 / ONOK"];
	s6 -> s6 [label="IREQ_0_1_0 / ONOK"];
	s6 -> s6 [label="IREQ_0_1_1 / ONOK"];
	s6 -> s6 [label="IREQ_1_0_0 / ONOK"];
	s6 -> s6 [label="IREQ_1_0_1 / ONOK"];
	s6 -> s6 [label="IREQ_1_1_0 / ONOK"];
	s6 -> s6 [label="IREQ_1_1_1 / ONOK"];
	s6 -> s134 [label="ITIMEOUT / OFRAME_1_0_0_0"];
	s7 -> s8 [label="IACK / OCONF_1"];
	s7 -> s7 [label="IREQ_0_0_0 / ONOK"];
	s7 -> s7 [label="IREQ_0_0_1 / ONOK"];
	s7 -> s7 [label="IREQ_0_1_0 / ONOK"];
	s7 -> s7 [label="IREQ_0_1_1 / ONOK"];
	s7 -> s7 [label="IREQ_1_0_0 / ONOK"];
	s7 -> s7 [label="IREQ_1_0_1 / ONOK"];
	s7 -> s7 [label="IREQ_1_1_0 / ONOK"];
	s7 -> s7 [label="IREQ_1_1_1 / ONOK"];
	s7 -> s58 [label="ITIMEOUT / OFRAME_0_1_0_0"];
	s8 -> s8 [label="IACK / ONOK"];
	s8 -> s10 [label="IREQ_0_0_0 / OFRAME_1_0_1_0"];
	s8 -> s28 [label="IREQ_0_0_1 / OFRAME_1_0_1_0"];
	s8 -> s9 [label="IREQ_0_1_0 / OFRAME_1_0_1_0"];
	s8 -> s29 [label="IREQ_0_1_1 / OFRAME_1_0_1_0"];
	s8 -> s18 [label="IREQ_1_0_0 / OFRAME_1_0_1_1"];
	s8 -> s15 [label="IREQ_1_0_1 / OFRAME_1_0_1_1"];
	s8 -> s23 [label="IREQ_1_1_0 / OFRAME_1_0_1_1"];
	s8 -> s24 [label="IREQ_1_1_1 / OFRAME_1_0_1_1"];
	s8 -> s8 [label="ITIMEOUT / ONOK"];
	s9 -> s20 [label="IACK / OFRAME_0_0_0_1"];
	s9 -> s9 [label="IREQ_0_0_0 / ONOK"];
	s9 -> s9 [label="IREQ_0_0_1 / ONOK"];
	s9 -> s9 [label="IREQ_0_1_0 / ONOK"];
	s9 -> s9 [label="IREQ_0_1_1 / ONOK"];
	s9 -> s9 [label="IREQ_1_0_0 / ONOK"];
	s9 -> s9 [label="IREQ_1_0_1 / ONOK"];
	s9 -> s9 [label="IREQ_1_1_0 / ONOK"];
	s9 -> s9 [label="IREQ_1_1_1 / ONOK"];
	s9 -> s86 [label="ITIMEOUT / OFRAME_1_0_1_0"];
	s10 -> s11 [label="IACK / OFRAME_0_0_0_0"];
	s10 -> s10 [label="IREQ_0_0_0 / ONOK"];
	s10 -> s10 [label="IREQ_0_0_1 / ONOK"];
	s10 -> s10 [label="IREQ_0_1_0 / ONOK"];
	s10 -> s10 [label="IREQ_0_1_1 / ONOK"];
	s10 -> s10 [label="IREQ_1_0_0 / ONOK"];
	s10 -> s10 [label="IREQ_1_0_1 / ONOK"];
	s10 -> s10 [label="IREQ_1_1_0 / ONOK"];
	s10 -> s10 [label="IREQ_1_1_1 / ONOK"];
	s10 -> s100 [label="ITIMEOUT / OFRAME_1_0_1_0"];
	s11 -> s12 [label="IACK / OFRAME_0_1_1_0"];
	s11 -> s11 [label="IREQ_0_0_0 / ONOK"];
	s11 -> s11 [label="IREQ_0_0_1 / ONOK"];
	s11 -> s11 [label="IREQ_0_1_0 / ONOK"];
	s11 -> s11 [label="IREQ_0_1_1 / ONOK"];
	s11 -> s11 [label="IREQ_1_0_0 / ONOK"];
	s11 -> s11 [label="IREQ_1_0_1 / ONOK"];
	s11 -> s11 [label="IREQ_1_1_0 / ONOK"];
	s11 -> s11 [label="IREQ_1_1_1 / ONOK"];
	s11 -> s54 [label="ITIMEOUT / OFRAME_0_0_0_0"];
	s12 -> s0 [label="IACK / OCONF_1"];
	s12 -> s12 [label="IREQ_0_0_0 / ONOK"];
	s12 -> s12 [label="IREQ_0_0_1 / ONOK"];
	s12 -> s12 [label="IREQ_0_1_0 / ONOK"];
	s12 -> s12 [label="IREQ_0_1_1 / ONOK"];
	s12 -> s12 [label="IREQ_1_0_0 / ONOK"];
	s12 -> s12 [label="IREQ_1_0_1 / ONOK"];
	s12 -> s12 [label="IREQ_1_1_0 / ONOK"];
	s12 -> s12 [label="IREQ_1_1_1 / ONOK"];
	s12 -> s72 [label="ITIMEOUT / OFRAME_0_1_1_0"];
	s13 -> s7 [label="IACK / OFRAME_0_1_0_0"];
	s13 -> s13 [label="IREQ_0_0_0 / ONOK"];
	s13 -> s13 [label="IREQ_0_0_1 / ONOK"];
	s13 -> s13 [label="IREQ_0_1_0 / ONOK"];
	s13 -> s13 [label="IREQ_0_1_1 / ONOK"];
	s13 -> s13 [label="IREQ_1_0_0 / ONOK"];
	s13 -> s13 [label="IREQ_1_0_1 / ONOK"];
	s13 -> s13 [label="IREQ_1_1_0 / ONOK"];
	s13 -> s13 [label="IREQ_1_1_1 / ONOK"];
	s13 -> s40 [label="ITIMEOUT / OFRAME_0_0_1_0"];
	s14 -> s13 [label="IACK / OFRAME_0_0_1_0"];
	s14 -> s14 [label="IREQ_0_0_0 / ONOK"];
	s14 -> s14 [label="IREQ_0_0_1 / ONOK"];
	s14 -> s14 [label="IREQ_0_1_0 / ONOK"];
	s14 -> s14 [label="IREQ_0_1_1 / ONOK"];
	s14 -> s14 [label="IREQ_1_0_0 / ONOK"];
	s14 -> s14 [label="IREQ_1_0_1 / ONOK"];
	s14 -> s14 [label="IREQ_1_1_0 / ONOK"];
	s14 -> s14 [label="IREQ_1_1_1 / ONOK"];
	s14 -> s35 [label="ITIMEOUT / OFRAME_1_0_0_1"];
	s15 -> s16 [label="IACK / OFRAME_0_0_0_0"];
	s15 -> s15 [label="IREQ_0_0_0 / ONOK"];
	s15 -> s15 [label="IREQ_0_0_1 / ONOK"];
	s15 -> s15 [label="IREQ_0_1_0 / ONOK"];
	s15 -> s15 [label="IREQ_0_1_1 / ONOK"];
	s15 -> s15 [label="IREQ_1_0_0 / ONOK"];
	s15 -> s15 [label="IREQ_1_0_1 / ONOK"];
	s15 -> s15 [label="IREQ_1_1_0 / ONOK"];
	s15 -> s15 [label="IREQ_1_1_1 / ONOK"];
	s15 -> s139 [label="ITIMEOUT / OFRAME_1_0_1_1"];
	s16 -> s17 [label="IACK / OFRAME_0_1_1_1"];
	s16 -> s16 [label="IREQ_0_0_0 / ONOK"];
	s16 -> s16 [label="IREQ_0_0_1 / ONOK"];
	s16 -> s16 [label="IREQ_0_1_0 / ONOK"];
	s16 -> s16 [label="IREQ_0_1_1 / ONOK"];
	s16 -> s16 [label="IREQ_1_0_0 / ONOK"];
	s16 -> s16 [label="IREQ_1_0_1 / ONOK"];
	s16 -> s16 [label="IREQ_1_1_0 / ONOK"];
	s16 -> s16 [label="IREQ_1_1_1 / ONOK"];
	s16 -> s118 [label="ITIMEOUT / OFRAME_0_0_0_0"];
	s17 -> s0 [label="IACK / OCONF_1"];
	s17 -> s17 [label="IREQ_0_0_0 / ONOK"];
	s17 -> s17 [label="IREQ_0_0_1 / ONOK"];
	s17 -> s17 [label="IREQ_0_1_0 / ONOK"];
	s17 -> s17 [label="IREQ_0_1_1 / ONOK"];
	s17 -> s17 [label="IREQ_1_0_0 / ONOK"];
	s17 -> s17 [label="IREQ_1_0_1 / ONOK"];
	s17 -> s17 [label="IREQ_1_1_0 / ONOK"];
	s17 -> s17 [label="IREQ_1_1_1 / ONOK"];
	s17 -> s77 [label="ITIMEOUT / OFRAME_0_1_1_1"];
	s18 -> s11 [label="IACK / OFRAME_0_0_0_0"];
	s18 -> s18 [label="IREQ_0_0_0 / ONOK"];
	s18 -> s18 [label="IREQ_0_0_1 / ONOK"];
	s18 -> s18 [label="IREQ_0_1_0 / ONOK"];
	s18 -> s18 [label="IREQ_0_1_1 / ONOK"];
	s18 -> s18 [label="IREQ_1_0_0 / ONOK"];
	s18 -> s18 [label="IREQ_1_0_1 / ONOK"];
	s18 -> s18 [label="IREQ_1_1_0 / ONOK"];
	s18 -> s18 [label="IREQ_1_1_1 / ONOK"];
	s18 -> s90 [label="ITIMEOUT / OFRAME_1_0_1_1"];
	s19 -> s21 [label="IACK / OFRAME_0_0_1_1"];
	s19 -> s19 [label="IREQ_0_0_0 / ONOK"];
	s19 -> s19 [label="IREQ_0_0_1 / ONOK"];
	s19 -> s19 [label="IREQ_0_1_0 / ONOK"];
	s19 -> s19 [label="IREQ_0_1_1 / ONOK"];
	s19 -> s19 [label="IREQ_1_0_0 / ONOK"];
	s19 -> s19 [label="IREQ_1_0_1 / ONOK"];
	s19 -> s19 [label="IREQ_1_1_0 / ONOK"];
	s19 -> s19 [label="IREQ_1_1_1 / ONOK"];
	s19 -> s95 [label="ITIMEOUT / OFRAME_1_0_0_0"];
	s20 -> s12 [label="IACK / OFRAME_0_1_1_0"];
	s20 -> s20 [label="IREQ_0_0_0 / ONOK"];
	s20 -> s20 [label="IREQ_0_0_1 / ONOK"];
	s20 -> s20 [label="IREQ_0_1_0 / ONOK"];
	s20 -> s20 [label="IREQ_0_1_1 / ONOK"];
	s20 -> s20 [label="IREQ_1_0_0 / ONOK"];
	s20 -> s20 [label="IREQ_1_0_1 / ONOK"];
	s20 -> s20 [label="IREQ_1_1_0 / ONOK"];
	s20 -> s20 [label="IREQ_1_1_1 / ONOK"];
	s20 -> s45 [label="ITIMEOUT / OFRAME_0_0_0_1"];
	s21 -> s5 [label="IACK / OFRAME_0_1_0_1"];
	s21 -> s21 [label="IREQ_0_0_0 / ONOK"];
	s21 -> s21 [label="IREQ_0_0_1 / ONOK"];
	s21 -> s21 [label="IREQ_0_1_0 / ONOK"];
	s21 -> s21 [label="IREQ_0_1_1 / ONOK"];
	s21 -> s21 [label="IREQ_1_0_0 / ONOK"];
	s21 -> s21 [label="IREQ_1_0_1 / ONOK"];
	s21 -> s21 [label="IREQ_1_1_0 / ONOK"];
	s21 -> s21 [label="IREQ_1_1_1 / ONOK"];
	s21 -> s81 [label="ITIMEOUT / OFRAME_0_0_1_1"];
	s22 -> s21 [label="IACK / OFRAME_0_0_1_1"];
	s22 -> s22 [label="IREQ_0_0_0 / ONOK"];
	s22 -> s22 [label="IREQ_0_0_1 / ONOK"];
	s22 -> s22 [label="IREQ_0_1_0 / ONOK"];
	s22 -> s22 [label="IREQ_0_1_1 / ONOK"];
	s22 -> s22 [label="IREQ_1_0_0 / ONOK"];
	s22 -> s22 [label="IREQ_1_0_1 / ONOK"];
	s22 -> s22 [label="IREQ_1_1_0 / ONOK"];
	s22 -> s22 [label="IREQ_1_1_1 / ONOK"];
	s22 -> s30 [label="ITIMEOUT / OFRAME_1_0_0_1"];
	s23 -> s20 [label="IACK / OFRAME_0_0_0_1"];
	s23 -> s23 [label="IREQ_0_0_0 / ONOK"];
	s23 -> s23 [label="IREQ_0_0_1 / ONOK"];
	s23 -> s23 [label="IREQ_0_1_0 / ONOK"];
	s23 -> s23 [label="IREQ_0_1_1 / ONOK"];
	s23 -> s23 [label="IREQ_1_0_0 / ONOK"];
	s23 -> s23 [label="IREQ_1_0_1 / ONOK"];
	s23 -> s23 [label="IREQ_1_1_0 / ONOK"];
	s23 -> s23 [label="IREQ_1_1_1 / ONOK"];
	s23 -> s104 [label="ITIMEOUT / OFRAME_1_0_1_1"];
	s24 -> s25 [label="IACK / OFRAME_0_0_0_1"];
	s24 -> s24 [label="IREQ_0_0_0 / ONOK"];
	s24 -> s24 [label="IREQ_0_0_1 / ONOK"];
	s24 -> s24 [label="IREQ_0_1_0 / ONOK"];
	s24 -> s24 [label="IREQ_0_1_1 / ONOK"];
	s24 -> s24 [label="IREQ_1_0_0 / ONOK"];
	s24 -> s24 [label="IREQ_1_0_1 / ONOK"];
	s24 -> s24 [label="IREQ_1_1_0 / ONOK"];
	s24 -> s24 [label="IREQ_1_1_1 / ONOK"];
	s24 -> s152 [label="ITIMEOUT / OFRAME_1_0_1_1"];
	s25 -> s17 [label="IACK / OFRAME_0_1_1_1"];
	s25 -> s25 [label="IREQ_0_0_0 / ONOK"];
	s25 -> s25 [label="IREQ_0_0_1 / ONOK"];
	s25 -> s25 [label="IREQ_0_1_0 / ONOK"];
	s25 -> s25 [label="IREQ_0_1_1 / ONOK"];
	s25 -> s25 [label="IREQ_1_0_0 / ONOK"];
	s25 -> s25 [label="IREQ_1_0_1 / ONOK"];
	s25 -> s25 [label="IREQ_1_1_0 / ONOK"];
	s25 -> s25 [label="IREQ_1_1_1 / ONOK"];
	s25 -> s113 [label="ITIMEOUT / OFRAME_0_0_0_1"];
	s26 -> s4 [label="IACK / OFRAME_0_0_1_0"];
	s26 -> s26 [label="IREQ_0_0_0 / ONOK"];
	s26 -> s26 [label="IREQ_0_0_1 / ONOK"];
	s26 -> s26 [label="IREQ_0_1_0 / ONOK"];
	s26 -> s26 [label="IREQ_0_1_1 / ONOK"];
	s26 -> s26 [label="IREQ_1_0_0 / ONOK"];
	s26 -> s26 [label="IREQ_1_0_1 / ONOK"];
	s26 -> s26 [label="IREQ_1_1_0 / ONOK"];
	s26 -> s26 [label="IREQ_1_1_1 / ONOK"];
	s26 -> s148 [label="ITIMEOUT / OFRAME_1_0_0_0"];
	s27 -> s2 [label="IACK / OFRAME_0_0_1_1"];
	s27 -> s27 [label="IREQ_0_0_0 / ONOK"];
	s27 -> s27 [label="IREQ_0_0_1 / ONOK"];
	s27 -> s27 [label="IREQ_0_1_0 / ONOK"];
	s27 -> s27 [label="IREQ_0_1_1 / ONOK"];
	s27 -> s27 [label="IREQ_1_0_0 / ONOK"];
	s27 -> s27 [label="IREQ_1_0_1 / ONOK"];
	s27 -> s27 [label="IREQ_1_1_0 / ONOK"];
	s27 -> s27 [label="IREQ_1_1_1 / ONOK"];
	s27 -> s108 [label="ITIMEOUT / OFRAME_1_0_0_1"];
	s28 -> s16 [label="IACK / OFRAME_0_0_0_0"];
	s28 -> s28 [label="IREQ_0_0_0 / ONOK"];
	s28 -> s28 [label="IREQ_0_0_1 / ONOK"];
	s28 -> s28 [label="IREQ_0_1_0 / ONOK"];
	s28 -> s28 [label="IREQ_0_1_1 / ONOK"];
	s28 -> s28 [label="IREQ_1_0_0 / ONOK"];
	s28 -> s28 [label="IREQ_1_0_1 / ONOK"];
	s28 -> s28 [label="IREQ_1_1_0 / ONOK"];
	s28 -> s28 [label="IREQ_1_1_1 / ONOK"];
	s28 -> s130 [label="ITIMEOUT / OFRAME_1_0_1_0"];
	s29 -> s25 [label="IACK / OFRAME_0_0_0_1"];
	s29 -> s29 [label="IREQ_0_0_0 / ONOK"];
	s29 -> s29 [label="IREQ_0_0_1 / ONOK"];
	s29 -> s29 [label="IREQ_0_1_0 / ONOK"];
	s29 -> s29 [label="IREQ_0_1_1 / ONOK"];
	s29 -> s29 [label="IREQ_1_0_0 / ONOK"];
	s29 -> s29 [label="IREQ_1_0_1 / ONOK"];
	s29 -> s29 [label="IREQ_1_1_0 / ONOK"];
	s29 -> s29 [label="IREQ_1_1_1 / ONOK"];
	s29 -> s63 [label="ITIMEOUT / OFRAME_1_0_1_0"];
	s30 -> s21 [label="IACK / OFRAME_0_0_1_1"];
	s30 -> s30 [label="IREQ_0_0_0 / ONOK"];
	s30 -> s30 [label="IREQ_0_0_1 / ONOK"];
	s30 -> s30 [label="IREQ_0_1_0 / ONOK"];
	s30 -> s30 [label="IREQ_0_1_1 / ONOK"];
	s30 -> s30 [label="IREQ_1_0_0 / ONOK"];
	s30 -> s30 [label="IREQ_1_0_1 / ONOK"];
	s30 -> s30 [label="IREQ_1_1_0 / ONOK"];
	s30 -> s30 [label="IREQ_1_1_1 / ONOK"];
	s30 -> s31 [label="ITIMEOUT / OFRAME_1_0_0_1"];
	s31 -> s21 [label="IACK / OFRAME_0_0_1_1"];
	s31 -> s31 [label="IREQ_0_0_0 / ONOK"];
	s31 -> s31 [label="IREQ_0_0_1 / ONOK"];
	s31 -> s31 [label="IREQ_0_1_0 / ONOK"];
	s31 -> s31 [label="IREQ_0_1_1 / ONOK"];
	s31 -> s31 [label="IREQ_1_0_0 / ONOK"];
	s31 -> s31 [label="IREQ_1_0_1 / ONOK"];
	s31 -> s31 [label="IREQ_1_1_0 / ONOK"];
	s31 -> s31 [label="IREQ_1_1_1 / ONOK"];
	s31 -> s32 [label="ITIMEOUT / OFRAME_1_0_0_1"];
	s32 -> s21 [label="IACK / OFRAME_0_0_1_1"];
	s32 -> s32 [label="IREQ_0_0_0 / ONOK"];
	s32 -> s32 [label="IREQ_0_0_1 / ONOK"];
	s32 -> s32 [label="IREQ_0_1_0 / ONOK"];
	s32 -> s32 [label="IREQ_0_1_1 / ONOK"];
	s32 -> s32 [label="IREQ_1_0_0 / ONOK"];
	s32 -> s32 [label="IREQ_1_0_1 / ONOK"];
	s32 -> s32 [label="IREQ_1_1_0 / ONOK"];
	s32 -> s32 [label="IREQ_1_1_1 / ONOK"];
	s32 -> s33 [label="ITIMEOUT / OFRAME_1_0_0_1"];
	s33 -> s21 [label="IACK / OFRAME_0_0_1_1"];
	s33 -> s33 [label="IREQ_0_0_0 / ONOK"];
	s33 -> s33 [label="IREQ_0_0_1 / ONOK"];
	s33 -> s33 [label="IREQ_0_1_0 / ONOK"];
	s33 -> s33 [label="IREQ_0_1_1 / ONOK"];
	s33 -> s33 [label="IREQ_1_0_0 / ONOK"];
	s33 -> s33 [label="IREQ_1_0_1 / ONOK"];
	s33 -> s33 [label="IREQ_1_1_0 / ONOK"];
	s33 -> s33 [label="IREQ_1_1_1 / ONOK"];
	s33 -> s34 [label="ITIMEOUT / OFRAME_1_0_0_1"];
	s34 -> s21 [label="IACK / OFRAME_0_0_1_1"];
	s34 -> s34 [label="IREQ_0_0_0 / ONOK"];
	s34 -> s34 [label="IREQ_0_0_1 / ONOK"];
	s34 -> s34 [label="IREQ_0_1_0 / ONOK"];
	s34 -> s34 [label="IREQ_0_1_1 / ONOK"];
	s34 -> s34 [label="IREQ_1_0_0 / ONOK"];
	s34 -> s34 [label="IREQ_1_0_1 / ONOK"];
	s34 -> s34 [label="IREQ_1_1_0 / ONOK"];
	s34 -> s34 [label="IREQ_1_1_1 / ONOK"];
	s34 -> s0 [label="ITIMEOUT / OCONF_0"];
	s35 -> s13 [label="IACK / OFRAME_0_0_1_0"];
	s35 -> s35 [label="IREQ_0_0_0 / ONOK"];
	s35 -> s35 [label="IREQ_0_0_1 / ONOK"];
	s35 -> s35 [label="IREQ_0_1_0 / ONOK"];
	s35 -> s35 [label="IREQ_0_1_1 / ONOK"];
	s35 -> s35 [label="IREQ_1_0_0 / ONOK"];
	s35 -> s35 [label="IREQ_1_0_1 / ONOK"];
	s35 -> s35 [label="IREQ_1_1_0 / ONOK"];
	s35 -> s35 [label="IREQ_1_1_1 / ONOK"];
	s35 -> s36 [label="ITIMEOUT / OFRAME_1_0_0_1"];
	s36 -> s13 [label="IACK / OFRAME_0_0_1_0"];
	s36 -> s36 [label="IREQ_0_0_0 / ONOK"];
	s36 -> s36 [label="IREQ_0_0_1 / ONOK"];
	s36 -> s36 [label="IREQ_0_1_0 / ONOK"];
	s36 -> s36 [label="IREQ_0_1_1 / ONOK"];
	s36 -> s36 [label="IREQ_1_0_0 / ONOK"];
	s36 -> s36 [label="IREQ_1_0_1 / ONOK"];
	s36 -> s36 [label="IREQ_1_1_0 / ONOK"];
	s36 -> s36 [label="IREQ_1_1_1 / ONOK"];
	s36 -> s37 [label="ITIMEOUT / OFRAME_1_0_0_1"];
	s37 -> s13 [label="IACK / OFRAME_0_0_1_0"];
	s37 -> s37 [label="IREQ_0_0_0 / ONOK"];
	s37 -> s37 [label="IREQ_0_0_1 / ONOK"];
	s37 -> s37 [label="IREQ_0_1_0 / ONOK"];
	s37 -> s37 [label="IREQ_0_1_1 / ONOK"];
	s37 -> s37 [label="IREQ_1_0_0 / ONOK"];
	s37 -> s37 [label="IREQ_1_0_1 / ONOK"];
	s37 -> s37 [label="IREQ_1_1_0 / ONOK"];
	s37 -> s37 [label="IREQ_1_1_1 / ONOK"];
	s37 -> s38 [label="ITIMEOUT / OFRAME_1_0_0_1"];
	s38 -> s13 [label="IACK / OFRAME_0_0_1_0"];
	s38 -> s38 [label="IREQ_0_0_0 / ONOK"];
	s38 -> s38 [label="IREQ_0_0_1 / ONOK"];
	s38 -> s38 [label="IREQ_0_1_0 / ONOK"];
	s38 -> s38 [label="IREQ_0_1_1 / ONOK"];
	s38 -> s38 [label="IREQ_1_0_0 / ONOK"];
	s38 -> s38 [label="IREQ_1_0_1 / ONOK"];
	s38 -> s38 [label="IREQ_1_1_0 / ONOK"];
	s38 -> s38 [label="IREQ_1_1_1 / ONOK"];
	s38 -> s39 [label="ITIMEOUT / OFRAME_1_0_0_1"];
	s39 -> s13 [label="IACK / OFRAME_0_0_1_0"];
	s39 -> s39 [label="IREQ_0_0_0 / ONOK"];
	s39 -> s39 [label="IREQ_0_0_1 / ONOK"];
	s39 -> s39 [label="IREQ_0_1_0 / ONOK"];
	s39 -> s39 [label="IREQ_0_1_1 / ONOK"];
	s39 -> s39 [label="IREQ_1_0_0 / ONOK"];
	s39 -> s39 [label="IREQ_1_0_1 / ONOK"];
	s39 -> s39 [label="IREQ_1_1_0 / ONOK"];
	s39 -> s39 [label="IREQ_1_1_1 / ONOK"];
	s39 -> s0 [label="ITIMEOUT / OCONF_0"];
	s40 -> s7 [label="IACK / OFRAME_0_1_0_0"];
	s40 -> s40 [label="IREQ_0_0_0 / ONOK"];
	s40 -> s40 [label="IREQ_0_0_1 / ONOK"];
	s40 -> s40 [label="IREQ_0_1_0 / ONOK"];
	s40 -> s40 [label="IREQ_0_1_1 / ONOK"];
	s40 -> s40 [label="IREQ_1_0_0 / ONOK"];
	s40 -> s40 [label="IREQ_1_0_1 / ONOK"];
	s40 -> s40 [label="IREQ_1_1_0 / ONOK"];
	s40 -> s40 [label="IREQ_1_1_1 / ONOK"];
	s40 -> s41 [label="ITIMEOUT / OFRAME_0_0_1_0"];
	s41 -> s7 [label="IACK / OFRAME_0_1_0_0"];
	s41 -> s41 [label="IREQ_0_0_0 / ONOK"];
	s41 -> s41 [label="IREQ_0_0_1 / ONOK"];
	s41 -> s41 [label="IREQ_0_1_0 / ONOK"];
	s41 -> s41 [label="IREQ_0_1_1 / ONOK"];
	s41 -> s41 [label="IREQ_1_0_0 / ONOK"];
	s41 -> s41 [label="IREQ_1_0_1 / ONOK"];
	s41 -> s41 [label="IREQ_1_1_0 / ONOK"];
	s41 -> s41 [label="IREQ_1_1_1 / ONOK"];
	s41 -> s42 [label="ITIMEOUT / OFRAME_0_0_1_0"];
	s42 -> s7 [label="IACK / OFRAME_0_1_0_0"];
	s42 -> s42 [label="IREQ_0_0_0 / ONOK"];
	s42 -> s42 [label="IREQ_0_0_1 / ONOK"];
	s42 -> s42 [label="IREQ_0_1_0 / ONOK"];
	s42 -> s42 [label="IREQ_0_1_1 / ONOK"];
	s42 -> s42 [label="IREQ_1_0_0 / ONOK"];
	s42 -> s42 [label="IREQ_1_0_1 / ONOK"];
	s42 -> s42 [label="IREQ_1_1_0 / ONOK"];
	s42 -> s42 [label="IREQ_1_1_1 / ONOK"];
	s42 -> s43 [label="ITIMEOUT / OFRAME_0_0_1_0"];
	s43 -> s7 [label="IACK / OFRAME_0_1_0_0"];
	s43 -> s43 [label="IREQ_0_0_0 / ONOK"];
	s43 -> s43 [label="IREQ_0_0_1 / ONOK"];
	s43 -> s43 [label="IREQ_0_1_0 / ONOK"];
	s43 -> s43 [label="IREQ_0_1_1 / ONOK"];
	s43 -> s43 [label="IREQ_1_0_0 / ONOK"];
	s43 -> s43 [label="IREQ_1_0_1 / ONOK"];
	s43 -> s43 [label="IREQ_1_1_0 / ONOK"];
	s43 -> s43 [label="IREQ_1_1_1 / ONOK"];
	s43 -> s44 [label="ITIMEOUT / OFRAME_0_0_1_0"];
	s44 -> s7 [label="IACK / OFRAME_0_1_0_0"];
	s44 -> s44 [label="IREQ_0_0_0 / ONOK"];
	s44 -> s44 [label="IREQ_0_0_1 / ONOK"];
	s44 -> s44 [label="IREQ_0_1_0 / ONOK"];
	s44 -> s44 [label="IREQ_0_1_1 / ONOK"];
	s44 -> s44 [label="IREQ_1_0_0 / ONOK"];
	s44 -> s44 [label="IREQ_1_0_1 / ONOK"];
	s44 -> s44 [label="IREQ_1_1_0 / ONOK"];
	s44 -> s44 [label="IREQ_1_1_1 / ONOK"];
	s44 -> s8 [label="ITIMEOUT / OCONF_0"];
	s45 -> s12 [label="IACK / OFRAME_0_1_1_0"];
	s45 -> s45 [label="IREQ_0_0_0 / ONOK"];
	s45 -> s45 [label="IREQ_0_0_1 / ONOK"];
	s45 -> s45 [label="IREQ_0_1_0 / ONOK"];
	s45 -> s45 [label="IREQ_0_1_1 / ONOK"];
	s45 -> s45 [label="IREQ_1_0_0 / ONOK"];
	s45 -> s45 [label="IREQ_1_0_1 / ONOK"];
	s45 -> s45 [label="IREQ_1_1_0 / ONOK"];
	s45 -> s45 [label="IREQ_1_1_1 / ONOK"];
	s45 -> s46 [label="ITIMEOUT / OFRAME_0_0_0_1"];
	s46 -> s12 [label="IACK / OFRAME_0_1_1_0"];
	s46 -> s46 [label="IREQ_0_0_0 / ONOK"];
	s46 -> s46 [label="IREQ_0_0_1 / ONOK"];
	s46 -> s46 [label="IREQ_0_1_0 / ONOK"];
	s46 -> s46 [label="IREQ_0_1_1 / ONOK"];
	s46 -> s46 [label="IREQ_1_0_0 / ONOK"];
	s46 -> s46 [label="IREQ_1_0_1 / ONOK"];
	s46 -> s46 [label="IREQ_1_1_0 / ONOK"];
	s46 -> s46 [label="IREQ_1_1_1 / ONOK"];
	s46 -> s47 [label="ITIMEOUT / OFRAME_0_0_0_1"];
	s47 -> s12 [label="IACK / OFRAME_0_1_1_0"];
	s47 -> s47 [label="IREQ_0_0_0 / ONOK"];
	s47 -> s47 [label="IREQ_0_0_1 / ONOK"];
	s47 -> s47 [label="IREQ_0_1_0 / ONOK"];
	s47 -> s47 [label="IREQ_0_1_1 / ONOK"];
	s47 -> s47 [label="IREQ_1_0_0 / ONOK"];
	s47 -> s47 [label="IREQ_1_0_1 / ONOK"];
	s47 -> s47 [label="IREQ_1_1_0 / ONOK"];
	s47 -> s47 [label="IREQ_1_1_1 / ONOK"];
	s47 -> s48 [label="ITIMEOUT / OFRAME_0_0_0_1"];
	s48 -> s12 [label="IACK / OFRAME_0_1_1_0"];
	s48 -> s48 [label="IREQ_0_0_0 / ONOK"];
	s48 -> s48 [label="IREQ_0_0_1 / ONOK"];
	s48 -> s48 [label="IREQ_0_1_0 / ONOK"];
	s48 -> s48 [label="IREQ_0_1_1 / ONOK"];
	s48 -> s48 [label="IREQ_1_0_0 / ONOK"];
	s48 -> s48 [label="IREQ_1_0_1 / ONOK"];
	s48 -> s48 [label="IREQ_1_1_0 / ONOK"];
	s48 -> s48 [label="IREQ_1_1_1 / ONOK"];
	s48 -> s49 [label="ITIMEOUT / OFRAME_0_0_0_1"];
	s49 -> s12 [label="IACK / OFRAME_0_1_1_0"];
	s49 -> s49 [label="IREQ_0_0_0 / ONOK"];
	s49 -> s49 [label="IREQ_0_0_1 / ONOK"];
	s49 -> s49 [label="IREQ_0_1_0 / ONOK"];
	s49 -> s49 [label="IREQ_0_1_1 / ONOK"];
	s49 -> s49 [label="IREQ_1_0_0 / ONOK"];
	s49 -> s49 [label="IREQ_1_0_1 / ONOK"];
	s49 -> s49 [label="IREQ_1_1_0 / ONOK"];
	s49 -> s49 [label="IREQ_1_1_1 / ONOK"];
	s49 -> s0 [label="ITIMEOUT / OCONF_0"];
	s50 -> s7 [label="IACK / OFRAME_0_1_0_0"];
	s50 -> s50 [label="IREQ_0_0_0 / ONOK"];
	s50 -> s50 [label="IREQ_0_0_1 / ONOK"];
	s50 -> s50 [label="IREQ_0_1_0 / ONOK"];
	s50 -> s50 [label="IREQ_0_1_1 / ONOK"];
	s50 -> s50 [label="IREQ_1_0_0 / ONOK"];
	s50 -> s50 [label="IREQ_1_0_1 / ONOK"];
	s50 -> s50 [label="IREQ_1_1_0 / ONOK"];
	s50 -> s50 [label="IREQ_1_1_1 / ONOK"];
	s50 -> s51 [label="ITIMEOUT / OFRAME_0_0_1_1"];
	s51 -> s7 [label="IACK / OFRAME_0_1_0_0"];
	s51 -> s51 [label="IREQ_0_0_0 / ONOK"];
	s51 -> s51 [label="IREQ_0_0_1 / ONOK"];
	s51 -> s51 [label="IREQ_0_1_0 / ONOK"];
	s51 -> s51 [label="IREQ_0_1_1 / ONOK"];
	s51 -> s51 [label="IREQ_1_0_0 / ONOK"];
	s51 -> s51 [label="IREQ_1_0_1 / ONOK"];
	s51 -> s51 [label="IREQ_1_1_0 / ONOK"];
	s51 -> s51 [label="IREQ_1_1_1 / ONOK"];
	s51 -> s52 [label="ITIMEOUT / OFRAME_0_0_1_1"];
	s52 -> s7 [label="IACK / OFRAME_0_1_0_0"];
	s52 -> s52 [label="IREQ_0_0_0 / ONOK"];
	s52 -> s52 [label="IREQ_0_0_1 / ONOK"];
	s52 -> s52 [label="IREQ_0_1_0 / ONOK"];
	s52 -> s52 [label="IREQ_0_1_1 / ONOK"];
	s52 -> s52 [label="IREQ_1_0_0 / ONOK"];
	s52 -> s52 [label="IREQ_1_0_1 / ONOK"];
	s52 -> s52 [label="IREQ_1_1_0 / ONOK"];
	s52 -> s52 [label="IREQ_1_1_1 / ONOK"];
	s52 -> s53 [label="ITIMEOUT / OFRAME_0_0_1_1"];
	s53 -> s7 [label="IACK / OFRAME_0_1_0_0"];
	s53 -> s53 [label="IREQ_0_0_0 / ONOK"];
	s53 -> s53 [label="IREQ_0_0_1 / ONOK"];
	s53 -> s53 [label="IREQ_0_1_0 / ONOK"];
	s53 -> s53 [label="IREQ_0_1_1 / ONOK"];
	s53 -> s53 [label="IREQ_1_0_0 / ONOK"];
	s53 -> s53 [label="IREQ_1_0_1 / ONOK"];
	s53 -> s53 [label="IREQ_1_1_0 / ONOK"];
	s53 -> s53 [label="IREQ_1_1_1 / ONOK"];
	s53 -> s44 [label="ITIMEOUT / OFRAME_0_0_1_1"];
	s54 -> s12 [label="IACK / OFRAME_0_1_1_0"];
	s54 -> s54 [label="IREQ_0_0_0 / ONOK"];
	s54 -> s54 [label="IREQ_0_0_1 / ONOK"];
	s54 -> s54 [label="IREQ_0_1_0 / ONOK"];
	s54 -> s54 [label="IREQ_0_1_1 / ONOK"];
	s54 -> s54 [label="IREQ_1_0_0 / ONOK"];
	s54 -> s54 [label="IREQ_1_0_1 / ONOK"];
	s54 -> s54 [label="IREQ_1_1_0 / ONOK"];
	s54 -> s54 [label="IREQ_1_1_1 / ONOK"];
	s54 -> s55 [label="ITIMEOUT / OFRAME_0_0_0_0"];
	s55 -> s12 [label="IACK / OFRAME_0_1_1_0"];
	s55 -> s55 [label="IREQ_0_0_0 / ONOK"];
	s55 -> s55 [label="IREQ_0_0_1 / ONOK"];
	s55 -> s55 [label="IREQ_0_1_0 / ONOK"];
	s55 -> s55 [label="IREQ_0_1_1 / ONOK"];
	s55 -> s55 [label="IREQ_1_0_0 / ONOK"];
	s55 -> s55 [label="IREQ_1_0_1 / ONOK"];
	s55 -> s55 [label="IREQ_1_1_0 / ONOK"];
	s55 -> s55 [label="IREQ_1_1_1 / ONOK"];
	s55 -> s56 [label="ITIMEOUT / OFRAME_0_0_0_0"];
	s56 -> s12 [label="IACK / OFRAME_0_1_1_0"];
	s56 -> s56 [label="IREQ_0_0_0 / ONOK"];
	s56 -> s56 [label="IREQ_0_0_1 / ONOK"];
	s56 -> s56 [label="IREQ_0_1_0 / ONOK"];
	s56 -> s56 [label="IREQ_0_1_1 / ONOK"];
	s56 -> s56 [label="IREQ_1_0_0 / ONOK"];
	s56 -> s56 [label="IREQ_1_0_1 / ONOK"];
	s56 -> s56 [label="IREQ_1_1_0 / ONOK"];
	s56 -> s56 [label="IREQ_1_1_1 / ONOK"];
	s56 -> s57 [label="ITIMEOUT / OFRAME_0_0_0_0"];
	s57 -> s12 [label="IACK / OFRAME_0_1_1_0"];
	s57 -> s57 [label="IREQ_0_0_0 / ONOK"];
	s57 -> s57 [label="IREQ_0_0_1 / ONOK"];
	s57 -> s57 [label="IREQ_0_1_0 / ONOK"];
	s57 -> s57 [label="IREQ_0_1_1 / ONOK"];
	s57 -> s57 [label="IREQ_1_0_0 / ONOK"];
	s57 -> s57 [label="IREQ_1_0_1 / ONOK"];
	s57 -> s57 [label="IREQ_1_1_0 / ONOK"];
	s57 -> s57 [label="IREQ_1_1_1 / ONOK"];
	s57 -> s49 [label="ITIMEOUT / OFRAME_0_0_0_0"];
	s58 -> s8 [label="IACK / OCONF_1"];
	s58 -> s58 [label="IREQ_0_0_0 / ONOK"];
	s58 -> s58 [label="IREQ_0_0_1 / ONOK"];
	s58 -> s58 [label="IREQ_0_1_0 / ONOK"];
	s58 -> s58 [label="IREQ_0_1_1 / ONOK"];
	s58 -> s58 [label="IREQ_1_0_0 / ONOK"];
	s58 -> s58 [label="IREQ_1_0_1 / ONOK"];
	s58 -> s58 [label="IREQ_1_1_0 / ONOK"];
	s58 -> s58 [label="IREQ_1_1_1 / ONOK"];
	s58 -> s59 [label="ITIMEOUT / OFRAME_0_1_0_0"];
	s59 -> s8 [label="IACK / OCONF_1"];
	s59 -> s59 [label="IREQ_0_0_0 / ONOK"];
	s59 -> s59 [label="IREQ_0_0_1 / ONOK"];
	s59 -> s59 [label="IREQ_0_1_0 / ONOK"];
	s59 -> s59 [label="IREQ_0_1_1 / ONOK"];
	s59 -> s59 [label="IREQ_1_0_0 / ONOK"];
	s59 -> s59 [label="IREQ_1_0_1 / ONOK"];
	s59 -> s59 [label="IREQ_1_1_0 / ONOK"];
	s59 -> s59 [label="IREQ_1_1_1 / ONOK"];
	s59 -> s60 [label="ITIMEOUT / OFRAME_0_1_0_0"];
	s60 -> s8 [label="IACK / OCONF_1"];
	s60 -> s60 [label="IREQ_0_0_0 / ONOK"];
	s60 -> s60 [label="IREQ_0_0_1 / ONOK"];
	s60 -> s60 [label="IREQ_0_1_0 / ONOK"];
	s60 -> s60 [label="IREQ_0_1_1 / ONOK"];
	s60 -> s60 [label="IREQ_1_0_0 / ONOK"];
	s60 -> s60 [label="IREQ_1_0_1 / ONOK"];
	s60 -> s60 [label="IREQ_1_1_0 / ONOK"];
	s60 -> s60 [label="IREQ_1_1_1 / ONOK"];
	s60 -> s61 [label="ITIMEOUT / OFRAME_0_1_0_0"];
	s61 -> s8 [label="IACK / OCONF_1"];
	s61 -> s61 [label="IREQ_0_0_0 / ONOK"];
	s61 -> s61 [label="IREQ_0_0_1 / ONOK"];
	s61 -> s61 [label="IREQ_0_1_0 / ONOK"];
	s61 -> s61 [label="IREQ_0_1_1 / ONOK"];
	s61 -> s61 [label="IREQ_1_0_0 / ONOK"];
	s61 -> s61 [label="IREQ_1_0_1 / ONOK"];
	s61 -> s61 [label="IREQ_1_1_0 / ONOK"];
	s61 -> s61 [label="IREQ_1_1_1 / ONOK"];
	s61 -> s62 [label="ITIMEOUT / OFRAME_0_1_0_0"];
	s62 -> s8 [label="IACK / OCONF_1"];
	s62 -> s62 [label="IREQ_0_0_0 / ONOK"];
	s62 -> s62 [label="IREQ_0_0_1 / ONOK"];
	s62 -> s62 [label="IREQ_0_1_0 / ONOK"];
	s62 -> s62 [label="IREQ_0_1_1 / ONOK"];
	s62 -> s62 [label="IREQ_1_0_0 / ONOK"];
	s62 -> s62 [label="IREQ_1_0_1 / ONOK"];
	s62 -> s62 [label="IREQ_1_1_0 / ONOK"];
	s62 -> s62 [label="IREQ_1_1_1 / ONOK"];
	s62 -> s0 [label="ITIMEOUT / OCONF_2"];
	s63 -> s25 [label="IACK / OFRAME_0_0_0_1"];
	s63 -> s63 [label="IREQ_0_0_0 / ONOK"];
	s63 -> s63 [label="IREQ_0_0_1 / ONOK"];
	s63 -> s63 [label="IREQ_0_1_0 / ONOK"];
	s63 -> s63 [label="IREQ_0_1_1 / ONOK"];
	s63 -> s63 [label="IREQ_1_0_0 / ONOK"];
	s63 -> s63 [label="IREQ_1_0_1 / ONOK"];
	s63 -> s63 [label="IREQ_1_1_0 / ONOK"];
	s63 -> s63 [label="IREQ_1_1_1 / ONOK"];
	s63 -> s64 [label="ITIMEOUT / OFRAME_1_0_1_0"];
	s64 -> s25 [label="IACK / OFRAME_0_0_0_1"];
	s64 -> s64 [label="IREQ_0_0_0 / ONOK"];
	s64 -> s64 [label="IREQ_0_0_1 / ONOK"];
	s64 -> s64 [label="IREQ_0_1_0 / ONOK"];
	s64 -> s64 [label="IREQ_0_1_1 / ONOK"];
	s64 -> s64 [label="IREQ_1_0_0 / ONOK"];
	s64 -> s64 [label="IREQ_1_0_1 / ONOK"];
	s64 -> s64 [label="IREQ_1_1_0 / ONOK"];
	s64 -> s64 [label="IREQ_1_1_1 / ONOK"];
	s64 -> s65 [label="ITIMEOUT / OFRAME_1_0_1_0"];
	s65 -> s25 [label="IACK / OFRAME_0_0_0_1"];
	s65 -> s65 [label="IREQ_0_0_0 / ONOK"];
	s65 -> s65 [label="IREQ_0_0_1 / ONOK"];
	s65 -> s65 [label="IREQ_0_1_0 / ONOK"];
	s65 -> s65 [label="IREQ_0_1_1 / ONOK"];
	s65 -> s65 [label="IREQ_1_0_0 / ONOK"];
	s65 -> s65 [label="IREQ_1_0_1 / ONOK"];
	s65 -> s65 [label="IREQ_1_1_0 / ONOK"];
	s65 -> s65 [label="IREQ_1_1_1 / ONOK"];
	s65 -> s66 [label="ITIMEOUT / OFRAME_1_0_1_0"];
	s66 -> s25 [label="IACK / OFRAME_0_0_0_1"];
	s66 -> s66 [label="IREQ_0_0_0 / ONOK"];
	s66 -> s66 [label="IREQ_0_0_1 / ONOK"];
	s66 -> s66 [label="IREQ_0_1_0 / ONOK"];
	s66 -> s66 [label="IREQ_0_1_1 / ONOK"];
	s66 -> s66 [label="IREQ_1_0_0 / ONOK"];
	s66 -> s66 [label="IREQ_1_0_1 / ONOK"];
	s66 -> s66 [label="IREQ_1_1_0 / ONOK"];
	s66 -> s66 [label="IREQ_1_1_1 / ONOK"];
	s66 -> s67 [label="ITIMEOUT / OFRAME_1_0_1_0"];
	s67 -> s25 [label="IACK / OFRAME_0_0_0_1"];
	s67 -> s67 [label="IREQ_0_0_0 / ONOK"];
	s67 -> s67 [label="IREQ_0_0_1 / ONOK"];
	s67 -> s67 [label="IREQ_0_1_0 / ONOK"];
	s67 -> s67 [label="IREQ_0_1_1 / ONOK"];
	s67 -> s67 [label="IREQ_1_0_0 / ONOK"];
	s67 -> s67 [label="IREQ_1_0_1 / ONOK"];
	s67 -> s67 [label="IREQ_1_1_0 / ONOK"];
	s67 -> s67 [label="IREQ_1_1_1 / ONOK"];
	s67 -> s8 [label="ITIMEOUT / OCONF_0"];
	s68 -> s8 [label="IACK / OCONF_1"];
	s68 -> s68 [label="IREQ_0_0_0 / ONOK"];
	s68 -> s68 [label="IREQ_0_0_1 / ONOK"];
	s68 -> s68 [label="IREQ_0_1_0 / ONOK"];
	s68 -> s68 [label="IREQ_0_1_1 / ONOK"];
	s68 -> s68 [label="IREQ_1_0_0 / ONOK"];
	s68 -> s68 [label="IREQ_1_0_1 / ONOK"];
	s68 -> s68 [label="IREQ_1_1_0 / ONOK"];
	s68 -> s68 [label="IREQ_1_1_1 / ONOK"];
	s68 -> s69 [label="ITIMEOUT / OFRAME_0_1_0_1"];
	s69 -> s8 [label="IACK / OCONF_1"];
	s69 -> s69 [label="IREQ_0_0_0 / ONOK"];
	s69 -> s69 [label="IREQ_0_0_1 / ONOK"];
	s69 -> s69 [label="IREQ_0_1_0 / ONOK"];
	s69 -> s69 [label="IREQ_0_1_1 / ONOK"];
	s69 -> s69 [label="IREQ_1_0_0 / ONOK"];
	s69 -> s69 [label="IREQ_1_0_1 / ONOK"];
	s69 -> s69 [label="IREQ_1_1_0 / ONOK"];
	s69 -> s69 [label="IREQ_1_1_1 / ONOK"];
	s69 -> s70 [label="ITIMEOUT / OFRAME_0_1_0_1"];
	s70 -> s8 [label="IACK / OCONF_1"];
	s70 -> s70 [label="IREQ_0_0_0 / ONOK"];
	s70 -> s70 [label="IREQ_0_0_1 / ONOK"];
	s70 -> s70 [label="IREQ_0_1_0 / ONOK"];
	s70 -> s70 [label="IREQ_0_1_1 / ONOK"];
	s70 -> s70 [label="IREQ_1_0_0 / ONOK"];
	s70 -> s70 [label="IREQ_1_0_1 / ONOK"];
	s70 -> s70 [label="IREQ_1_1_0 / ONOK"];
	s70 -> s70 [label="IREQ_1_1_1 / ONOK"];
	s70 -> s71 [label="ITIMEOUT / OFRAME_0_1_0_1"];
	s71 -> s8 [label="IACK / OCONF_1"];
	s71 -> s71 [label="IREQ_0_0_0 / ONOK"];
	s71 -> s71 [label="IREQ_0_0_1 / ONOK"];
	s71 -> s71 [label="IREQ_0_1_0 / ONOK"];
	s71 -> s71 [label="IREQ_0_1_1 / ONOK"];
	s71 -> s71 [label="IREQ_1_0_0 / ONOK"];
	s71 -> s71 [label="IREQ_1_0_1 / ONOK"];
	s71 -> s71 [label="IREQ_1_1_0 / ONOK"];
	s71 -> s71 [label="IREQ_1_1_1 / ONOK"];
	s71 -> s62 [label="ITIMEOUT / OFRAME_0_1_0_1"];
	s72 -> s0 [label="IACK / OCONF_1"];
	s72 -> s72 [label="IREQ_0_0_0 / ONOK"];
	s72 -> s72 [label="IREQ_0_0_1 / ONOK"];
	s72 -> s72 [label="IREQ_0_1_0 / ONOK"];
	s72 -> s72 [label="IREQ_0_1_1 / ONOK"];
	s72 -> s72 [label="IREQ_1_0_0 / ONOK"];
	s72 -> s72 [label="IREQ_1_0_1 / ONOK"];
	s72 -> s72 [label="IREQ_1_1_0 / ONOK"];
	s72 -> s72 [label="IREQ_1_1_1 / ONOK"];
	s72 -> s73 [label="ITIMEOUT / OFRAME_0_1_1_0"];
	s73 -> s0 [label="IACK / OCONF_1"];
	s73 -> s73 [label="IREQ_0_0_0 / ONOK"];
	s73 -> s73 [label="IREQ_0_0_1 / ONOK"];
	s73 -> s73 [label="IREQ_0_1_0 / ONOK"];
	s73 -> s73 [label="IREQ_0_1_1 / ONOK"];
	s73 -> s73 [label="IREQ_1_0_0 / ONOK"];
	s73 -> s73 [label="IREQ_1_0_1 / ONOK"];
	s73 -> s73 [label="IREQ_1_1_0 / ONOK"];
	s73 -> s73 [label="IREQ_1_1_1 / ONOK"];
	s73 -> s74 [label="ITIMEOUT / OFRAME_0_1_1_0"];
	s74 -> s0 [label="IACK / OCONF_1"];
	s74 -> s74 [label="IREQ_0_0_0 / ONOK"];
	s74 -> s74 [label="IREQ_0_0_1 / ONOK"];
	s74 -> s74 [label="IREQ_0_1_0 / ONOK"];
	s74 -> s74 [label="IREQ_0_1_1 / ONOK"];
	s74 -> s74 [label="IREQ_1_0_0 / ONOK"];
	s74 -> s74 [label="IREQ_1_0_1 / ONOK"];
	s74 -> s74 [label="IREQ_1_1_0 / ONOK"];
	s74 -> s74 [label="IREQ_1_1_1 / ONOK"];
	s74 -> s75 [label="ITIMEOUT / OFRAME_0_1_1_0"];
	s75 -> s0 [label="IACK / OCONF_1"];
	s75 -> s75 [label="IREQ_0_0_0 / ONOK"];
	s75 -> s75 [label="IREQ_0_0_1 / ONOK"];
	s75 -> s75 [label="IREQ_0_1_0 / ONOK"];
	s75 -> s75 [label="IREQ_0_1_1 / ONOK"];
	s75 -> s75 [label="IREQ_1_0_0 / ONOK"];
	s75 -> s75 [label="IREQ_1_0_1 / ONOK"];
	s75 -> s75 [label="IREQ_1_1_0 / ONOK"];
	s75 -> s75 [label="IREQ_1_1_1 / ONOK"];
	s75 -> s76 [label="ITIMEOUT / OFRAME_0_1_1_0"];
	s76 -> s0 [label="IACK / OCONF_1"];
	s76 -> s76 [label="IREQ_0_0_0 / ONOK"];
	s76 -> s76 [label="IREQ_0_0_1 / ONOK"];
	s76 -> s76 [label="IREQ_0_1_0 / ONOK"];
	s76 -> s76 [label="IREQ_0_1_1 / ONOK"];
	s76 -> s76 [label="IREQ_1_0_0 / ONOK"];
	s76 -> s76 [label="IREQ_1_0_1 / ONOK"];
	s76 -> s76 [label="IREQ_1_1_0 / ONOK"];
	s76 -> s76 [label="IREQ_1_1_1 / ONOK"];
	s76 -> s8 [label="ITIMEOUT / OCONF_2"];
	s77 -> s0 [label="IACK / OCONF_1"];
	s77 -> s77 [label="IREQ_0_0_0 / ONOK"];
	s77 -> s77 [label="IREQ_0_0_1 / ONOK"];
	s77 -> s77 [label="IREQ_0_1_0 / ONOK"];
	s77 -> s77 [label="IREQ_0_1_1 / ONOK"];
	s77 -> s77 [label="IREQ_1_0_0 / ONOK"];
	s77 -> s77 [label="IREQ_1_0_1 / ONOK"];
	s77 -> s77 [label="IREQ_1_1_0 / ONOK"];
	s77 -> s77 [label="IREQ_1_1_1 / ONOK"];
	s77 -> s78 [label="ITIMEOUT / OFRAME_0_1_1_1"];
	s78 -> s0 [label="IACK / OCONF_1"];
	s78 -> s78 [label="IREQ_0_0_0 / ONOK"];
	s78 -> s78 [label="IREQ_0_0_1 / ONOK"];
	s78 -> s78 [label="IREQ_0_1_0 / ONOK"];
	s78 -> s78 [label="IREQ_0_1_1 / ONOK"];
	s78 -> s78 [label="IREQ_1_0_0 / ONOK"];
	s78 -> s78 [label="IREQ_1_0_1 / ONOK"];
	s78 -> s78 [label="IREQ_1_1_0 / ONOK"];
	s78 -> s78 [label="IREQ_1_1_1 / ONOK"];
	s78 -> s79 [label="ITIMEOUT / OFRAME_0_1_1_1"];
	s79 -> s0 [label="IACK / OCONF_1"];
	s79 -> s79 [label="IREQ_0_0_0 / ONOK"];
	s79 -> s79 [label="IREQ_0_0_1 / ONOK"];
	s79 -> s79 [label="IREQ_0_1_0 / ONOK"];
	s79 -> s79 [label="IREQ_0_1_1 / ONOK"];
	s79 -> s79 [label="IREQ_1_0_0 / ONOK"];
	s79 -> s79 [label="IREQ_1_0_1 / ONOK"];
	s79 -> s79 [label="IREQ_1_1_0 / ONOK"];
	s79 -> s79 [label="IREQ_1_1_1 / ONOK"];
	s79 -> s80 [label="ITIMEOUT / OFRAME_0_1_1_1"];
	s80 -> s0 [label="IACK / OCONF_1"];
	s80 -> s80 [label="IREQ_0_0_0 / ONOK"];
	s80 -> s80 [label="IREQ_0_0_1 / ONOK"];
	s80 -> s80 [label="IREQ_0_1_0 / ONOK"];
	s80 -> s80 [label="IREQ_0_1_1 / ONOK"];
	s80 -> s80 [label="IREQ_1_0_0 / ONOK"];
	s80 -> s80 [label="IREQ_1_0_1 / ONOK"];
	s80 -> s80 [label="IREQ_1_1_0 / ONOK"];
	s80 -> s80 [label="IREQ_1_1_1 / ONOK"];
	s80 -> s76 [label="ITIMEOUT / OFRAME_0_1_1_1"];
	s81 -> s5 [label="IACK / OFRAME_0_1_0_1"];
	s81 -> s81 [label="IREQ_0_0_0 / ONOK"];
	s81 -> s81 [label="IREQ_0_0_1 / ONOK"];
	s81 -> s81 [label="IREQ_0_1_0 / ONOK"];
	s81 -> s81 [label="IREQ_0_1_1 / ONOK"];
	s81 -> s81 [label="IREQ_1_0_0 / ONOK"];
	s81 -> s81 [label="IREQ_1_0_1 / ONOK"];
	s81 -> s81 [label="IREQ_1_1_0 / ONOK"];
	s81 -> s81 [label="IREQ_1_1_1 / ONOK"];
	s81 -> s82 [label="ITIMEOUT / OFRAME_0_0_1_1"];
	s82 -> s5 [label="IACK / OFRAME_0_1_0_1"];
	s82 -> s82 [label="IREQ_0_0_0 / ONOK"];
	s82 -> s82 [label="IREQ_0_0_1 / ONOK"];
	s82 -> s82 [label="IREQ_0_1_0 / ONOK"];
	s82 -> s82 [label="IREQ_0_1_1 / ONOK"];
	s82 -> s82 [label="IREQ_1_0_0 / ONOK"];
	s82 -> s82 [label="IREQ_1_0_1 / ONOK"];
	s82 -> s82 [label="IREQ_1_1_0 / ONOK"];
	s82 -> s82 [label="IREQ_1_1_1 / ONOK"];
	s82 -> s83 [label="ITIMEOUT / OFRAME_0_0_1_1"];
	s83 -> s5 [label="IACK / OFRAME_0_1_0_1"];
	s83 -> s83 [label="IREQ_0_0_0 / ONOK"];
	s83 -> s83 [label="IREQ_0_0_1 / ONOK"];
	s83 -> s83 [label="IREQ_0_1_0 / ONOK"];
	s83 -> s83 [label="IREQ_0_1_1 / ONOK"];
	s83 -> s83 [label="IREQ_1_0_0 / ONOK"];
	s83 -> s83 [label="IREQ_1_0_1 / ONOK"];
	s83 -> s83 [label="IREQ_1_1_0 / ONOK"];
	s83 -> s83 [label="IREQ_1_1_1 / ONOK"];
	s83 -> s84 [label="ITIMEOUT / OFRAME_0_0_1_1"];
	s84 -> s5 [label="IACK / OFRAME_0_1_0_1"];
	s84 -> s84 [label="IREQ_0_0_0 / ONOK"];
	s84 -> s84 [label="IREQ_0_0_1 / ONOK"];
	s84 -> s84 [label="IREQ_0_1_0 / ONOK"];
	s84 -> s84 [label="IREQ_0_1_1 / ONOK"];
	s84 -> s84 [label="IREQ_1_0_0 / ONOK"];
	s84 -> s84 [label="IREQ_1_0_1 / ONOK"];
	s84 -> s84 [label="IREQ_1_1_0 / ONOK"];
	s84 -> s84 [label="IREQ_1_1_1 / ONOK"];
	s84 -> s85 [label="ITIMEOUT / OFRAME_0_0_1_1"];
	s85 -> s5 [label="IACK / OFRAME_0_1_0_1"];
	s85 -> s85 [label="IREQ_0_0_0 / ONOK"];
	s85 -> s85 [label="IREQ_0_0_1 / ONOK"];
	s85 -> s85 [label="IREQ_0_1_0 / ONOK"];
	s85 -> s85 [label="IREQ_0_1_1 / ONOK"];
	s85 -> s85 [label="IREQ_1_0_0 / ONOK"];
	s85 -> s85 [label="IREQ_1_0_1 / ONOK"];
	s85 -> s85 [label="IREQ_1_1_0 / ONOK"];
	s85 -> s85 [label="IREQ_1_1_1 / ONOK"];
	s85 -> s8 [label="ITIMEOUT / OCONF_0"];
	s86 -> s20 [label="IACK / OFRAME_0_0_0_1"];
	s86 -> s86 [label="IREQ_0_0_0 / ONOK"];
	s86 -> s86 [label="IREQ_0_0_1 / ONOK"];
	s86 -> s86 [label="IREQ_0_1_0 / ONOK"];
	s86 -> s86 [label="IREQ_0_1_1 / ONOK"];
	s86 -> s86 [label="IREQ_1_0_0 / ONOK"];
	s86 -> s86 [label="IREQ_1_0_1 / ONOK"];
	s86 -> s86 [label="IREQ_1_1_0 / ONOK"];
	s86 -> s86 [label="IREQ_1_1_1 / ONOK"];
	s86 -> s87 [label="ITIMEOUT / OFRAME_1_0_1_0"];
	s87 -> s20 [label="IACK / OFRAME_0_0_0_1"];
	s87 -> s87 [label="IREQ_0_0_0 / ONOK"];
	s87 -> s87 [label="IREQ_0_0_1 / ONOK"];
	s87 -> s87 [label="IREQ_0_1_0 / ONOK"];
	s87 -> s87 [label="IREQ_0_1_1 / ONOK"];
	s87 -> s87 [label="IREQ_1_0_0 / ONOK"];
	s87 -> s87 [label="IREQ_1_0_1 / ONOK"];
	s87 -> s87 [label="IREQ_1_1_0 / ONOK"];
	s87 -> s87 [label="IREQ_1_1_1 / ONOK"];
	s87 -> s88 [label="ITIMEOUT / OFRAME_1_0_1_0"];
	s88 -> s20 [label="IACK / OFRAME_0_0_0_1"];
	s88 -> s88 [label="IREQ_0_0_0 / ONOK"];
	s88 -> s88 [label="IREQ_0_0_1 / ONOK"];
	s88 -> s88 [label="IREQ_0_1_0 / ONOK"];
	s88 -> s88 [label="IREQ_0_1_1 / ONOK"];
	s88 -> s88 [label="IREQ_1_0_0 / ONOK"];
	s88 -> s88 [label="IREQ_1_0_1 / ONOK"];
	s88 -> s88 [label="IREQ_1_1_0 / ONOK"];
	s88 -> s88 [label="IREQ_1_1_1 / ONOK"];
	s88 -> s89 [label="ITIMEOUT / OFRAME_1_0_1_0"];
	s89 -> s20 [label="IACK / OFRAME_0_0_0_1"];
	s89 -> s89 [label="IREQ_0_0_0 / ONOK"];
	s89 -> s89 [label="IREQ_0_0_1 / ONOK"];
	s89 -> s89 [label="IREQ_0_1_0 / ONOK"];
	s89 -> s89 [label="IREQ_0_1_1 / ONOK"];
	s89 -> s89 [label="IREQ_1_0_0 / ONOK"];
	s89 -> s89 [label="IREQ_1_0_1 / ONOK"];
	s89 -> s89 [label="IREQ_1_1_0 / ONOK"];
	s89 -> s89 [label="IREQ_1_1_1 / ONOK"];
	s89 -> s99 [label="ITIMEOUT / OFRAME_1_0_1_0"];
	s90 -> s11 [label="IACK / OFRAME_0_0_0_0"];
	s90 -> s90 [label="IREQ_0_0_0 / ONOK"];
	s90 -> s90 [label="IREQ_0_0_1 / ONOK"];
	s90 -> s90 [label="IREQ_0_1_0 / ONOK"];
	s90 -> s90 [label="IREQ_0_1_1 / ONOK"];
	s90 -> s90 [label="IREQ_1_0_0 / ONOK"];
	s90 -> s90 [label="IREQ_1_0_1 / ONOK"];
	s90 -> s90 [label="IREQ_1_1_0 / ONOK"];
	s90 -> s90 [label="IREQ_1_1_1 / ONOK"];
	s90 -> s91 [label="ITIMEOUT / OFRAME_1_0_1_1"];
	s91 -> s11 [label="IACK / OFRAME_0_0_0_0"];
	s91 -> s91 [label="IREQ_0_0_0 / ONOK"];
	s91 -> s91 [label="IREQ_0_0_1 / ONOK"];
	s91 -> s91 [label="IREQ_0_1_0 / ONOK"];
	s91 -> s91 [label="IREQ_0_1_1 / ONOK"];
	s91 -> s91 [label="IREQ_1_0_0 / ONOK"];
	s91 -> s91 [label="IREQ_1_0_1 / ONOK"];
	s91 -> s91 [label="IREQ_1_1_0 / ONOK"];
	s91 -> s91 [label="IREQ_1_1_1 / ONOK"];
	s91 -> s92 [label="ITIMEOUT / OFRAME_1_0_1_1"];
	s92 -> s11 [label="IACK / OFRAME_0_0_0_0"];
	s92 -> s92 [label="IREQ_0_0_0 / ONOK"];
	s92 -> s92 [label="IREQ_0_0_1 / ONOK"];
	s92 -> s92 [label="IREQ_0_1_0 / ONOK"];
	s92 -> s92 [label="IREQ_0_1_1 / ONOK"];
	s92 -> s92 [label="IREQ_1_0_0 / ONOK"];
	s92 -> s92 [label="IREQ_1_0_1 / ONOK"];
	s92 -> s92 [label="IREQ_1_1_0 / ONOK"];
	s92 -> s92 [label="IREQ_1_1_1 / ONOK"];
	s92 -> s93 [label="ITIMEOUT / OFRAME_1_0_1_1"];
	s93 -> s11 [label="IACK / OFRAME_0_0_0_0"];
	s93 -> s93 [label="IREQ_0_0_0 / ONOK"];
	s93 -> s93 [label="IREQ_0_0_1 / ONOK"];
	s93 -> s93 [label="IREQ_0_1_0 / ONOK"];
	s93 -> s93 [label="IREQ_0_1_1 / ONOK"];
	s93 -> s93 [label="IREQ_1_0_0 / ONOK"];
	s93 -> s93 [label="IREQ_1_0_1 / ONOK"];
	s93 -> s93 [label="IREQ_1_1_0 / ONOK"];
	s93 -> s93 [label="IREQ_1_1_1 / ONOK"];
	s93 -> s94 [label="ITIMEOUT / OFRAME_1_0_1_1"];
	s94 -> s11 [label="IACK / OFRAME_0_0_0_0"];
	s94 -> s94 [label="IREQ_0_0_0 / ONOK"];
	s94 -> s94 [label="IREQ_0_0_1 / ONOK"];
	s94 -> s94 [label="IREQ_0_1_0 / ONOK"];
	s94 -> s94 [label="IREQ_0_1_1 / ONOK"];
	s94 -> s94 [label="IREQ_1_0_0 / ONOK"];
	s94 -> s94 [label="IREQ_1_0_1 / ONOK"];
	s94 -> s94 [label="IREQ_1_1_0 / ONOK"];
	s94 -> s94 [label="IREQ_1_1_1 / ONOK"];
	s94 -> s8 [label="ITIMEOUT / OCONF_0"];
	s95 -> s21 [label="IACK / OFRAME_0_0_1_1"];
	s95 -> s95 [label="IREQ_0_0_0 / ONOK"];
	s95 -> s95 [label="IREQ_0_0_1 / ONOK"];
	s95 -> s95 [label="IREQ_0_1_0 / ONOK"];
	s95 -> s95 [label="IREQ_0_1_1 / ONOK"];
	s95 -> s95 [label="IREQ_1_0_0 / ONOK"];
	s95 -> s95 [label="IREQ_1_0_1 / ONOK"];
	s95 -> s95 [label="IREQ_1_1_0 / ONOK"];
	s95 -> s95 [label="IREQ_1_1_1 / ONOK"];
	s95 -> s96 [label="ITIMEOUT / OFRAME_1_0_0_0"];
	s96 -> s21 [label="IACK / OFRAME_0_0_1_1"];
	s96 -> s96 [label="IREQ_0_0_0 / ONOK"];
	s96 -> s96 [label="IREQ_0_0_1 / ONOK"];
	s96 -> s96 [label="IREQ_0_1_0 / ONOK"];
	s96 -> s96 [label="IREQ_0_1_1 / ONOK"];
	s96 -> s96 [label="IREQ_1_0_0 / ONOK"];
	s96 -> s96 [label="IREQ_1_0_1 / ONOK"];
	s96 -> s96 [label="IREQ_1_1_0 / ONOK"];
	s96 -> s96 [label="IREQ_1_1_1 / ONOK"];
	s96 -> s97 [label="ITIMEOUT / OFRAME_1_0_0_0"];
	s97 -> s21 [label="IACK / OFRAME_0_0_1_1"];
	s97 -> s97 [label="IREQ_0_0_0 / ONOK"];
	s97 -> s97 [label="IREQ_0_0_1 / ONOK"];
	s97 -> s97 [label="IREQ_0_1_0 / ONOK"];
	s97 -> s97 [label="IREQ_0_1_1 / ONOK"];
	s97 -> s97 [label="IREQ_1_0_0 / ONOK"];
	s97 -> s97 [label="IREQ_1_0_1 / ONOK"];
	s97 -> s97 [label="IREQ_1_1_0 / ONOK"];
	s97 -> s97 [label="IREQ_1_1_1 / ONOK"];
	s97 -> s98 [label="ITIMEOUT / OFRAME_1_0_0_0"];
	s98 -> s21 [label="IACK / OFRAME_0_0_1_1"];
	s98 -> s98 [label="IREQ_0_0_0 / ONOK"];
	s98 -> s98 [label="IREQ_0_0_1 / ONOK"];
	s98 -> s98 [label="IREQ_0_1_0 / ONOK"];
	s98 -> s98 [label="IREQ_0_1_1 / ONOK"];
	s98 -> s98 [label="IREQ_1_0_0 / ONOK"];
	s98 -> s98 [label="IREQ_1_0_1 / ONOK"];
	s98 -> s98 [label="IREQ_1_1_0 / ONOK"];
	s98 -> s98 [label="IREQ_1_1_1 / ONOK"];
	s98 -> s34 [label="ITIMEOUT / OFRAME_1_0_0_0"];
	s99 -> s20 [label="IACK / OFRAME_0_0_0_1"];
	s99 -> s99 [label="IREQ_0_0_0 / ONOK"];
	s99 -> s99 [label="IREQ_0_0_1 / ONOK"];
	s99 -> s99 [label="IREQ_0_1_0 / ONOK"];
	s99 -> s99 [label="IREQ_0_1_1 / ONOK"];
	s99 -> s99 [label="IREQ_1_0_0 / ONOK"];
	s99 -> s99 [label="IREQ_1_0_1 / ONOK"];
	s99 -> s99 [label="IREQ_1_1_0 / ONOK"];
	s99 -> s99 [label="IREQ_1_1_1 / ONOK"];
	s99 -> s8 [label="ITIMEOUT / OCONF_0"];
	s100 -> s11 [label="IACK / OFRAME_0_0_0_0"];
	s100 -> s100 [label="IREQ_0_0_0 / ONOK"];
	s100 -> s100 [label="IREQ_0_0_1 / ONOK"];
	s100 -> s100 [label="IREQ_0_1_0 / ONOK"];
	s100 -> s100 [label="IREQ_0_1_1 / ONOK"];
	s100 -> s100 [label="IREQ_1_0_0 / ONOK"];
	s100 -> s100 [label="IREQ_1_0_1 / ONOK"];
	s100 -> s100 [label="IREQ_1_1_0 / ONOK"];
	s100 -> s100 [label="IREQ_1_1_1 / ONOK"];
	s100 -> s101 [label="ITIMEOUT / OFRAME_1_0_1_0"];
	s101 -> s11 [label="IACK / OFRAME_0_0_0_0"];
	s101 -> s101 [label="IREQ_0_0_0 / ONOK"];
	s101 -> s101 [label="IREQ_0_0_1 / ONOK"];
	s101 -> s101 [label="IREQ_0_1_0 / ONOK"];
	s101 -> s101 [label="IREQ_0_1_1 / ONOK"];
	s101 -> s101 [label="IREQ_1_0_0 / ONOK"];
	s101 -> s101 [label="IREQ_1_0_1 / ONOK"];
	s101 -> s101 [label="IREQ_1_1_0 / ONOK"];
	s101 -> s101 [label="IREQ_1_1_1 / ONOK"];
	s101 -> s102 [label="ITIMEOUT / OFRAME_1_0_1_0"];
	s102 -> s11 [label="IACK / OFRAME_0_0_0_0"];
	s102 -> s102 [label="IREQ_0_0_0 / ONOK"];
	s102 -> s102 [label="IREQ_0_0_1 / ONOK"];
	s102 -> s102 [label="IREQ_0_1_0 / ONOK"];
	s102 -> s102 [label="IREQ_0_1_1 / ONOK"];
	s102 -> s102 [label="IREQ_1_0_0 / ONOK"];
	s102 -> s102 [label="IREQ_1_0_1 / ONOK"];
	s102 -> s102 [label="IREQ_1_1_0 / ONOK"];
	s102 -> s102 [label="IREQ_1_1_1 / ONOK"];
	s102 -> s103 [label="ITIMEOUT / OFRAME_1_0_1_0"];
	s103 -> s11 [label="IACK / OFRAME_0_0_0_0"];
	s103 -> s103 [label="IREQ_0_0_0 / ONOK"];
	s103 -> s103 [label="IREQ_0_0_1 / ONOK"];
	s103 -> s103 [label="IREQ_0_1_0 / ONOK"];
	s103 -> s103 [label="IREQ_0_1_1 / ONOK"];
	s103 -> s103 [label="IREQ_1_0_0 / ONOK"];
	s103 -> s103 [label="IREQ_1_0_1 / ONOK"];
	s103 -> s103 [label="IREQ_1_1_0 / ONOK"];
	s103 -> s103 [label="IREQ_1_1_1 / ONOK"];
	s103 -> s94 [label="ITIMEOUT / OFRAME_1_0_1_0"];
	s104 -> s20 [label="IACK / OFRAME_0_0_0_1"];
	s104 -> s104 [label="IREQ_0_0_0 / ONOK"];
	s104 -> s104 [label="IREQ_0_0_1 / ONOK"];
	s104 -> s104 [label="IREQ_0_1_0 / ONOK"];
	s104 -> s104 [label="IREQ_0_1_1 / ONOK"];
	s104 -> s104 [label="IREQ_1_0_0 / ONOK"];
	s104 -> s104 [label="IREQ_1_0_1 / ONOK"];
	s104 -> s104 [label="IREQ_1_1_0 / ONOK"];
	s104 -> s104 [label="IREQ_1_1_1 / ONOK"];
	s104 -> s105 [label="ITIMEOUT / OFRAME_1_0_1_1"];
	s105 -> s20 [label="IACK / OFRAME_0_0_0_1"];
	s105 -> s105 [label="IREQ_0_0_0 / ONOK"];
	s105 -> s105 [label="IREQ_0_0_1 / ONOK"];
	s105 -> s105 [label="IREQ_0_1_0 / ONOK"];
	s105 -> s105 [label="IREQ_0_1_1 / ONOK"];
	s105 -> s105 [label="IREQ_1_0_0 / ONOK"];
	s105 -> s105 [label="IREQ_1_0_1 / ONOK"];
	s105 -> s105 [label="IREQ_1_1_0 / ONOK"];
	s105 -> s105 [label="IREQ_1_1_1 / ONOK"];
	s105 -> s106 [label="ITIMEOUT / OFRAME_1_0_1_1"];
	s106 -> s20 [label="IACK / OFRAME_0_0_0_1"];
	s106 -> s106 [label="IREQ_0_0_0 / ONOK"];
	s106 -> s106 [label="IREQ_0_0_1 / ONOK"];
	s106 -> s106 [label="IREQ_0_1_0 / ONOK"];
	s106 -> s106 [label="IREQ_0_1_1 / ONOK"];
	s106 -> s106 [label="IREQ_1_0_0 / ONOK"];
	s106 -> s106 [label="IREQ_1_0_1 / ONOK"];
	s106 -> s106 [label="IREQ_1_1_0 / ONOK"];
	s106 -> s106 [label="IREQ_1_1_1 / ONOK"];
	s106 -> s107 [label="ITIMEOUT / OFRAME_1_0_1_1"];
	s107 -> s20 [label="IACK / OFRAME_0_0_0_1"];
	s107 -> s107 [label="IREQ_0_0_0 / ONOK"];
	s107 -> s107 [label="IREQ_0_0_1 / ONOK"];
	s107 -> s107 [label="IREQ_0_1_0 / ONOK"];
	s107 -> s107 [label="IREQ_0_1_1 / ONOK"];
	s107 -> s107 [label="IREQ_1_0_0 / ONOK"];
	s107 -> s107 [label="IREQ_1_0_1 / ONOK"];
	s107 -> s107 [label="IREQ_1_1_0 / ONOK"];
	s107 -> s107 [label="IREQ_1_1_1 / ONOK"];
	s107 -> s99 [label="ITIMEOUT / OFRAME_1_0_1_1"];
	s108 -> s2 [label="IACK / OFRAME_0_0_1_1"];
	s108 -> s108 [label="IREQ_0_0_0 / ONOK"];
	s108 -> s108 [label="IREQ_0_0_1 / ONOK"];
	s108 -> s108 [label="IREQ_0_1_0 / ONOK"];
	s108 -> s108 [label="IREQ_0_1_1 / ONOK"];
	s108 -> s108 [label="IREQ_1_0_0 / ONOK"];
	s108 -> s108 [label="IREQ_1_0_1 / ONOK"];
	s108 -> s108 [label="IREQ_1_1_0 / ONOK"];
	s108 -> s108 [label="IREQ_1_1_1 / ONOK"];
	s108 -> s109 [label="ITIMEOUT / OFRAME_1_0_0_1"];
	s109 -> s2 [label="IACK / OFRAME_0_0_1_1"];
	s109 -> s109 [label="IREQ_0_0_0 / ONOK"];
	s109 -> s109 [label="IREQ_0_0_1 / ONOK"];
	s109 -> s109 [label="IREQ_0_1_0 / ONOK"];
	s109 -> s109 [label="IREQ_0_1_1 / ONOK"];
	s109 -> s109 [label="IREQ_1_0_0 / ONOK"];
	s109 -> s109 [label="IREQ_1_0_1 / ONOK"];
	s109 -> s109 [label="IREQ_1_1_0 / ONOK"];
	s109 -> s109 [label="IREQ_1_1_1 / ONOK"];
	s109 -> s110 [label="ITIMEOUT / OFRAME_1_0_0_1"];
	s110 -> s2 [label="IACK / OFRAME_0_0_1_1"];
	s110 -> s110 [label="IREQ_0_0_0 / ONOK"];
	s110 -> s110 [label="IREQ_0_0_1 / ONOK"];
	s110 -> s110 [label="IREQ_0_1_0 / ONOK"];
	s110 -> s110 [label="IREQ_0_1_1 / ONOK"];
	s110 -> s110 [label="IREQ_1_0_0 / ONOK"];
	s110 -> s110 [label="IREQ_1_0_1 / ONOK"];
	s110 -> s110 [label="IREQ_1_1_0 / ONOK"];
	s110 -> s110 [label="IREQ_1_1_1 / ONOK"];
	s110 -> s111 [label="ITIMEOUT / OFRAME_1_0_0_1"];
	s111 -> s2 [label="IACK / OFRAME_0_0_1_1"];
	s111 -> s111 [label="IREQ_0_0_0 / ONOK"];
	s111 -> s111 [label="IREQ_0_0_1 / ONOK"];
	s111 -> s111 [label="IREQ_0_1_0 / ONOK"];
	s111 -> s111 [label="IREQ_0_1_1 / ONOK"];
	s111 -> s111 [label="IREQ_1_0_0 / ONOK"];
	s111 -> s111 [label="IREQ_1_0_1 / ONOK"];
	s111 -> s111 [label="IREQ_1_1_0 / ONOK"];
	s111 -> s111 [label="IREQ_1_1_1 / ONOK"];
	s111 -> s112 [label="ITIMEOUT / OFRAME_1_0_0_1"];
	s112 -> s2 [label="IACK / OFRAME_0_0_1_1"];
	s112 -> s112 [label="IREQ_0_0_0 / ONOK"];
	s112 -> s112 [label="IREQ_0_0_1 / ONOK"];
	s112 -> s112 [label="IREQ_0_1_0 / ONOK"];
	s112 -> s112 [label="IREQ_0_1_1 / ONOK"];
	s112 -> s112 [label="IREQ_1_0_0 / ONOK"];
	s112 -> s112 [label="IREQ_1_0_1 / ONOK"];
	s112 -> s112 [label="IREQ_1_1_0 / ONOK"];
	s112 -> s112 [label="IREQ_1_1_1 / ONOK"];
	s112 -> s0 [label="ITIMEOUT / OCONF_0"];
	s113 -> s17 [label="IACK / OFRAME_0_1_1_1"];
	s113 -> s113 [label="IREQ_0_0_0 / ONOK"];
	s113 -> s113 [label="IREQ_0_0_1 / ONOK"];
	s113 -> s113 [label="IREQ_0_1_0 / ONOK"];
	s113 -> s113 [label="IREQ_0_1_1 / ONOK"];
	s113 -> s113 [label="IREQ_1_0_0 / ONOK"];
	s113 -> s113 [label="IREQ_1_0_1 / ONOK"];
	s113 -> s113 [label="IREQ_1_1_0 / ONOK"];
	s113 -> s113 [label="IREQ_1_1_1 / ONOK"];
	s113 -> s114 [label="ITIMEOUT / OFRAME_0_0_0_1"];
	s114 -> s17 [label="IACK / OFRAME_0_1_1_1"];
	s114 -> s114 [label="IREQ_0_0_0 / ONOK"];
	s114 -> s114 [label="IREQ_0_0_1 / ONOK"];
	s114 -> s114 [label="IREQ_0_1_0 / ONOK"];
	s114 -> s114 [label="IREQ_0_1_1 / ONOK"];
	s114 -> s114 [label="IREQ_1_0_0 / ONOK"];
	s114 -> s114 [label="IREQ_1_0_1 / ONOK"];
	s114 -> s114 [label="IREQ_1_1_0 / ONOK"];
	s114 -> s114 [label="IREQ_1_1_1 / ONOK"];
	s114 -> s115 [label="ITIMEOUT / OFRAME_0_0_0_1"];
	s115 -> s17 [label="IACK / OFRAME_0_1_1_1"];
	s115 -> s115 [label="IREQ_0_0_0 / ONOK"];
	s115 -> s115 [label="IREQ_0_0_1 / ONOK"];
	s115 -> s115 [label="IREQ_0_1_0 / ONOK"];
	s115 -> s115 [label="IREQ_0_1_1 / ONOK"];
	s115 -> s115 [label="IREQ_1_0_0 / ONOK"];
	s115 -> s115 [label="IREQ_1_0_1 / ONOK"];
	s115 -> s115 [label="IREQ_1_1_0 / ONOK"];
	s115 -> s115 [label="IREQ_1_1_1 / ONOK"];
	s115 -> s116 [label="ITIMEOUT / OFRAME_0_0_0_1"];
	s116 -> s17 [label="IACK / OFRAME_0_1_1_1"];
	s116 -> s116 [label="IREQ_0_0_0 / ONOK"];
	s116 -> s116 [label="IREQ_0_0_1 / ONOK"];
	s116 -> s116 [label="IREQ_0_1_0 / ONOK"];
	s116 -> s116 [label="IREQ_0_1_1 / ONOK"];
	s116 -> s116 [label="IREQ_1_0_0 / ONOK"];
	s116 -> s116 [label="IREQ_1_0_1 / ONOK"];
	s116 -> s116 [label="IREQ_1_1_0 / ONOK"];
	s116 -> s116 [label="IREQ_1_1_1 / ONOK"];
	s116 -> s117 [label="ITIMEOUT / OFRAME_0_0_0_1"];
	s117 -> s17 [label="IACK / OFRAME_0_1_1_1"];
	s117 -> s117 [label="IREQ_0_0_0 / ONOK"];
	s117 -> s117 [label="IREQ_0_0_1 / ONOK"];
	s117 -> s117 [label="IREQ_0_1_0 / ONOK"];
	s117 -> s117 [label="IREQ_0_1_1 / ONOK"];
	s117 -> s117 [label="IREQ_1_0_0 / ONOK"];
	s117 -> s117 [label="IREQ_1_0_1 / ONOK"];
	s117 -> s117 [label="IREQ_1_1_0 / ONOK"];
	s117 -> s117 [label="IREQ_1_1_1 / ONOK"];
	s117 -> s0 [label="ITIMEOUT / OCONF_0"];
	s118 -> s17 [label="IACK / OFRAME_0_1_1_1"];
	s118 -> s118 [label="IREQ_0_0_0 / ONOK"];
	s118 -> s118 [label="IREQ_0_0_1 / ONOK"];
	s118 -> s118 [label="IREQ_0_1_0 / ONOK"];
	s118 -> s118 [label="IREQ_0_1_1 / ONOK"];
	s118 -> s118 [label="IREQ_1_0_0 / ONOK"];
	s118 -> s118 [label="IREQ_1_0_1 / ONOK"];
	s118 -> s118 [label="IREQ_1_1_0 / ONOK"];
	s118 -> s118 [label="IREQ_1_1_1 / ONOK"];
	s118 -> s119 [label="ITIMEOUT / OFRAME_0_0_0_0"];
	s119 -> s17 [label="IACK / OFRAME_0_1_1_1"];
	s119 -> s119 [label="IREQ_0_0_0 / ONOK"];
	s119 -> s119 [label="IREQ_0_0_1 / ONOK"];
	s119 -> s119 [label="IREQ_0_1_0 / ONOK"];
	s119 -> s119 [label="IREQ_0_1_1 / ONOK"];
	s119 -> s119 [label="IREQ_1_0_0 / ONOK"];
	s119 -> s119 [label="IREQ_1_0_1 / ONOK"];
	s119 -> s119 [label="IREQ_1_1_0 / ONOK"];
	s119 -> s119 [label="IREQ_1_1_1 / ONOK"];
	s119 -> s120 [label="ITIMEOUT / OFRAME_0_0_0_0"];
	s120 -> s17 [label="IACK / OFRAME_0_1_1_1"];
	s120 -> s120 [label="IREQ_0_0_0 / ONOK"];
	s120 -> s120 [label="IREQ_0_0_1 / ONOK"];
	s120 -> s120 [label="IREQ_0_1_0 / ONOK"];
	s120 -> s120 [label="IREQ_0_1_1 / ONOK"];
	s120 -> s120 [label="IREQ_1_0_0 / ONOK"];
	s120 -> s120 [label="IREQ_1_0_1 / ONOK"];
	s120 -> s120 [label="IREQ_1_1_0 / ONOK"];
	s120 -> s120 [label="IREQ_1_1_1 / ONOK"];
	s120 -> s121 [label="ITIMEOUT / OFRAME_0_0_0_0"];
	s121 -> s17 [label="IACK / OFRAME_0_1_1_1"];
	s121 -> s121 [label="IREQ_0_0_0 / ONOK"];
	s121 -> s121 [label="IREQ_0_0_1 / ONOK"];
	s121 -> s121 [label="IREQ_0_1_0 / ONOK"];
	s121 -> s121 [label="IREQ_0_1_1 / ONOK"];
	s121 -> s121 [label="IREQ_1_0_0 / ONOK"];
	s121 -> s121 [label="IREQ_1_0_1 / ONOK"];
	s121 -> s121 [label="IREQ_1_1_0 / ONOK"];
	s121 -> s121 [label="IREQ_1_1_1 / ONOK"];
	s121 -> s117 [label="ITIMEOUT / OFRAME_0_0_0_0"];
	s122 -> s5 [label="IACK / OFRAME_0_1_0_1"];
	s122 -> s122 [label="IREQ_0_0_0 / ONOK"];
	s122 -> s122 [label="IREQ_0_0_1 / ONOK"];
	s122 -> s122 [label="IREQ_0_1_0 / ONOK"];
	s122 -> s122 [label="IREQ_0_1_1 / ONOK"];
	s122 -> s122 [label="IREQ_1_0_0 / ONOK"];
	s122 -> s122 [label="IREQ_1_0_1 / ONOK"];
	s122 -> s122 [label="IREQ_1_1_0 / ONOK"];
	s122 -> s122 [label="IREQ_1_1_1 / ONOK"];
	s122 -> s123 [label="ITIMEOUT / OFRAME_0_0_1_0"];
	s123 -> s5 [label="IACK / OFRAME_0_1_0_1"];
	s123 -> s123 [label="IREQ_0_0_0 / ONOK"];
	s123 -> s123 [label="IREQ_0_0_1 / ONOK"];
	s123 -> s123 [label="IREQ_0_1_0 / ONOK"];
	s123 -> s123 [label="IREQ_0_1_1 / ONOK"];
	s123 -> s123 [label="IREQ_1_0_0 / ONOK"];
	s123 -> s123 [label="IREQ_1_0_1 / ONOK"];
	s123 -> s123 [label="IREQ_1_1_0 / ONOK"];
	s123 -> s123 [label="IREQ_1_1_1 / ONOK"];
	s123 -> s124 [label="ITIMEOUT / OFRAME_0_0_1_0"];
	s124 -> s5 [label="IACK / OFRAME_0_1_0_1"];
	s124 -> s124 [label="IREQ_0_0_0 / ONOK"];
	s124 -> s124 [label="IREQ_0_0_1 / ONOK"];
	s124 -> s124 [label="IREQ_0_1_0 / ONOK"];
	s124 -> s124 [label="IREQ_0_1_1 / ONOK"];
	s124 -> s124 [label="IREQ_1_0_0 / ONOK"];
	s124 -> s124 [label="IREQ_1_0_1 / ONOK"];
	s124 -> s124 [label="IREQ_1_1_0 / ONOK"];
	s124 -> s124 [label="IREQ_1_1_1 / ONOK"];
	s124 -> s125 [label="ITIMEOUT / OFRAME_0_0_1_0"];
	s125 -> s5 [label="IACK / OFRAME_0_1_0_1"];
	s125 -> s125 [label="IREQ_0_0_0 / ONOK"];
	s125 -> s125 [label="IREQ_0_0_1 / ONOK"];
	s125 -> s125 [label="IREQ_0_1_0 / ONOK"];
	s125 -> s125 [label="IREQ_0_1_1 / ONOK"];
	s125 -> s125 [label="IREQ_1_0_0 / ONOK"];
	s125 -> s125 [label="IREQ_1_0_1 / ONOK"];
	s125 -> s125 [label="IREQ_1_1_0 / ONOK"];
	s125 -> s125 [label="IREQ_1_1_1 / ONOK"];
	s125 -> s85 [label="ITIMEOUT / OFRAME_0_0_1_0"];
	s126 -> s4 [label="IACK / OFRAME_0_0_1_0"];
	s126 -> s126 [label="IREQ_0_0_0 / ONOK"];
	s126 -> s126 [label="IREQ_0_0_1 / ONOK"];
	s126 -> s126 [label="IREQ_0_1_0 / ONOK"];
	s126 -> s126 [label="IREQ_0_1_1 / ONOK"];
	s126 -> s126 [label="IREQ_1_0_0 / ONOK"];
	s126 -> s126 [label="IREQ_1_0_1 / ONOK"];
	s126 -> s126 [label="IREQ_1_1_0 / ONOK"];
	s126 -> s126 [label="IREQ_1_1_1 / ONOK"];
	s126 -> s127 [label="ITIMEOUT / OFRAME_1_0_0_1"];
	s127 -> s4 [label="IACK / OFRAME_0_0_1_0"];
	s127 -> s127 [label="IREQ_0_0_0 / ONOK"];
	s127 -> s127 [label="IREQ_0_0_1 / ONOK"];
	s127 -> s127 [label="IREQ_0_1_0 / ONOK"];
	s127 -> s127 [label="IREQ_0_1_1 / ONOK"];
	s127 -> s127 [label="IREQ_1_0_0 / ONOK"];
	s127 -> s127 [label="IREQ_1_0_1 / ONOK"];
	s127 -> s127 [label="IREQ_1_1_0 / ONOK"];
	s127 -> s127 [label="IREQ_1_1_1 / ONOK"];
	s127 -> s128 [label="ITIMEOUT / OFRAME_1_0_0_1"];
	s128 -> s4 [label="IACK / OFRAME_0_0_1_0"];
	s128 -> s128 [label="IREQ_0_0_0 / ONOK"];
	s128 -> s128 [label="IREQ_0_0_1 / ONOK"];
	s128 -> s128 [label="IREQ_0_1_0 / ONOK"];
	s128 -> s128 [label="IREQ_0_1_1 / ONOK"];
	s128 -> s128 [label="IREQ_1_0_0 / ONOK"];
	s128 -> s128 [label="IREQ_1_0_1 / ONOK"];
	s128 -> s128 [label="IREQ_1_1_0 / ONOK"];
	s128 -> s128 [label="IREQ_1_1_1 / ONOK"];
	s128 -> s129 [label="ITIMEOUT / OFRAME_1_0_0_1"];
	s129 -> s4 [label="IACK / OFRAME_0_0_1_0"];
	s129 -> s129 [label="IREQ_0_0_0 / ONOK"];
	s129 -> s129 [label="IREQ_0_0_1 / ONOK"];
	s129 -> s129 [label="IREQ_0_1_0 / ONOK"];
	s129 -> s129 [label="IREQ_0_1_1 / ONOK"];
	s129 -> s129 [label="IREQ_1_0_0 / ONOK"];
	s129 -> s129 [label="IREQ_1_0_1 / ONOK"];
	s129 -> s129 [label="IREQ_1_1_0 / ONOK"];
	s129 -> s129 [label="IREQ_1_1_1 / ONOK"];
	s129 -> s138 [label="ITIMEOUT / OFRAME_1_0_0_1"];
	s130 -> s16 [label="IACK / OFRAME_0_0_0_0"];
	s130 -> s130 [label="IREQ_0_0_0 / ONOK"];
	s130 -> s130 [label="IREQ_0_0_1 / ONOK"];
	s130 -> s130 [label="IREQ_0_1_0 / ONOK"];
	s130 -> s130 [label="IREQ_0_1_1 / ONOK"];
	s130 -> s130 [label="IREQ_1_0_0 / ONOK"];
	s130 -> s130 [label="IREQ_1_0_1 / ONOK"];
	s130 -> s130 [label="IREQ_1_1_0 / ONOK"];
	s130 -> s130 [label="IREQ_1_1_1 / ONOK"];
	s130 -> s131 [label="ITIMEOUT / OFRAME_1_0_1_0"];
	s131 -> s16 [label="IACK / OFRAME_0_0_0_0"];
	s131 -> s131 [label="IREQ_0_0_0 / ONOK"];
	s131 -> s131 [label="IREQ_0_0_1 / ONOK"];
	s131 -> s131 [label="IREQ_0_1_0 / ONOK"];
	s131 -> s131 [label="IREQ_0_1_1 / ONOK"];
	s131 -> s131 [label="IREQ_1_0_0 / ONOK"];
	s131 -> s131 [label="IREQ_1_0_1 / ONOK"];
	s131 -> s131 [label="IREQ_1_1_0 / ONOK"];
	s131 -> s131 [label="IREQ_1_1_1 / ONOK"];
	s131 -> s132 [label="ITIMEOUT / OFRAME_1_0_1_0"];
	s132 -> s16 [label="IACK / OFRAME_0_0_0_0"];
	s132 -> s132 [label="IREQ_0_0_0 / ONOK"];
	s132 -> s132 [label="IREQ_0_0_1 / ONOK"];
	s132 -> s132 [label="IREQ_0_1_0 / ONOK"];
	s132 -> s132 [label="IREQ_0_1_1 / ONOK"];
	s132 -> s132 [label="IREQ_1_0_0 / ONOK"];
	s132 -> s132 [label="IREQ_1_0_1 / ONOK"];
	s132 -> s132 [label="IREQ_1_1_0 / ONOK"];
	s132 -> s132 [label="IREQ_1_1_1 / ONOK"];
	s132 -> s133 [label="ITIMEOUT / OFRAME_1_0_1_0"];
	s133 -> s16 [label="IACK / OFRAME_0_0_0_0"];
	s133 -> s133 [label="IREQ_0_0_0 / ONOK"];
	s133 -> s133 [label="IREQ_0_0_1 / ONOK"];
	s133 -> s133 [label="IREQ_0_1_0 / ONOK"];
	s133 -> s133 [label="IREQ_0_1_1 / ONOK"];
	s133 -> s133 [label="IREQ_1_0_0 / ONOK"];
	s133 -> s133 [label="IREQ_1_0_1 / ONOK"];
	s133 -> s133 [label="IREQ_1_1_0 / ONOK"];
	s133 -> s133 [label="IREQ_1_1_1 / ONOK"];
	s133 -> s143 [label="ITIMEOUT / OFRAME_1_0_1_0"];
	s134 -> s13 [label="IACK / OFRAME_0_0_1_0"];
	s134 -> s134 [label="IREQ_0_0_0 / ONOK"];
	s134 -> s134 [label="IREQ_0_0_1 / ONOK"];
	s134 -> s134 [label="IREQ_0_1_0 / ONOK"];
	s134 -> s134 [label="IREQ_0_1_1 / ONOK"];
	s134 -> s134 [label="IREQ_1_0_0 / ONOK"];
	s134 -> s134 [label="IREQ_1_0_1 / ONOK"];
	s134 -> s134 [label="IREQ_1_1_0 / ONOK"];
	s134 -> s134 [label="IREQ_1_1_1 / ONOK"];
	s134 -> s135 [label="ITIMEOUT / OFRAME_1_0_0_0"];
	s135 -> s13 [label="IACK / OFRAME_0_0_1_0"];
	s135 -> s135 [label="IREQ_0_0_0 / ONOK"];
	s135 -> s135 [label="IREQ_0_0_1 / ONOK"];
	s135 -> s135 [label="IREQ_0_1_0 / ONOK"];
	s135 -> s135 [label="IREQ_0_1_1 / ONOK"];
	s135 -> s135 [label="IREQ_1_0_0 / ONOK"];
	s135 -> s135 [label="IREQ_1_0_1 / ONOK"];
	s135 -> s135 [label="IREQ_1_1_0 / ONOK"];
	s135 -> s135 [label="IREQ_1_1_1 / ONOK"];
	s135 -> s136 [label="ITIMEOUT / OFRAME_1_0_0_0"];
	s136 -> s13 [label="IACK / OFRAME_0_0_1_0"];
	s136 -> s136 [label="IREQ_0_0_0 / ONOK"];
	s136 -> s136 [label="IREQ_0_0_1 / ONOK"];
	s136 -> s136 [label="IREQ_0_1_0 / ONOK"];
	s136 -> s136 [label="IREQ_0_1_1 / ONOK"];
	s136 -> s136 [label="IREQ_1_0_0 / ONOK"];
	s136 -> s136 [label="IREQ_1_0_1 / ONOK"];
	s136 -> s136 [label="IREQ_1_1_0 / ONOK"];
	s136 -> s136 [label="IREQ_1_1_1 / ONOK"];
	s136 -> s137 [label="ITIMEOUT / OFRAME_1_0_0_0"];
	s137 -> s13 [label="IACK / OFRAME_0_0_1_0"];
	s137 -> s137 [label="IREQ_0_0_0 / ONOK"];
	s137 -> s137 [label="IREQ_0_0_1 / ONOK"];
	s137 -> s137 [label="IREQ_0_1_0 / ONOK"];
	s137 -> s137 [label="IREQ_0_1_1 / ONOK"];
	s137 -> s137 [label="IREQ_1_0_0 / ONOK"];
	s137 -> s137 [label="IREQ_1_0_1 / ONOK"];
	s137 -> s137 [label="IREQ_1_1_0 / ONOK"];
	s137 -> s137 [label="IREQ_1_1_1 / ONOK"];
	s137 -> s39 [label="ITIMEOUT / OFRAME_1_0_0_0"];
	s138 -> s4 [label="IACK / OFRAME_0_0_1_0"];
	s138 -> s138 [label="IREQ_0_0_0 / ONOK"];
	s138 -> s138 [label="IREQ_0_0_1 / ONOK"];
	s138 -> s138 [label="IREQ_0_1_0 / ONOK"];
	s138 -> s138 [label="IREQ_0_1_1 / ONOK"];
	s138 -> s138 [label="IREQ_1_0_0 / ONOK"];
	s138 -> s138 [label="IREQ_1_0_1 / ONOK"];
	s138 -> s138 [label="IREQ_1_1_0 / ONOK"];
	s138 -> s138 [label="IREQ_1_1_1 / ONOK"];
	s138 -> s0 [label="ITIMEOUT / OCONF_0"];
	s139 -> s16 [label="IACK / OFRAME_0_0_0_0"];
	s139 -> s139 [label="IREQ_0_0_0 / ONOK"];
	s139 -> s139 [label="IREQ_0_0_1 / ONOK"];
	s139 -> s139 [label="IREQ_0_1_0 / ONOK"];
	s139 -> s139 [label="IREQ_0_1_1 / ONOK"];
	s139 -> s139 [label="IREQ_1_0_0 / ONOK"];
	s139 -> s139 [label="IREQ_1_0_1 / ONOK"];
	s139 -> s139 [label="IREQ_1_1_0 / ONOK"];
	s139 -> s139 [label="IREQ_1_1_1 / ONOK"];
	s139 -> s140 [label="ITIMEOUT / OFRAME_1_0_1_1"];
	s140 -> s16 [label="IACK / OFRAME_0_0_0_0"];
	s140 -> s140 [label="IREQ_0_0_0 / ONOK"];
	s140 -> s140 [label="IREQ_0_0_1 / ONOK"];
	s140 -> s140 [label="IREQ_0_1_0 / ONOK"];
	s140 -> s140 [label="IREQ_0_1_1 / ONOK"];
	s140 -> s140 [label="IREQ_1_0_0 / ONOK"];
	s140 -> s140 [label="IREQ_1_0_1 / ONOK"];
	s140 -> s140 [label="IREQ_1_1_0 / ONOK"];
	s140 -> s140 [label="IREQ_1_1_1 / ONOK"];
	s140 -> s141 [label="ITIMEOUT / OFRAME_1_0_1_1"];
	s141 -> s16 [label="IACK / OFRAME_0_0_0_0"];
	s141 -> s141 [label="IREQ_0_0_0 / ONOK"];
	s141 -> s141 [label="IREQ_0_0_1 / ONOK"];
	s141 -> s141 [label="IREQ_0_1_0 / ONOK"];
	s141 -> s141 [label="IREQ_0_1_1 / ONOK"];
	s141 -> s141 [label="IREQ_1_0_0 / ONOK"];
	s141 -> s141 [label="IREQ_1_0_1 / ONOK"];
	s141 -> s141 [label="IREQ_1_1_0 / ONOK"];
	s141 -> s141 [label="IREQ_1_1_1 / ONOK"];
	s141 -> s142 [label="ITIMEOUT / OFRAME_1_0_1_1"];
	s142 -> s16 [label="IACK / OFRAME_0_0_0_0"];
	s142 -> s142 [label="IREQ_0_0_0 / ONOK"];
	s142 -> s142 [label="IREQ_0_0_1 / ONOK"];
	s142 -> s142 [label="IREQ_0_1_0 / ONOK"];
	s142 -> s142 [label="IREQ_0_1_1 / ONOK"];
	s142 -> s142 [label="IREQ_1_0_0 / ONOK"];
	s142 -> s142 [label="IREQ_1_0_1 / ONOK"];
	s142 -> s142 [label="IREQ_1_1_0 / ONOK"];
	s142 -> s142 [label="IREQ_1_1_1 / ONOK"];
	s142 -> s143 [label="ITIMEOUT / OFRAME_1_0_1_1"];
	s143 -> s16 [label="IACK / OFRAME_0_0_0_0"];
	s143 -> s143 [label="IREQ_0_0_0 / ONOK"];
	s143 -> s143 [label="IREQ_0_0_1 / ONOK"];
	s143 -> s143 [label="IREQ_0_1_0 / ONOK"];
	s143 -> s143 [label="IREQ_0_1_1 / ONOK"];
	s143 -> s143 [label="IREQ_1_0_0 / ONOK"];
	s143 -> s143 [label="IREQ_1_0_1 / ONOK"];
	s143 -> s143 [label="IREQ_1_1_0 / ONOK"];
	s143 -> s143 [label="IREQ_1_1_1 / ONOK"];
	s143 -> s8 [label="ITIMEOUT / OCONF_0"];
	s144 -> s2 [label="IACK / OFRAME_0_0_1_1"];
	s144 -> s144 [label="IREQ_0_0_0 / ONOK"];
	s144 -> s144 [label="IREQ_0_0_1 / ONOK"];
	s144 -> s144 [label="IREQ_0_1_0 / ONOK"];
	s144 -> s144 [label="IREQ_0_1_1 / ONOK"];
	s144 -> s144 [label="IREQ_1_0_0 / ONOK"];
	s144 -> s144 [label="IREQ_1_0_1 / ONOK"];
	s144 -> s144 [label="IREQ_1_1_0 / ONOK"];
	s144 -> s144 [label="IREQ_1_1_1 / ONOK"];
	s144 -> s145 [label="ITIMEOUT / OFRAME_1_0_0_0"];
	s145 -> s2 [label="IACK / OFRAME_0_0_1_1"];
	s145 -> s145 [label="IREQ_0_0_0 / ONOK"];
	s145 -> s145 [label="IREQ_0_0_1 / ONOK"];
	s145 -> s145 [label="IREQ_0_1_0 / ONOK"];
	s145 -> s145 [label="IREQ_0_1_1 / ONOK"];
	s145 -> s145 [label="IREQ_1_0_0 / ONOK"];
	s145 -> s145 [label="IREQ_1_0_1 / ONOK"];
	s145 -> s145 [label="IREQ_1_1_0 / ONOK"];
	s145 -> s145 [label="IREQ_1_1_1 / ONOK"];
	s145 -> s146 [label="ITIMEOUT / OFRAME_1_0_0_0"];
	s146 -> s2 [label="IACK / OFRAME_0_0_1_1"];
	s146 -> s146 [label="IREQ_0_0_0 / ONOK"];
	s146 -> s146 [label="IREQ_0_0_1 / ONOK"];
	s146 -> s146 [label="IREQ_0_1_0 / ONOK"];
	s146 -> s146 [label="IREQ_0_1_1 / ONOK"];
	s146 -> s146 [label="IREQ_1_0_0 / ONOK"];
	s146 -> s146 [label="IREQ_1_0_1 / ONOK"];
	s146 -> s146 [label="IREQ_1_1_0 / ONOK"];
	s146 -> s146 [label="IREQ_1_1_1 / ONOK"];
	s146 -> s147 [label="ITIMEOUT / OFRAME_1_0_0_0"];
	s147 -> s2 [label="IACK / OFRAME_0_0_1_1"];
	s147 -> s147 [label="IREQ_0_0_0 / ONOK"];
	s147 -> s147 [label="IREQ_0_0_1 / ONOK"];
	s147 -> s147 [label="IREQ_0_1_0 / ONOK"];
	s147 -> s147 [label="IREQ_0_1_1 / ONOK"];
	s147 -> s147 [label="IREQ_1_0_0 / ONOK"];
	s147 -> s147 [label="IREQ_1_0_1 / ONOK"];
	s147 -> s147 [label="IREQ_1_1_0 / ONOK"];
	s147 -> s147 [label="IREQ_1_1_1 / ONOK"];
	s147 -> s112 [label="ITIMEOUT / OFRAME_1_0_0_0"];
	s148 -> s4 [label="IACK / OFRAME_0_0_1_0"];
	s148 -> s148 [label="IREQ_0_0_0 / ONOK"];
	s148 -> s148 [label="IREQ_0_0_1 / ONOK"];
	s148 -> s148 [label="IREQ_0_1_0 / ONOK"];
	s148 -> s148 [label="IREQ_0_1_1 / ONOK"];
	s148 -> s148 [label="IREQ_1_0_0 / ONOK"];
	s148 -> s148 [label="IREQ_1_0_1 / ONOK"];
	s148 -> s148 [label="IREQ_1_1_0 / ONOK"];
	s148 -> s148 [label="IREQ_1_1_1 / ONOK"];
	s148 -> s149 [label="ITIMEOUT / OFRAME_1_0_0_0"];
	s149 -> s4 [label="IACK / OFRAME_0_0_1_0"];
	s149 -> s149 [label="IREQ_0_0_0 / ONOK"];
	s149 -> s149 [label="IREQ_0_0_1 / ONOK"];
	s149 -> s149 [label="IREQ_0_1_0 / ONOK"];
	s149 -> s149 [label="IREQ_0_1_1 / ONOK"];
	s149 -> s149 [label="IREQ_1_0_0 / ONOK"];
	s149 -> s149 [label="IREQ_1_0_1 / ONOK"];
	s149 -> s149 [label="IREQ_1_1_0 / ONOK"];
	s149 -> s149 [label="IREQ_1_1_1 / ONOK"];
	s149 -> s150 [label="ITIMEOUT / OFRAME_1_0_0_0"];
	s150 -> s4 [label="IACK / OFRAME_0_0_1_0"];
	s150 -> s150 [label="IREQ_0_0_0 / ONOK"];
	s150 -> s150 [label="IREQ_0_0_1 / ONOK"];
	s150 -> s150 [label="IREQ_0_1_0 / ONOK"];
	s150 -> s150 [label="IREQ_0_1_1 / ONOK"];
	s150 -> s150 [label="IREQ_1_0_0 / ONOK"];
	s150 -> s150 [label="IREQ_1_0_1 / ONOK"];
	s150 -> s150 [label="IREQ_1_1_0 / ONOK"];
	s150 -> s150 [label="IREQ_1_1_1 / ONOK"];
	s150 -> s151 [label="ITIMEOUT / OFRAME_1_0_0_0"];
	s151 -> s4 [label="IACK / OFRAME_0_0_1_0"];
	s151 -> s151 [label="IREQ_0_0_0 / ONOK"];
	s151 -> s151 [label="IREQ_0_0_1 / ONOK"];
	s151 -> s151 [label="IREQ_0_1_0 / ONOK"];
	s151 -> s151 [label="IREQ_0_1_1 / ONOK"];
	s151 -> s151 [label="IREQ_1_0_0 / ONOK"];
	s151 -> s151 [label="IREQ_1_0_1 / ONOK"];
	s151 -> s151 [label="IREQ_1_1_0 / ONOK"];
	s151 -> s151 [label="IREQ_1_1_1 / ONOK"];
	s151 -> s138 [label="ITIMEOUT / OFRAME_1_0_0_0"];
	s152 -> s25 [label="IACK / OFRAME_0_0_0_1"];
	s152 -> s152 [label="IREQ_0_0_0 / ONOK"];
	s152 -> s152 [label="IREQ_0_0_1 / ONOK"];
	s152 -> s152 [label="IREQ_0_1_0 / ONOK"];
	s152 -> s152 [label="IREQ_0_1_1 / ONOK"];
	s152 -> s152 [label="IREQ_1_0_0 / ONOK"];
	s152 -> s152 [label="IREQ_1_0_1 / ONOK"];
	s152 -> s152 [label="IREQ_1_1_0 / ONOK"];
	s152 -> s152 [label="IREQ_1_1_1 / ONOK"];
	s152 -> s153 [label="ITIMEOUT / OFRAME_1_0_1_1"];
	s153 -> s25 [label="IACK / OFRAME_0_0_0_1"];
	s153 -> s153 [label="IREQ_0_0_0 / ONOK"];
	s153 -> s153 [label="IREQ_0_0_1 / ONOK"];
	s153 -> s153 [label="IREQ_0_1_0 / ONOK"];
	s153 -> s153 [label="IREQ_0_1_1 / ONOK"];
	s153 -> s153 [label="IREQ_1_0_0 / ONOK"];
	s153 -> s153 [label="IREQ_1_0_1 / ONOK"];
	s153 -> s153 [label="IREQ_1_1_0 / ONOK"];
	s153 -> s153 [label="IREQ_1_1_1 / ONOK"];
	s153 -> s154 [label="ITIMEOUT / OFRAME_1_0_1_1"];
	s154 -> s25 [label="IACK / OFRAME_0_0_0_1"];
	s154 -> s154 [label="IREQ_0_0_0 / ONOK"];
	s154 -> s154 [label="IREQ_0_0_1 / ONOK"];
	s154 -> s154 [label="IREQ_0_1_0 / ONOK"];
	s154 -> s154 [label="IREQ_0_1_1 / ONOK"];
	s154 -> s154 [label="IREQ_1_0_0 / ONOK"];
	s154 -> s154 [label="IREQ_1_0_1 / ONOK"];
	s154 -> s154 [label="IREQ_1_1_0 / ONOK"];
	s154 -> s154 [label="IREQ_1_1_1 / ONOK"];
	s154 -> s155 [label="ITIMEOUT / OFRAME_1_0_1_1"];
	s155 -> s25 [label="IACK / OFRAME_0_0_0_1"];
	s155 -> s155 [label="IREQ_0_0_0 / ONOK"];
	s155 -> s155 [label="IREQ_0_0_1 / ONOK"];
	s155 -> s155 [label="IREQ_0_1_0 / ONOK"];
	s155 -> s155 [label="IREQ_0_1_1 / ONOK"];
	s155 -> s155 [label="IREQ_1_0_0 / ONOK"];
	s155 -> s155 [label="IREQ_1_0_1 / ONOK"];
	s155 -> s155 [label="IREQ_1_1_0 / ONOK"];
	s155 -> s155 [label="IREQ_1_1_1 / ONOK"];
	s155 -> s67 [label="ITIMEOUT / OFRAME_1_0_1_1"];
__start0 [label="" shape="none" width="0" height="0"];
__start0 -> s0;
}
