digraph g {
	s0 [shape="circle" label="s0"];
	s1 [shape="circle" label="s1"];
	s2 [shape="circle" label="s2"];
	s3 [shape="circle" label="s3"];
	s4 [shape="circle" label="s4"];
	s5 [shape="circle" label="s5"];
	s0 -> s1 [label="ApplicationData / ConnectionClosed"];
	s0 -> s1 [label="ApplicationDataEmpty / Alert Fatal (Illegal parameter) & ConnectionClosed"];
	s0 -> s1 [label="ChangeCipherSpec / ConnectionClosed"];
	s0 -> s2 [label="ClientHelloRSA / ServerHello & Certificate & ServerHelloDone"];
	s0 -> s1 [label="ClientKeyExchange / Alert Fatal (Unexpected message) & ConnectionClosed"];
	s0 -> s1 [label="EmptyCertificate / Alert Fatal (Unexpected message) & ConnectionClosed"];
	s0 -> s1 [label="Finished / Alert Fatal (Unexpected message) & ConnectionClosed"];
	s0 -> s1 [label="HeartbeatRequest / ConnectionClosed"];
	s1 -> s1 [label="ApplicationData / ConnectionClosed"];
	s1 -> s1 [label="ApplicationDataEmpty / ConnectionClosed"];
	s1 -> s1 [label="ChangeCipherSpec / ConnectionClosed"];
	s1 -> s1 [label="ClientHelloRSA / ConnectionClosed"];
	s1 -> s1 [label="ClientKeyExchange / ConnectionClosed"];
	s1 -> s1 [label="EmptyCertificate / ConnectionClosed"];
	s1 -> s1 [label="Finished / ConnectionClosed"];
	s1 -> s1 [label="HeartbeatRequest / ConnectionClosed"];
	s2 -> s1 [label="ApplicationData / ConnectionClosed"];
	s2 -> s1 [label="ApplicationDataEmpty / Alert Fatal (Illegal parameter) & ConnectionClosed"];
	s2 -> s1 [label="ChangeCipherSpec / Alert Fatal (Unexpected message) & ConnectionClosed"];
	s2 -> s1 [label="ClientHelloRSA / Alert Fatal (Unexpected message) & ConnectionClosed"];
	s2 -> s3 [label="ClientKeyExchange / Empty"];
	s2 -> s1 [label="EmptyCertificate / Alert Fatal (Unexpected message) & ConnectionClosed"];
	s2 -> s1 [label="Finished / Alert Fatal (Unexpected message) & ConnectionClosed"];
	s2 -> s1 [label="HeartbeatRequest / ConnectionClosed"];
	s3 -> s1 [label="ApplicationData / ConnectionClosed"];
	s3 -> s1 [label="ApplicationDataEmpty / Alert Fatal (Illegal parameter) & ConnectionClosed"];
	s3 -> s4 [label="ChangeCipherSpec / Empty"];
	s3 -> s1 [label="ClientHelloRSA / Alert Fatal (Unexpected message) & ConnectionClosed"];
	s3 -> s1 [label="ClientKeyExchange / Alert Fatal (Unexpected message) & ConnectionClosed"];
	s3 -> s1 [label="EmptyCertificate / Alert Fatal (Unexpected message) & ConnectionClosed"];
	s3 -> s1 [label="Finished / Alert Fatal (Unexpected message) & ConnectionClosed"];
	s3 -> s1 [label="HeartbeatRequest / ConnectionClosed"];
	s4 -> s1 [label="ApplicationData / ConnectionClosed"];
	s4 -> s1 [label="ApplicationDataEmpty / ConnectionClosed"];
	s4 -> s1 [label="ChangeCipherSpec / ConnectionClosed"];
	s4 -> s1 [label="ClientHelloRSA / Alert Fatal (Unexpected message) & ConnectionClosed"];
	s4 -> s1 [label="ClientKeyExchange / Alert Fatal (Unexpected message) & ConnectionClosed"];
	s4 -> s1 [label="EmptyCertificate / Alert Fatal (Unexpected message) & ConnectionClosed"];
	s4 -> s5 [label="Finished / ChangeCipherSpec & Finished"];
	s4 -> s1 [label="HeartbeatRequest / ConnectionClosed"];
	s5 -> s1 [label="ApplicationData / ApplicationDataApplicationDataApplicationDataApplicationDataApplicationDataApplicationData & ConnectionClosed"];
	s5 -> s5 [label="ApplicationDataEmpty / Empty"];
	s5 -> s1 [label="ChangeCipherSpec / Alert Fatal (Unexpected message) & ConnectionClosed"];
	s5 -> s1 [label="ClientHelloRSA / Alert Fatal (Handshake failure) & ConnectionClosed"];
	s5 -> s1 [label="ClientKeyExchange / Alert Fatal (Unexpected message) & ConnectionClosed"];
	s5 -> s1 [label="EmptyCertificate / Alert Fatal (Unexpected message) & ConnectionClosed"];
	s5 -> s1 [label="Finished / Alert Fatal (Unexpected message) & ConnectionClosed"];
	s5 -> s1 [label="HeartbeatRequest / ConnectionClosed"];
__start0 [label="" shape="none" width="0" height="0"];
__start0 -> s0;
}
