digraph g {
	s0 [shape="circle" label="s0"];
	s1 [shape="circle" label="s1"];
	s2 [shape="circle" label="s2"];
	s3 [shape="circle" label="s3"];
	s0 -> s0 [label="IAA / ONOK"];
	s0 -> s0 [label="ICA / ONOK"];
	s0 -> s0 [label="ICOMPLETEBAC / ONOK"];
	s0 -> s0 [label="IFAILBAC / ONOK"];
	s0 -> s0 [label="IFAILEAC / ONOK"];
	s0 -> s1 [label="IGETCHALLENGE / OOK"];
	s0 -> s0 [label="IREADFILE_0 / ONOK"];
	s0 -> s0 [label="IREADFILE_1 / ONOK"];
	s0 -> s0 [label="IREADFILE_2 / ONOK"];
	s0 -> s0 [label="IREADFILE_3 / ONOK"];
	s0 -> s0 [label="IREADFILE_4 / ONOK"];
	s0 -> s0 [label="IREADFILE_5 / ONOK"];
	s0 -> s0 [label="IREADFILE_6 / ONOK"];
	s0 -> s0 [label="IREADFILE_7 / ONOK"];
	s0 -> s0 [label="IREADFILE_8 / ONOK"];
	s0 -> s0 [label="IRESET / OOK"];
	s0 -> s0 [label="ITA / ONOK"];
	s1 -> s1 [label="IAA / ONOK"];
	s1 -> s1 [label="ICA / ONOK"];
	s1 -> s2 [label="ICOMPLETEBAC / OOK"];
	s1 -> s0 [label="IFAILBAC / ONOK"];
	s1 -> s1 [label="IFAILEAC / ONOK"];
	s1 -> s1 [label="IGETCHALLENGE / OOK"];
	s1 -> s1 [label="IREADFILE_0 / ONOK"];
	s1 -> s1 [label="IREADFILE_1 / ONOK"];
	s1 -> s1 [label="IREADFILE_2 / ONOK"];
	s1 -> s1 [label="IREADFILE_3 / ONOK"];
	s1 -> s1 [label="IREADFILE_4 / ONOK"];
	s1 -> s1 [label="IREADFILE_5 / ONOK"];
	s1 -> s1 [label="IREADFILE_6 / ONOK"];
	s1 -> s1 [label="IREADFILE_7 / ONOK"];
	s1 -> s1 [label="IREADFILE_8 / ONOK"];
	s1 -> s0 [label="IRESET / OOK"];
	s1 -> s1 [label="ITA / ONOK"];
	s2 -> s2 [label="IAA / OOK"];
	s2 -> s3 [label="ICA / OOK"];
	s2 -> s0 [label="ICOMPLETEBAC / ONOK"];
	s2 -> s0 [label="IFAILBAC / ONOK"];
	s2 -> s3 [label="IFAILEAC / ONOK"];
	s2 -> s0 [label="IGETCHALLENGE / ONOK"];
	s2 -> s2 [label="IREADFILE_0 / ONOK"];
	s2 -> s2 [label="IREADFILE_1 / ONOK"];
	s2 -> s2 [label="IREADFILE_2 / ONOK"];
	s2 -> s2 [label="IREADFILE_3 / ONOK"];
	s2 -> s2 [label="IREADFILE_4 / ONOK"];
	s2 -> s2 [label="IREADFILE_5 / ONOK"];
	s2 -> s2 [label="IREADFILE_6 / ONOK"];
	s2 -> s2 [label="IREADFILE_7 / ONOK"];
	s2 -> s2 [label="IREADFILE_8 / ONOK"];
	s2 -> s0 [label="IRESET / OOK"];
	s2 -> s2 [label="ITA / ONOK"];
	s3 -> s3 [label="IAA / OOK"];
	s3 -> s3 [label="ICA / OOK"];
	s3 -> s0 [label="ICOMPLETEBAC / ONOK"];
	s3 -> s0 [label="IFAILBAC / ONOK"];
	s3 -> s3 [label="IFAILEAC / ONOK"];
	s3 -> s0 [label="IGETCHALLENGE / ONOK"];
	s3 -> s3 [label="IREADFILE_0 / ONOK"];
	s3 -> s3 [label="IREADFILE_1 / ONOK"];
	s3 -> s3 [label="IREADFILE_2 / ONOK"];
	s3 -> s3 [label="IREADFILE_3 / ONOK"];
	s3 -> s3 [label="IREADFILE_4 / ONOK"];
	s3 -> s3 [label="IREADFILE_5 / ONOK"];
	s3 -> s3 [label="IREADFILE_6 / ONOK"];
	s3 -> s3 [label="IREADFILE_7 / ONOK"];
	s3 -> s3 [label="IREADFILE_8 / ONOK"];
	s3 -> s0 [label="IRESET / OOK"];
	s3 -> s3 [label="ITA / OOK"];
__start0 [label="" shape="none" width="0" height="0"];
__start0 -> s0;
}
