Seed,1,2,3,4,5,6,7,8,9,10
Correct M,true,true,true,true,true,true,true,true,true,true
Max Depth,278,278,278,278,278,278,278,278,278,278
Max Tests,278,278,278,278,278,278,278,278,278,278
EQ Queries,378,270,447,313,656,396,423,331,319,443
MQ Tests,7864,5709,8933,7251,16339,8281,9288,6925,6605,8858
EQ Tests,1702,1709,1513,1580,2671,1484,1714,1443,1502,1689
ALL Tests,9566,7418,10446,8831,19010,9765,11002,8368,8107,10547
MQ Steps,162906,133857,168878,176327,378587,164703,222865,163695,173935,174955
EQ Steps,42103,44708,33225,40305,63869,34494,42261,34634,37371,37401
ALL Steps,205009,178565,202103,216632,442456,199197,265126,198329,211306,212356
