Seed,1,2,3,4,5,6,7,8,9,10
Correct M,true,true,true,true,true,true,true,true,true,true
Max Depth,17924,17924,17924,17924,17924,17924,17924,17924,17924,17924
Max Tests,17924,17924,17924,17924,17924,17924,17924,17924,17924,17924
EQ Queries,944,912,856,977,911,937,742,834,956,908
MQ Tests,10331,9544,9058,12693,10206,10393,7929,8411,11105,9971
EQ Tests,112897,104403,81005,94637,84663,73625,56940,81770,106685,68099
ALL Tests,123228,113947,90063,107330,94869,84018,64869,90181,117790,78070
MQ Steps,112159,101141,94530,176886,114099,113533,83148,84401,126437,107265
EQ Steps,3478148,3201179,2486250,2904626,2583991,2249946,1728518,2514728,3274912,2084832
ALL Steps,3590307,3302320,2580780,3081512,2698090,2363479,1811666,2599129,3401349,2192097
