Seed,1,2,3,4,5,6,7,8,9,10
Correct M,true,true,true,true,true,true,true,true,true,true
Max Depth,144,144,144,144,144,144,144,144,144,144
Max Tests,144,144,144,144,144,144,144,144,144,144
EQ Queries,3,2,2,3,3,3,4,3,5,4
MQ Tests,11823,6764,6089,10959,15622,12256,17583,10959,19781,20518
EQ Tests,291,145,150,179,151,151,179,154,202,239
ALL Tests,12114,6909,6239,11138,15773,12407,17762,11113,19983,20757
MQ Steps,253328,134576,115586,207750,405635,253031,405968,213078,363275,493034
EQ Steps,8735,4224,4341,5517,4504,4604,5403,4652,5772,7174
ALL Steps,262063,138800,119927,213267,410139,257635,411371,217730,369047,500208
