Seed,1,2,3,4,5,6,7,8,9,10
Correct M,true,true,true,true,true,true,true,true,true,true
Max Depth,316,316,316,316,316,316,316,316,316,316
Max Tests,316,316,316,316,316,316,316,316,316,316
EQ Queries,7,6,7,6,8,6,7,7,6,5
MQ Tests,201,243,210,198,230,199,229,209,228,207
EQ Tests,597,532,550,761,752,510,753,486,392,339
ALL Tests,798,775,760,959,982,709,982,695,620,546
MQ Steps,999,1060,1004,953,972,996,1144,941,1039,915
EQ Steps,3921,3431,3717,5231,4990,3400,5174,3200,2622,2254
ALL Steps,4920,4491,4721,6184,5962,4396,6318,4141,3661,3169
