Seed,1,2,3,4,5,6,7,8,9,10
Correct M,true,true,true,true,true,true,true,true,true,true
Max Depth,73,73,73,73,73,73,73,73,73,73
Max Tests,73,73,73,73,73,73,73,73,73,73
EQ Queries,8,9,10,10,14,6,11,9,9,9
MQ Tests,486,396,408,506,460,388,475,599,517,436
EQ Tests,117,138,113,100,104,99,91,89,87,83
ALL Tests,603,534,521,606,564,487,566,688,604,519
MQ Steps,3674,3019,3027,4794,3348,3166,3542,5634,3892,3510
EQ Steps,6011,7029,5761,5099,5137,5114,4524,4452,4418,4160
ALL Steps,9685,10048,8788,9893,8485,8280,8066,10086,8310,7670
