Seed,1,2,3,4,5,6,7,8,9,10
Correct M,true,true,true,true,true,true,true,true,true,true
Max Depth,30,30,30,30,30,30,30,30,30,30
Max Tests,30,30,30,30,30,30,30,30,30,30
EQ Queries,4,7,6,6,8,7,6,8,5,6
MQ Tests,209,202,194,197,263,190,206,216,190,226
EQ Tests,33,72,53,46,42,52,51,67,60,46
ALL Tests,242,274,247,243,305,242,257,283,250,272
MQ Steps,1063,912,916,884,1234,926,890,945,904,1138
EQ Steps,1357,2894,2083,1819,1598,2091,2009,2653,2390,1902
ALL Steps,2420,3806,2999,2703,2832,3017,2899,3598,3294,3040
