Seed,1,2,3,4,5,6,7,8,9,10
Correct M,true,true,true,true,true,true,true,true,true,true
Max Depth,158,158,158,158,158,158,158,158,158,158
Max Tests,158,158,158,158,158,158,158,158,158,158
EQ Queries,4,4,3,4,3,4,3,4,3,3
MQ Tests,92,91,97,114,88,89,96,90,77,98
EQ Tests,179,192,182,265,171,231,318,239,164,209
ALL Tests,271,283,279,379,259,320,414,329,241,307
MQ Steps,325,342,465,937,294,320,389,333,217,486
EQ Steps,1028,1102,1090,1598,900,1446,1850,1305,886,1213
ALL Steps,1353,1444,1555,2535,1194,1766,2239,1638,1103,1699
