Seed,1,2,3,4,5,6,7,8,9,10
Correct M,true,true,true,true,true,true,true,true,true,true
Max Depth,1,1,1,1,1,1,1,1,1,1
Max Tests,1,1,1,1,1,1,1,1,1,1
EQ Queries,1,1,1,1,1,1,1,1,1,1
MQ Tests,1067,1067,1067,1067,1067,1067,1067,1067,1067,1067
EQ Tests,1,1,1,1,1,1,1,1,1,1
ALL Tests,1068,1068,1068,1068,1068,1068,1068,1068,1068,1068
MQ Steps,4015,4015,4015,4015,4015,4015,4015,4015,4015,4015
EQ Steps,3,5,4,6,3,8,8,4,10,4
ALL Steps,4018,4020,4019,4021,4018,4023,4023,4019,4025,4019
