Seed,1,2,3,4,5,6,7,8,9,10
Correct M,true,true,true,true,true,true,true,true,true,true
Max Depth,20,20,20,20,20,20,20,20,20,20
Max Tests,20,20,20,20,20,20,20,20,20,20
EQ Queries,6,6,7,7,6,7,6,5,6,7
MQ Tests,350,350,347,392,351,391,343,351,351,349
EQ Tests,30,35,55,28,28,38,39,24,33,31
ALL Tests,380,385,402,420,379,429,382,375,384,380
MQ Steps,1587,1548,1345,1603,1386,1503,1387,1455,1486,1351
EQ Steps,1177,1370,2283,985,1109,1505,1487,959,1325,1127
ALL Steps,2764,2918,3628,2588,2495,3008,2874,2414,2811,2478
