Seed,1,2,3,4,5,6,7,8,9,10
Correct M,true,true,true,true,true,true,true,true,true,true
Max Depth,22,22,22,22,22,22,22,22,22,22
Max Tests,22,22,22,22,22,22,22,22,22,22
EQ Queries,6,5,7,5,8,6,6,7,5,8
MQ Tests,422,385,406,383,464,383,433,427,407,475
EQ Tests,29,42,41,26,44,45,36,46,46,52
ALL Tests,451,427,447,409,508,428,469,473,453,527
MQ Steps,5271,3161,3712,3470,4732,2953,5616,6213,6958,5135
EQ Steps,1153,1626,1636,1014,1587,1770,1473,1830,1938,2060
ALL Steps,6424,4787,5348,4484,6319,4723,7089,8043,8896,7195
