Seed,1,2,3,4,5,6,7,8,9,10
Correct M,true,true,true,true,true,true,true,true,true,true
Max Depth,316,316,316,316,316,316,316,316,316,316
Max Tests,316,316,316,316,316,316,316,316,316,316
EQ Queries,7,6,7,6,8,6,7,7,5,7
MQ Tests,357,379,335,358,393,351,406,339,452,348
EQ Tests,597,532,550,761,752,510,753,486,353,432
ALL Tests,954,911,885,1119,1145,861,1159,825,805,780
MQ Steps,2262,1685,1605,2470,1505,1920,1848,2028,4404,1886
EQ Steps,3921,3443,3717,5231,4990,3400,5174,3200,2278,2902
ALL Steps,6183,5128,5322,7701,6495,5320,7022,5228,6682,4788
