Seed,1,2,3,4,5,6,7,8,9,10
Correct M,true,true,true,true,true,true,true,true,true,true
Max Depth,9,9,9,9,9,9,9,9,9,9
Max Tests,9,9,9,9,9,9,9,9,9,9
EQ Queries,3,4,5,5,4,4,6,5,4,5
MQ Tests,256,295,257,257,263,293,297,257,256,259
EQ Tests,16,24,23,18,18,18,26,23,14,27
ALL Tests,272,319,280,275,281,311,323,280,270,286
MQ Steps,1611,1717,1509,1529,1624,1720,1662,1496,1610,1572
EQ Steps,638,595,560,316,535,441,936,512,370,659
ALL Steps,2249,2312,2069,1845,2159,2161,2598,2008,1980,2231
