Seed,1,2,3,4,5,6,7,8,9,10
Correct M,true,true,true,true,true,true,true,true,true,true
Max Depth,454,454,454,454,454,454,454,454,454,454
Max Tests,454,454,454,454,454,454,454,454,454,454
EQ Queries,10,9,8,8,8,9,9,9,9,9
MQ Tests,1694,1522,1354,1353,1354,1523,1527,1521,1522,1524
EQ Tests,964,626,645,495,686,549,489,745,586,734
ALL Tests,2658,2148,1999,1848,2040,2072,2016,2266,2108,2258
MQ Steps,44385,21723,28480,24227,25877,28441,28937,31901,31286,29724
EQ Steps,28893,18921,19535,15260,20869,16404,14709,22172,17038,21918
ALL Steps,73278,40644,48015,39487,46746,44845,43646,54073,48324,51642
