Seed,1,2,3,4,5,6,7,8,9,10
Correct M,true,true,true,true,true,true,true,true,true,true
Max Depth,16120,16120,16120,16120,16120,16120,16120,16120,16120,16120
Max Tests,16120,16120,16120,16120,16120,16120,16120,16120,16120,16120
EQ Queries,5,4,5,5,5,5,5,5,4,4
MQ Tests,143,113,141,141,143,141,143,139,113,112
EQ Tests,16692,36437,16336,18199,18613,16155,21909,18221,16126,16123
ALL Tests,16835,36550,16477,18340,18756,16296,22052,18360,16239,16235
MQ Steps,583,402,485,531,494,484,524,495,436,413
EQ Steps,340696,829367,359437,406442,389685,356112,468121,396764,376341,450958
ALL Steps,341279,829769,359922,406973,390179,356596,468645,397259,376777,451371
