Seed,1,2,3,4,5,6,7,8,9,10
Correct M,true,true,true,true,true,true,true,true,true,true
Max Depth,34,34,34,34,34,34,34,34,34,34
Max Tests,34,34,34,34,34,34,34,34,34,34
EQ Queries,3,2,3,3,3,3,3,3,3,3
MQ Tests,1294,1182,1406,1630,2498,1994,1714,1322,1602,1406
EQ Tests,38,35,64,51,50,48,47,48,73,66
ALL Tests,1332,1217,1470,1681,2548,2042,1761,1370,1675,1472
MQ Steps,20352,25516,20844,32552,60760,39772,29232,19236,27424,20088
EQ Steps,1259,1077,1918,1511,1477,1634,1535,1461,2047,2003
ALL Steps,21611,26593,22762,34063,62237,41406,30767,20697,29471,22091
