Seed,1,2,3,4,5,6,7,8,9,10
Correct M,true,true,true,true,true,true,true,true,true,true
Max Depth,238,238,238,238,238,238,238,238,238,238
Max Tests,238,238,238,238,238,238,238,238,238,238
EQ Queries,4,5,5,5,4,4,4,4,5,4
MQ Tests,55,57,54,61,54,56,64,58,66,53
EQ Tests,313,538,310,430,326,349,431,424,400,299
ALL Tests,368,595,364,491,380,405,495,482,466,352
MQ Steps,223,254,203,283,217,203,281,250,268,201
EQ Steps,2053,3373,2086,2886,2103,2244,2867,2741,2653,1932
ALL Steps,2276,3627,2289,3169,2320,2447,3148,2991,2921,2133
