Seed,1,2,3,4,5,6,7,8,9,10
Correct M,true,true,true,true,true,true,true,true,true,true
Max Depth,238,238,238,238,238,238,238,238,238,238
Max Tests,238,238,238,238,238,238,238,238,238,238
EQ Queries,4,5,5,5,5,4,4,5,5,4
MQ Tests,103,92,87,90,89,89,93,90,91,86
EQ Tests,313,538,310,430,391,349,431,424,400,498
ALL Tests,416,630,397,520,480,438,524,514,491,584
MQ Steps,344,304,281,292,286,286,309,294,294,278
EQ Steps,2053,3373,2086,2886,2443,2244,2867,2730,2653,3243
ALL Steps,2397,3677,2367,3178,2729,2530,3176,3024,2947,3521
