Seed,1,2,3,4,5,6,7,8,9,10
Correct M,true,true,true,true,true,true,true,true,true,true
Max Depth,12,12,12,12,12,12,12,12,12,12
Max Tests,12,12,12,12,12,12,12,12,12,12
EQ Queries,3,2,3,3,2,3,3,3,3,3
MQ Tests,42,31,43,41,29,46,43,43,41,41
EQ Tests,23,17,18,17,14,21,15,26,16,15
ALL Tests,65,48,61,58,43,67,58,69,57,56
MQ Steps,345,87,152,148,73,302,178,136,233,157
EQ Steps,726,439,513,375,309,637,379,641,509,364
ALL Steps,1071,526,665,523,382,939,557,777,742,521
