Seed,1,2,3,4,5,6,7,8,9,10
Correct M,true,true,true,true,true,true,true,true,true,true
Max Depth,263,263,263,263,263,263,263,263,263,263
Max Tests,263,263,263,263,263,263,263,263,263,263
EQ Queries,12,11,9,9,9,9,12,12,12,9
MQ Tests,1024,1116,1058,1104,1258,1175,1186,1101,1260,1020
EQ Tests,773,663,454,465,351,365,605,554,427,543
ALL Tests,1797,1779,1512,1569,1609,1540,1791,1655,1687,1563
MQ Steps,12153,17232,13564,15207,23583,18444,18076,13447,22508,16086
EQ Steps,23181,19996,13904,14365,10498,10910,18390,16481,12246,16549
ALL Steps,35334,37228,27468,29572,34081,29354,36466,29928,34754,32635
