Seed,1,2,3,4,5,6,7,8,9,10
Correct M,true,true,true,true,true,true,true,true,true,true
Max Depth,25,25,25,25,25,25,25,25,25,25
Max Tests,25,25,25,25,25,25,25,25,25,25
EQ Queries,2,2,2,2,2,2,2,2,2,2
MQ Tests,4731,4302,3301,4159,3158,3873,4159,5732,5017,2014
EQ Tests,44,27,45,27,49,46,27,26,46,30
ALL Tests,4775,4329,3346,4186,3207,3919,4186,5758,5063,2044
MQ Steps,58071,46917,25896,46631,27469,37050,40911,102830,66222,11739
EQ Steps,1127,608,1160,597,1163,1207,700,565,1061,702
ALL Steps,59198,47525,27056,47228,28632,38257,41611,103395,67283,12441
