Seed,1,2,3,4,5,6,7,8,9,10
Correct M,true,true,true,true,true,true,true,true,true,true
Max Depth,40,40,40,40,40,40,40,40,40,40
Max Tests,40,40,40,40,40,40,40,40,40,40
EQ Queries,6,6,4,6,4,4,4,7,5,6
MQ Tests,264,313,282,272,191,189,320,303,215,264
EQ Tests,52,57,45,54,49,86,55,72,56,73
ALL Tests,316,370,327,326,240,275,375,375,271,337
MQ Steps,1181,1567,1293,1243,995,936,1680,1545,1254,1178
EQ Steps,1699,1576,1249,1852,1854,2625,2116,1827,1655,2118
ALL Steps,2880,3143,2542,3095,2849,3561,3796,3372,2909,3296
