Seed,1,2,3,4,5,6,7,8,9,10
Correct M,true,true,true,true,true,true,true,true,true,true
Max Depth,26,26,26,26,26,26,26,26,26,26
Max Tests,26,26,26,26,26,26,26,26,26,26
EQ Queries,2,3,3,3,3,3,3,3,3,3
MQ Tests,49,63,64,71,61,63,65,67,62,65
EQ Tests,27,35,30,29,52,33,53,40,35,38
ALL Tests,76,98,94,100,113,96,118,107,97,103
MQ Steps,179,265,350,494,266,312,289,262,306,287
EQ Steps,853,1077,974,876,1521,1141,1705,1164,1012,1238
ALL Steps,1032,1342,1324,1370,1787,1453,1994,1426,1318,1525
