Seed,1,2,3,4,5,6,7,8,9,10
Correct M,true,true,true,true,true,true,true,true,true,true
Max Depth,3307,3307,3307,3307,3307,3307,3307,3307,3307,3307
Max Tests,3307,3307,3307,3307,3307,3307,3307,3307,3307,3307
EQ Queries,2,2,2,2,2,2,2,2,2,2
MQ Tests,2300,2729,3444,2586,4016,3444,2586,2586,2729,2014
EQ Tests,4263,4054,3946,4559,3574,3566,3533,6615,3478,4150
ALL Tests,6563,6783,7390,7145,7590,7010,6119,9201,6207,6164
MQ Steps,11310,16029,26754,14313,37908,26611,15171,14313,16029,10881
EQ Steps,133587,123738,124018,144186,111607,107930,110334,201842,107371,132241
ALL Steps,144897,139767,150772,158499,149515,134541,125505,216155,123400,143122
