Seed,1,2,3,4,5,6,7,8,9,10
Correct M,true,true,true,true,true,true,true,true,true,true
Max Depth,14,14,14,14,14,14,14,14,14,14
Max Tests,14,14,14,14,14,14,14,14,14,14
EQ Queries,2,3,2,3,2,3,3,3,2,2
MQ Tests,1358,2924,3751,4112,1303,3356,1790,2924,3680,1466
EQ Tests,19,29,16,20,21,23,36,24,16,16
ALL Tests,1377,2953,3767,4132,1324,3379,1826,2948,3696,1482
MQ Steps,12580,39916,133880,94426,13736,58108,17326,41266,110038,15508
EQ Steps,671,870,543,618,596,621,1278,670,509,500
ALL Steps,13251,40786,134423,95044,14332,58729,18604,41936,110547,16008
