Seed,1,2,3,4,5,6,7,8,9,10
Correct M,true,true,true,true,true,true,true,true,true,true
Max Depth,300,300,300,300,300,300,300,300,300,300
Max Tests,300,300,300,300,300,300,300,300,300,300
EQ Queries,2,3,2,3,3,2,2,3,3,3
MQ Tests,66,81,66,86,82,66,66,89,81,82
EQ Tests,303,401,306,407,569,303,302,514,337,613
ALL Tests,369,482,372,493,651,369,368,603,418,695
MQ Steps,165,318,165,429,349,165,297,594,291,268
EQ Steps,1800,2219,1862,2467,3155,1858,1796,2815,1919,3504
ALL Steps,1965,2537,2027,2896,3504,2023,2093,3409,2210,3772
