Seed,1,2,3,4,5,6,7,8,9,10
Correct M,true,true,true,true,true,true,true,true,true,true
Max Depth,37,37,37,37,37,37,37,37,37,37
Max Tests,37,37,37,37,37,37,37,37,37,37
EQ Queries,2,3,3,3,3,3,2,3,3,3
MQ Tests,66,97,92,92,98,98,66,94,90,162
EQ Tests,40,49,46,54,76,41,39,47,41,45
ALL Tests,106,146,138,146,174,139,105,141,131,207
MQ Steps,253,880,903,714,1035,981,561,799,714,6528
EQ Steps,1549,1523,1254,1904,2784,1237,1576,1235,1212,1337
ALL Steps,1802,2403,2157,2618,3819,2218,2137,2034,1926,7865
