Seed,1,2,3,4,5,6,7,8,9,10
Correct M,true,true,true,true,true,true,true,true,true,true
Max Depth,100,100,100,100,100,100,100,100,100,100
Max Tests,100,100,100,100,100,100,100,100,100,100
EQ Queries,5,6,6,5,6,6,4,6,5,6
MQ Tests,267,265,265,271,307,261,323,269,267,265
EQ Tests,113,131,135,184,117,120,109,122,202,137
ALL Tests,380,396,400,455,424,381,432,391,469,402
MQ Steps,986,1000,1055,1133,1133,960,1233,998,1093,989
EQ Steps,5670,6324,5982,8555,5643,5908,5225,5934,9870,6107
ALL Steps,6656,7324,7037,9688,6776,6868,6458,6932,10963,7096
