Seed,1,2,3,4,5,6,7,8,9,10
Correct M,true,true,true,true,true,true,true,true,true,true
Max Depth,8,8,8,8,8,8,8,8,8,8
Max Tests,8,8,8,8,8,8,8,8,8,8
EQ Queries,3,3,3,3,3,2,3,2,3,3
MQ Tests,75,80,79,80,78,47,76,47,76,73
EQ Tests,11,10,15,10,16,9,15,9,13,10
ALL Tests,86,90,94,90,94,56,91,56,89,83
MQ Steps,230,362,278,339,260,113,243,112,272,187
EQ Steps,501,498,727,496,773,411,712,417,621,429
ALL Steps,731,860,1005,835,1033,524,955,529,893,616
