Seed,1,2,3,4,5,6,7,8,9,10
Correct M,true,true,true,true,true,true,true,true,true,true
Max Depth,300,300,300,300,300,300,300,300,300,300
Max Tests,300,300,300,300,300,300,300,300,300,300
EQ Queries,3,3,3,3,3,3,3,3,3,3
MQ Tests,78,79,77,80,80,78,78,82,78,78
EQ Tests,513,401,342,407,569,326,309,514,337,613
ALL Tests,591,480,419,487,649,404,387,596,415,691
MQ Steps,207,209,204,214,213,207,205,225,205,206
EQ Steps,2869,2219,2086,2467,3155,1979,1867,2815,1919,3504
ALL Steps,3076,2428,2290,2681,3368,2186,2072,3040,2124,3710
