Seed,1,2,3,4,5,6,7,8,9,10
Correct M,true,true,true,true,true,true,true,true,true,true
Max Depth,1366,1366,1366,1366,1366,1366,1366,1366,1366,1366
Max Tests,1366,1366,1366,1366,1366,1366,1366,1366,1366,1366
EQ Queries,8,10,10,10,12,8,10,12,11,10
MQ Tests,676,678,681,678,687,686,679,683,693,676
EQ Tests,1456,2632,1429,1741,1770,1530,2072,2942,1518,1793
ALL Tests,2132,3310,2110,2419,2457,2216,2751,3625,2211,2469
MQ Steps,4073,3775,3779,3755,4022,3529,4253,3586,4133,4233
EQ Steps,43702,77906,42397,52296,53577,45768,62801,88460,44707,54214
ALL Steps,47775,81681,46176,56051,57599,49297,67054,92046,48840,58447
