Seed,1,2,3,4,5,6,7,8,9,10
Correct M,true,true,true,true,true,true,true,true,true,true
Max Depth,1,1,1,1,1,1,1,1,1,1
Max Tests,1,1,1,1,1,1,1,1,1,1
EQ Queries,1,1,1,1,1,1,1,1,1,1
MQ Tests,819,819,819,819,819,819,819,819,819,819
EQ Tests,1,1,1,1,1,1,1,1,1,1
ALL Tests,820,820,820,820,820,820,820,820,820,820
MQ Steps,3168,3168,3168,3168,3168,3168,3168,3168,3168,3168
EQ Steps,51,53,53,52,51,52,53,53,54,51
ALL Steps,3219,3221,3221,3220,3219,3220,3221,3221,3222,3219
