Seed,1,2,3,4,5,6,7,8,9,10
Correct M,true,true,true,true,true,true,true,true,true,true
Max Depth,1802,1802,1802,1802,1802,1802,1802,1802,1802,1802
Max Tests,1802,1802,1802,1802,1802,1802,1802,1802,1802,1802
EQ Queries,7,5,5,6,7,7,7,7,6,8
MQ Tests,1111,790,788,951,1111,1109,1109,1109,951,1267
EQ Tests,4390,1992,2162,2006,3121,2106,2511,2069,2237,2079
ALL Tests,5501,2782,2950,2957,4232,3215,3620,3178,3188,3346
MQ Steps,15177,8796,6697,10939,9923,14178,12266,8478,11211,13755
EQ Steps,36217,15721,17504,16707,25572,17139,20819,17016,18595,16678
ALL Steps,51394,24517,24201,27646,35495,31317,33085,25494,29806,30433
