Seed,1,2,3,4,5,6,7,8,9,10
Correct M,true,true,true,true,true,true,true,true,true,true
Max Depth,6,6,6,6,6,6,6,6,6,6
Max Tests,6,6,6,6,6,6,6,6,6,6
EQ Queries,4,4,3,4,3,4,4,3,4,5
MQ Tests,164,165,120,164,120,161,165,121,162,207
EQ Tests,13,9,11,14,8,9,9,8,12,16
ALL Tests,177,174,131,178,128,170,174,129,174,223
MQ Steps,1724,775,1602,2551,2353,1853,1085,390,1478,3621
EQ Steps,468,248,350,393,232,281,292,214,307,542
ALL Steps,2192,1023,1952,2944,2585,2134,1377,604,1785,4163
