Seed,1,2,3,4,5,6,7,8,9,10
Correct M,true,true,true,true,true,true,true,true,true,true
Max Depth,2,2,2,2,2,2,2,2,2,2
Max Tests,2,2,2,2,2,2,2,2,2,2
EQ Queries,3,4,3,4,4,3,4,3,4,3
MQ Tests,110,103,95,108,105,109,102,113,105,97
EQ Tests,4,5,4,5,5,4,5,5,5,5
ALL Tests,114,108,99,113,110,113,107,118,110,102
MQ Steps,290,298,253,346,326,288,295,303,325,259
EQ Steps,69,113,75,134,110,109,110,150,116,122
ALL Steps,359,411,328,480,436,397,405,453,441,381
