Seed,1,2,3,4,5,6,7,8,9,10
Correct M,true,true,true,true,true,true,true,true,true,true
Max Depth,255,255,255,255,255,255,255,255,255,255
Max Tests,255,255,255,255,255,255,255,255,255,255
EQ Queries,9,13,14,9,11,12,10,10,13,10
MQ Tests,615,683,681,685,681,674,708,624,679,708
EQ Tests,476,386,341,461,292,287,445,325,303,308
ALL Tests,1091,1069,1022,1146,973,961,1153,949,982,1016
MQ Steps,3279,3878,3619,4104,3684,3458,4335,3417,3388,4205
EQ Steps,22052,17479,14284,21028,13564,12284,19885,14700,13308,13755
ALL Steps,25331,21357,17903,25132,17248,15742,24220,18117,16696,17960
