Seed,1,2,3,4,5,6,7,8,9,10
Correct M,true,true,true,true,true,true,true,true,true,true
Max Depth,7,7,7,7,7,7,7,7,7,7
Max Tests,7,7,7,7,7,7,7,7,7,7
EQ Queries,6,8,8,7,9,7,7,8,7,6
MQ Tests,419,546,581,576,631,469,534,566,480,583
EQ Tests,12,15,14,15,15,14,15,15,13,12
ALL Tests,431,561,595,591,646,483,549,581,493,595
MQ Steps,7755,5610,6109,7455,6601,4577,4675,6506,4845,5321
EQ Steps,335,400,303,350,335,375,401,381,287,336
ALL Steps,8090,6010,6412,7805,6936,4952,5076,6887,5132,5657
