Seed,1,2,3,4,5,6,7,8,9,10
Correct M,true,true,true,true,true,true,true,true,true,true
Max Depth,63,63,63,63,63,63,63,63,63,63
Max Tests,63,63,63,63,63,63,63,63,63,63
EQ Queries,3,5,4,4,5,4,6,5,5,6
MQ Tests,129,160,146,151,118,120,117,138,147,137
EQ Tests,66,101,66,66,179,67,80,81,84,86
ALL Tests,195,261,212,217,297,187,197,219,231,223
MQ Steps,772,1001,1219,1043,721,846,764,755,874,762
EQ Steps,3208,4932,3123,3158,8796,3186,3905,3925,4093,4231
ALL Steps,3980,5933,4342,4201,9517,4032,4669,4680,4967,4993
