Seed,1,2,3,4,5,6,7,8,9,10
Correct M,true,true,true,true,true,true,true,true,true,true
Max Depth,8,8,8,8,8,8,8,8,8,8
Max Tests,8,8,8,8,8,8,8,8,8,8
EQ Queries,2,3,2,3,3,3,3,2,3,2
MQ Tests,42,100,42,92,102,54,85,42,90,42
EQ Tests,9,11,9,10,15,14,11,9,13,9
ALL Tests,51,111,51,102,117,68,96,51,103,51
MQ Steps,273,2188,217,1806,2379,177,1360,385,1617,581
EQ Steps,427,508,419,462,705,603,482,424,602,437
ALL Steps,700,2696,636,2268,3084,780,1842,809,2219,1018
