Seed,1,2,3,4,5,6,7,8,9,10
Correct M,true,true,true,true,true,true,true,true,true,true
Max Depth,257,257,257,257,257,257,257,257,257,257
Max Tests,257,257,257,257,257,257,257,257,257,257
EQ Queries,11,11,10,10,5,7,10,8,11,9
MQ Tests,563,536,535,556,497,544,535,615,625,535
EQ Tests,576,763,371,398,280,301,517,404,432,518
ALL Tests,1139,1299,906,954,777,845,1052,1019,1057,1053
MQ Steps,2490,2405,2504,2519,2270,2461,2399,2598,2728,3167
EQ Steps,4158,5506,2796,3083,1997,2287,3783,2878,3154,3812
ALL Steps,6648,7911,5300,5602,4267,4748,6182,5476,5882,6979
