Seed,1,2,3,4,5,6,7,8,9,10
Correct M,true,true,true,true,true,true,true,true,true,true
Max Depth,362,362,362,362,362,362,362,362,362,362
Max Tests,362,362,362,362,362,362,362,362,362,362
EQ Queries,11,13,11,11,12,11,12,13,11,13
MQ Tests,713,677,683,684,675,679,682,750,682,676
EQ Tests,740,979,592,696,1117,541,695,641,673,770
ALL Tests,1453,1656,1275,1380,1792,1220,1377,1391,1355,1446
MQ Steps,4126,3691,4369,3520,3895,3748,4329,4167,3673,3611
EQ Steps,5758,7395,4787,5631,8765,4333,5685,4956,5477,6195
ALL Steps,9884,11086,9156,9151,12660,8081,10014,9123,9150,9806
78,14334,14457,18113
