Seed,1,2,3,4,5,6,7,8,9,10
Correct M,true,true,true,true,true,true,true,true,true,true
Max Depth,124,124,124,124,124,124,124,124,124,124
Max Tests,124,124,124,124,124,124,124,124,124,124
EQ Queries,6,6,5,6,6,6,6,6,6,5
MQ Tests,268,262,248,271,305,267,305,269,266,266
EQ Tests,134,199,179,197,184,132,228,144,159,164
ALL Tests,402,461,427,468,489,399,533,413,425,430
MQ Steps,995,950,934,1038,1100,983,1112,1023,1005,977
EQ Steps,6539,9040,7945,8942,8258,6672,10628,6474,7234,8114
ALL Steps,7534,9990,8879,9980,9358,7655,11740,7497,8239,9091
