Seed,1,2,3,4,5,6,7,8,9,10
Correct M,true,true,true,true,true,true,true,true,true,true
Max Depth,56,56,56,56,56,56,56,56,56,56
Max Tests,56,56,56,56,56,56,56,56,56,56
EQ Queries,8,9,7,5,9,8,8,7,7,8
MQ Tests,549,549,545,533,557,579,549,569,570,572
EQ Tests,78,77,76,65,119,97,101,66,72,121
ALL Tests,627,626,621,598,676,676,650,635,642,693
MQ Steps,2795,2454,2531,2615,2801,2638,2463,2589,2654,2730
EQ Steps,2340,2257,2230,1945,3493,3107,3082,2000,2022,3705
ALL Steps,5135,4711,4761,4560,6294,5745,5545,4589,4676,6435
