Seed,1,2,3,4,5,6,7,8,9,10
Correct M,true,true,true,true,true,true,true,true,true,true
Max Depth,8,8,8,8,8,8,8,8,8,8
Max Tests,8,8,8,8,8,8,8,8,8,8
EQ Queries,3,3,3,3,3,2,3,2,3,3
MQ Tests,39,44,43,44,41,29,41,29,41,42
EQ Tests,11,10,15,10,16,9,15,9,13,10
ALL Tests,50,54,58,54,57,38,56,38,54,52
MQ Steps,145,264,193,255,174,74,162,73,191,127
EQ Steps,501,498,727,496,773,411,712,417,621,429
ALL Steps,646,762,920,751,947,485,874,490,812,556
