Seed,1,2,3,4,5,6,7,8,9,10
Correct M,true,true,true,true,true,true,true,true,true,true
Max Depth,1,1,1,1,1,1,1,1,1,1
Max Tests,1,1,1,1,1,1,1,1,1,1
EQ Queries,1,1,1,1,1,1,1,1,1,1
MQ Tests,1331,1331,1331,1331,1331,1331,1331,1331,1331,1331
EQ Tests,1,1,1,1,1,1,1,1,1,1
ALL Tests,1332,1332,1332,1332,1332,1332,1332,1332,1332,1332
MQ Steps,5445,5445,5445,5445,5445,5445,5445,5445,5445,5445
EQ Steps,36,52,33,39,36,33,50,53,29,31
ALL Steps,5481,5497,5478,5484,5481,5478,5495,5498,5474,5476
