Seed,1,2,3,4,5,6,7,8,9,10
Correct M,true,true,true,true,true,true,true,true,true,true
Max Depth,199,199,199,199,199,199,199,199,199,199
Max Tests,199,199,199,199,199,199,199,199,199,199
EQ Queries,11,12,11,11,11,12,11,10,10,11
MQ Tests,573,580,579,578,580,547,553,539,586,577
EQ Tests,274,319,256,225,224,230,330,215,360,216
ALL Tests,847,899,835,803,804,777,883,754,946,793
MQ Steps,2716,2795,2701,2654,2706,2627,2757,2510,2644,2732
EQ Steps,13774,16128,12806,11273,11301,11535,16768,10807,18302,10742
ALL Steps,16490,18923,15507,13927,14007,14162,19525,13317,20946,13474
