Seed,1,2,3,4,5,6,7,8,9,10
Correct M,true,true,true,true,true,true,true,true,true,true
Max Depth,21,21,21,21,21,21,21,21,21,21
Max Tests,21,21,21,21,21,21,21,21,21,21
EQ Queries,4,4,4,6,4,3,3,3,4,3
MQ Tests,254,260,257,261,302,255,296,291,259,256
EQ Tests,24,32,29,37,28,28,24,27,48,23
ALL Tests,278,292,286,298,330,283,320,318,307,279
MQ Steps,1433,1572,1476,1537,1793,1787,1694,1591,1537,1777
EQ Steps,785,956,956,1066,768,969,672,779,1257,797
ALL Steps,2218,2528,2432,2603,2561,2756,2366,2370,2794,2574
