Seed,1,2,3,4,5,6,7,8,9,10
Correct M,true,true,true,true,true,true,true,true,true,true
Max Depth,7,7,7,7,7,7,7,7,7,7
Max Tests,7,7,7,7,7,7,7,7,7,7
EQ Queries,3,3,5,5,5,5,4,4,4,6
MQ Tests,579,334,324,418,500,395,239,500,332,418
EQ Tests,11,11,17,12,11,13,14,10,11,17
ALL Tests,590,345,341,430,511,408,253,510,343,435
MQ Steps,16378,7780,5148,5573,9949,5170,1993,8843,5430,6330
EQ Steps,525,534,814,483,467,539,616,426,511,793
ALL Steps,16903,8314,5962,6056,10416,5709,2609,9269,5941,7123
