Seed,1,2,3,4,5,6,7,8,9,10
Correct M,true,true,true,true,true,true,true,true,true,true
Max Depth,7,7,7,7,7,7,7,7,7,7
Max Tests,7,7,7,7,7,7,7,7,7,7
EQ Queries,3,3,3,7,4,3,4,6,9,4
MQ Tests,150,126,138,182,158,154,177,157,203,180
EQ Tests,11,10,9,17,10,10,10,18,19,12
ALL Tests,161,136,147,199,168,164,187,175,222,192
MQ Steps,1325,1041,1071,1311,1071,1276,1096,1139,1186,1302
EQ Steps,529,459,398,736,454,462,441,692,639,512
ALL Steps,1854,1500,1469,2047,1525,1738,1537,1831,1825,1814
