Seed,1,2,3,4,5,6,7,8,9,10
Correct M,true,true,true,true,true,true,true,true,true,true
Max Depth,185,185,185,185,185,185,185,185,185,185
Max Tests,185,185,185,185,185,185,185,185,185,185
EQ Queries,7,11,11,11,12,9,7,12,10,10
MQ Tests,1098,1381,1088,980,1255,952,947,1161,1424,971
EQ Tests,205,209,286,224,206,233,192,227,267,244
ALL Tests,1303,1590,1374,1204,1461,1185,1139,1388,1691,1215
MQ Steps,20068,17686,14739,15075,22064,12819,15782,18528,28983,20415
EQ Steps,9983,10641,13646,11282,10293,10861,10022,9995,13254,11633
ALL Steps,30051,28327,28385,26357,32357,23680,25804,28523,42237,32048
