Seed,1,2,3,4,5,6,7,8,9,10
Correct M,true,true,true,true,true,true,true,true,true,true
Max Depth,23,23,23,23,23,23,23,23,23,23
Max Tests,23,23,23,23,23,23,23,23,23,23
EQ Queries,4,4,5,6,4,4,5,5,5,5
MQ Tests,550,268,427,436,397,258,356,418,424,488
EQ Tests,34,38,37,42,32,32,37,37,51,41
ALL Tests,584,306,464,478,429,290,393,455,475,529
MQ Steps,16753,3356,7523,6080,5350,3558,6437,6002,5529,7690
EQ Steps,1243,1205,932,1247,972,901,1312,948,1599,1076
ALL Steps,17996,4561,8455,7327,6322,4459,7749,6950,7128,8766
