Seed,1,2,3,4,5,6,7,8,9,10
Correct M,true,true,true,true,true,true,true,true,true,true
Max Depth,9,9,9,9,9,9,9,9,9,9
Max Tests,9,9,9,9,9,9,9,9,9,9
EQ Queries,4,4,4,5,4,3,6,5,4,5
MQ Tests,306,308,309,386,309,229,469,388,307,389
EQ Tests,17,24,22,18,18,13,26,23,14,27
ALL Tests,323,332,331,404,327,242,495,411,321,416
MQ Steps,3012,2643,2517,4133,3328,1789,3173,3311,2498,4559
EQ Steps,525,595,625,316,535,387,936,512,370,659
ALL Steps,3537,3238,3142,4449,3863,2176,4109,3823,2868,5218
