Seed,1,2,3,4,5,6,7,8,9,10
Correct M,true,true,true,true,true,true,true,true,true,true
Max Depth,24,24,24,24,24,24,24,24,24,24
Max Tests,24,24,24,24,24,24,24,24,24,24
EQ Queries,8,8,8,8,8,8,8,8,8,7
MQ Tests,469,494,463,513,499,512,468,519,467,466
EQ Tests,37,60,37,32,40,36,51,38,39,37
ALL Tests,506,554,500,545,539,548,519,557,506,503
MQ Steps,2101,2344,2062,2449,2408,2449,2267,2708,2194,2178
EQ Steps,1395,2343,1312,1148,1408,1349,1910,1421,1469,1309
ALL Steps,3496,4687,3374,3597,3816,3798,4177,4129,3663,3487
