Seed,1,2,3,4,5,6,7,8,9,10
Correct M,true,true,true,true,true,true,true,true,true,true
Max Depth,2816,2816,2816,2816,2816,2816,2816,2816,2816,2816
Max Tests,2816,2816,2816,2816,2816,2816,2816,2816,2816,2816
EQ Queries,7,7,6,4,6,5,5,6,5,7
MQ Tests,285,344,286,255,371,273,277,278,290,365
EQ Tests,3478,3886,5758,2961,3062,3067,3759,3200,3479,3951
ALL Tests,3763,4230,6044,3216,3433,3340,4036,3478,3769,4316
MQ Steps,2384,3113,2002,1757,2436,2064,1767,1978,2362,2460
EQ Steps,103295,115561,171685,89305,91827,91811,113535,96487,102792,119345
ALL Steps,105679,118674,173687,91062,94263,93875,115302,98465,105154,121805
