Seed,1,2,3,4,5,6,7,8,9,10
Correct M,true,true,true,true,true,true,true,true,true,true
Max Depth,13431,13431,13431,13431,13431,13431,13431,13431,13431,13431
Max Tests,13431,13431,13431,13431,13431,13431,13431,13431,13431,13431
EQ Queries,6,9,6,8,8,7,9,7,7,8
MQ Tests,933,1397,929,1238,1243,1089,1398,1090,1088,1242
EQ Tests,20405,18380,25136,31300,17558,18532,25553,27251,25059,13625
ALL Tests,21338,19777,26065,32538,18801,19621,26951,28341,26147,14867
MQ Steps,7325,9683,5432,7563,8068,6490,7694,6790,7092,7147
EQ Steps,298463,260993,377236,468977,245803,255692,366780,522904,395006,187980
ALL Steps,305788,270676,382668,476540,253871,262182,374474,529694,402098,195127
