Seed,1,2,3,4,5,6,7,8,9,10
Correct M,true,true,true,true,true,true,true,true,true,true
Max Depth,7914,7914,7914,7914,7914,7914,7914,7914,7914,7914
Max Tests,7914,7914,7914,7914,7914,7914,7914,7914,7914,7914
EQ Queries,10,12,10,11,11,10,11,9,10,10
MQ Tests,717,771,721,671,682,718,724,716,771,713
EQ Tests,14653,10049,9781,10027,10861,14775,16541,8319,10450,9717
ALL Tests,15370,10820,10502,10698,11543,15493,17265,9035,11221,10430
MQ Steps,3508,3539,3343,3072,3189,3383,3516,3401,3465,3317
EQ Steps,458372,309471,303847,311901,337113,456432,507172,251589,325881,302823
ALL Steps,461880,313010,307190,314973,340302,459815,510688,254990,329346,306140
