Seed,1,2,3,4,5,6,7,8,9,10
Correct M,true,true,true,true,true,true,true,true,true,true
Max Depth,2313,2313,2313,2313,2313,2313,2313,2313,2313,2313
Max Tests,2313,2313,2313,2313,2313,2313,2313,2313,2313,2313
EQ Queries,26,28,27,31,26,28,30,25,27,30
MQ Tests,3027,2886,3235,3121,2406,2198,3121,2560,2462,2416
EQ Tests,3501,3458,3534,5092,2905,3154,4056,4794,3979,2711
ALL Tests,6528,6344,6769,8213,5311,5352,7177,7354,6441,5127
MQ Steps,43146,40481,39515,40633,37211,29496,41336,34890,35854,30513
EQ Steps,125823,120472,126195,174735,103553,113076,147060,166072,140651,95355
ALL Steps,168969,160953,165710,215368,140764,142572,188396,200962,176505,125868
