Seed,1,2,3,4,5,6,7,8,9,10
Correct M,true,true,true,true,true,true,true,true,true,true
Max Depth,1528,1528,1528,1528,1528,1528,1528,1528,1528,1528
Max Tests,1528,1528,1528,1528,1528,1528,1528,1528,1528,1528
EQ Queries,7,6,6,6,7,7,7,7,5,6
MQ Tests,878,749,752,748,880,877,880,875,626,750
EQ Tests,2573,1623,2546,1600,1617,1645,1780,2335,3545,1883
ALL Tests,3451,2372,3298,2348,2497,2522,2660,3210,4171,2633
MQ Steps,4990,4019,5550,3634,5407,4206,4138,4324,3629,4547
EQ Steps,80413,48534,78515,50578,49933,48701,56697,69082,109493,58224
ALL Steps,85403,52553,84065,54212,55340,52907,60835,73406,113122,62771
