Seed,1,2,3,4,5,6,7,8,9,10
Correct M,true,true,true,true,true,true,true,true,true,true
Max Depth,395,395,395,395,395,395,395,395,395,395
Max Tests,395,395,395,395,395,395,395,395,395,395
EQ Queries,7,6,9,8,8,8,7,6,7,5
MQ Tests,952,815,1227,1087,1086,1088,949,812,948,680
EQ Tests,415,663,538,448,437,412,443,414,431,411
ALL Tests,1367,1478,1765,1535,1523,1500,1392,1226,1379,1091
MQ Steps,5227,4616,7188,5938,5674,7071,5190,4686,5450,6193
EQ Steps,9081,13703,12452,9998,9579,9068,9611,8730,9537,8895
ALL Steps,14308,18319,19640,15936,15253,16139,14801,13416,14987,15088
