Seed,1,2,3,4,5,6,7,8,9,10
Correct M,true,true,true,true,true,true,true,true,true,true
Max Depth,857,857,857,857,857,857,857,857,857,857
Max Tests,857,857,857,857,857,857,857,857,857,857
EQ Queries,16,13,14,12,16,14,13,8,13,11
MQ Tests,11550,9387,10113,8662,11559,10112,9384,5771,9390,7941
EQ Tests,1593,1441,1430,1301,1325,1515,1007,1477,2123,990
ALL Tests,13143,10828,11543,9963,12884,11627,10391,7248,11513,8931
MQ Steps,135014,145940,207237,145054,171176,132636,137936,75562,127909,123108
EQ Steps,58688,52897,51356,48509,47468,55994,36783,53706,77050,35462
ALL Steps,193702,198837,258593,193563,218644,188630,174719,129268,204959,158570
