Seed,1,2,3,4,5,6,7,8,9,10
Correct M,true,true,true,true,true,true,true,true,true,true
Max Depth,4336,4336,4336,4336,4336,4336,4336,4336,4336,4336
Max Tests,4336,4336,4336,4336,4336,4336,4336,4336,4336,4336
EQ Queries,6,7,5,8,6,7,5,8,6,8
MQ Tests,809,947,670,1082,807,941,670,1080,805,1078
EQ Tests,4837,4551,4401,8770,5982,4478,4385,4703,4506,4750
ALL Tests,5646,5498,5071,9852,6789,5419,5055,5783,5311,5828
MQ Steps,5210,8511,3494,7734,4642,5489,3769,8380,4885,10387
EQ Steps,36074,33858,32799,65134,44452,33543,32747,34609,34059,34832
ALL Steps,41284,42369,36293,72868,49094,39032,36516,42989,38944,45219
