Seed,1,2,3,4,5,6,7,8,9,10
Correct M,true,true,true,true,true,true,true,true,true,true
Max Depth,2942,2942,2942,2942,2942,2942,2942,2942,2942,2942
Max Tests,2942,2942,2942,2942,2942,2942,2942,2942,2942,2942
EQ Queries,2,2,2,2,2,2,2,2,2,2
MQ Tests,5411,6611,3131,6611,4331,5891,5291,4571,4931,3131
EQ Tests,3604,4012,5884,3087,3188,3193,3885,3326,3605,4077
ALL Tests,9015,10623,9015,9698,7519,9084,9176,7897,8536,7208
MQ Steps,89052,140052,25212,145452,53412,108012,84612,60492,72012,25212
EQ Steps,107076,119432,175559,92960,95622,95673,117152,100450,106827,123274
ALL Steps,196128,259484,200771,238412,149034,203685,201764,160942,178839,148486
