Seed,1,2,3,4,5,6,7,8,9,10
Correct M,true,true,true,true,true,true,true,true,true,true
Max Depth,285212672,285212672,285212672,285212672,285212672,285212672,285212672,285212672,285212672,285212672
Max Tests,285212672,285212672,285212672,285212672,285212672,285212672,285212672,285212672,285212672,285212672
EQ Queries,38,28,31,25,29,28,34,25,33,27
MQ Tests,2233,2374,2709,2131,2621,2579,2305,2506,2356,2539
EQ Tests,288609305,296727070,286332688,297039918,566470533,286183891,289267587,288004820,289946687,287598156
ALL Tests,288611538,296729444,286335397,297042049,566473154,286186470,289269892,288007326,289949043,287600695
MQ Steps,30905,29137,33057,27150,33870,31419,30803,34674,31085,31298
EQ Steps,8658392635,8901378912,8589975137,8911360370,16994298352,8585575978,8678142392,8639951520,8698391529,8628036911
ALL Steps,8658423540,8901408049,8590008194,8911387520,16994332222,8585607397,8678173195,8639986194,8698422614,8628068209
