Seed,1,2,3,4,5,6,7,8,9,10
Correct M,true,true,true,true,true,true,true,true,true,true
Max Depth,1676,1676,1676,1676,1676,1676,1676,1676,1676,1676
Max Tests,1676,1676,1676,1676,1676,1676,1676,1676,1676,1676
EQ Queries,3,3,3,3,3,3,3,3,2,3
MQ Tests,3262,4562,4042,4042,4042,3782,3912,3912,2872,4562
EQ Tests,3700,2528,1839,2298,2939,2710,2935,2508,1775,1813
ALL Tests,6962,7090,5881,6340,6981,6492,6847,6420,4647,6375
MQ Steps,19885,37245,31315,29885,27025,25685,25445,24275,18655,34515
EQ Steps,62277,43846,31760,40168,51030,46903,49818,43262,30613,31735
ALL Steps,82162,81091,63075,70053,78055,72588,75263,67537,49268,66250
