Seed,1,2,3,4,5,6,7,8,9,10
Correct M,true,true,true,true,true,true,true,true,true,true
Max Depth,26776,26776,26776,26776,26776,26776,26776,26776,26776,26776
Max Tests,26776,26776,26776,26776,26776,26776,26776,26776,26776,26776
EQ Queries,24,26,26,27,28,25,28,31,26,24
MQ Tests,1669,1878,1934,1936,1655,1980,1712,1762,1763,1854
EQ Tests,68260,40612,57848,65854,52346,55531,38113,68626,39301,50767
ALL Tests,69929,42490,59782,67790,54001,57511,39825,70388,41064,52621
MQ Steps,16463,18929,18563,19363,16584,20349,16296,17152,17400,18611
EQ Steps,726446,433127,616628,703187,558491,592048,408173,725638,419786,540207
ALL Steps,742909,452056,635191,722550,575075,612397,424469,742790,437186,558818
