Seed,1,2,3,4,5,6,7,8,9,10
Correct M,true,true,true,true,true,true,true,true,true,true
Max Depth,9548,9548,9548,9548,9548,9548,9548,9548,9548,9548
Max Tests,9548,9548,9548,9548,9548,9548,9548,9548,9548,9548
EQ Queries,23,25,19,25,28,26,24,25,26,27
MQ Tests,4314,4456,4246,4925,5131,4418,4927,4802,4739,4506
EQ Tests,11111,20310,14449,13314,11100,21705,10955,10354,13545,9971
ALL Tests,15425,24766,18695,18239,16231,26123,15882,15156,18284,14477
MQ Steps,72570,77313,72284,89065,98567,58564,96289,86722,80863,71889
EQ Steps,259675,394003,272767,264101,233626,429642,221942,249302,275358,214671
ALL Steps,332245,471316,345051,353166,332193,488206,318231,336024,356221,286560
