Seed,1,2,3,4,5,6,7,8,9,10
Correct M,true,true,true,true,true,true,true,true,true,true
Max Depth,389223210,389223210,389223210,389223210,389223210,389223210,389223210,389223210,389223210,389223210
Max Tests,389223210,389223210,389223210,389223210,389223210,389223210,389223210,389223210,389223210,389223210
EQ Queries,15,12,15,12,17,17,14,16,18,15
MQ Tests,10841,8674,10841,8671,12287,12286,10114,11561,13009,10843
EQ Tests,778954181,389452038,398187310,389489097,750377348,618868304,489651594,410971410,754313983,493080899
ALL Tests,778965022,389460712,398198151,389497768,750389635,618880590,489661708,410982971,754326992,493091742
MQ Steps,270398,262014,263224,215679,290937,330490,243321,287021,309853,305799
EQ Steps,23368266835,11683103119,11945693702,11684552992,22511495107,18566083219,14689684459,12329000686,22629113622,14792581061
ALL Steps,23368537233,11683365133,11945956926,11684768671,22511786044,18566413709,14689927780,12329287707,22629423475,14792886860
