Seed,1,2,3,4,5,6,7,8,9,10
Correct M,true,true,true,true,true,true,true,true,true,true
Max Depth,5317,5317,5317,5317,5317,5317,5317,5317,5317,5317
Max Tests,5317,5317,5317,5317,5317,5317,5317,5317,5317,5317
EQ Queries,2,2,2,2,2,2,2,2,2,2
MQ Tests,2531,4211,2651,2531,2051,2651,1811,2651,2891,2651
EQ Tests,10635,6485,5823,7220,6450,6039,5761,5513,5414,6643
ALL Tests,13166,10696,8474,9751,8501,8690,7572,8164,8305,9294
MQ Steps,15012,45012,16572,13932,10572,16572,8532,15372,18612,15372
EQ Steps,332503,198218,182338,227888,201016,185755,178295,168124,167948,208783
ALL Steps,347515,243230,198910,241820,211588,202327,186827,183496,186560,224155
