Seed,1,2,3,4,5,6,7,8,9,10
Correct M,true,true,true,true,true,true,true,true,true,true
Max Depth,2815,2815,2815,2815,2815,2815,2815,2815,2815,2815
Max Tests,2815,2815,2815,2815,2815,2815,2815,2815,2815,2815
EQ Queries,6,7,7,5,6,8,5,6,7,4
MQ Tests,525,679,549,451,507,565,527,573,517,601
EQ Tests,3477,3885,5757,2960,3061,4204,3758,3199,3478,3950
ALL Tests,4002,4564,6306,3411,3568,4769,4285,3772,3995,4551
MQ Steps,7050,10636,4619,2531,4381,5449,5098,4781,4657,7669
EQ Steps,103275,115531,171661,89289,91799,125827,113501,96461,102753,119299
ALL Steps,110325,126167,176280,91820,96180,131276,118599,101242,107410,126968
