Seed,1,2,3,4,5,6,7,8,9,10
Correct M,true,true,true,true,true,true,true,true,true,true
Max Depth,1851,1851,1851,1851,1851,1851,1851,1851,1851,1851
Max Tests,1851,1851,1851,1851,1851,1851,1851,1851,1851,1851
EQ Queries,6,6,5,7,8,8,6,5,6,7
MQ Tests,936,941,783,1099,1257,1257,939,781,941,1098
EQ Tests,2626,2282,2229,4219,3101,2504,3627,3508,3555,3038
ALL Tests,3562,3223,3012,5318,4358,3761,4566,4289,4496,4136
MQ Steps,16862,19642,13773,22555,29997,26432,14420,15587,23838,23961
EQ Steps,78397,67863,66183,127649,93052,74768,109526,105879,105233,91977
ALL Steps,95259,87505,79956,150204,123049,101200,123946,121466,129071,115938
