Seed,1,2,3,4,5,6,7,8,9,10
Correct M,true,true,true,true,true,true,true,true,true,true
Max Depth,66,66,66,66,66,66,66,66,66,66
Max Tests,66,66,66,66,66,66,66,66,66,66
EQ Queries,3,3,3,3,3,2,3,3,3,3
MQ Tests,115,114,115,115,115,74,115,114,114,114
EQ Tests,74,75,70,79,133,67,93,80,75,108
ALL Tests,189,189,185,194,248,141,208,194,189,222
MQ Steps,716,527,1121,534,729,298,821,867,1251,617
EQ Steps,2244,2178,2068,2396,3918,2152,2854,2509,2106,3264
ALL Steps,2960,2705,3189,2930,4647,2450,3675,3376,3357,3881
