Seed,1,2,3,4,5,6,7,8,9,10
Correct M,true,true,true,true,true,true,true,true,true,true
Max Depth,641,641,641,641,641,641,641,641,641,641
Max Tests,641,641,641,641,641,641,641,641,641,641
EQ Queries,9,10,9,9,8,8,9,9,10,10
MQ Tests,604,671,670,621,596,617,586,608,742,797
EQ Tests,1211,1258,875,1039,764,1381,875,874,808,1030
ALL Tests,1815,1929,1545,1660,1360,1998,1461,1482,1550,1827
MQ Steps,7069,6878,8315,7077,6286,7872,7316,8028,10193,13241
EQ Steps,37597,38018,26600,32740,23870,41518,28493,26771,25479,31512
ALL Steps,44666,44896,34915,39817,30156,49390,35809,34799,35672,44753
