Seed,1,2,3,4,5,6,7,8,9,10
Correct M,true,true,true,true,true,true,true,true,true,true
Max Depth,770,770,770,770,770,770,770,770,770,770
Max Tests,770,770,770,770,770,770,770,770,770,770
EQ Queries,11,12,10,11,10,10,9,11,8,8
MQ Tests,434,455,478,483,432,448,477,408,504,450
EQ Tests,1054,1861,972,1059,1320,1106,889,1190,964,952
ALL Tests,1488,2316,1450,1542,1752,1554,1366,1598,1468,1402
MQ Steps,3039,2870,3298,3439,3325,3061,3414,2617,3526,2686
EQ Steps,8089,14270,7803,8524,10320,8730,7237,9527,7714,7769
ALL Steps,11128,17140,11101,11963,13645,11791,10651,12144,11240,10455
