Seed,1,2,3,4,5,6,7,8,9,10
Correct M,true,true,true,true,true,true,true,true,true,true
Max Depth,32,32,32,32,32,32,32,32,32,32
Max Tests,32,32,32,32,32,32,32,32,32,32
EQ Queries,9,7,8,10,8,8,6,9,9,8
MQ Tests,685,709,555,654,864,557,585,758,539,651
EQ Tests,65,60,41,59,39,40,39,43,71,62
ALL Tests,750,769,596,713,903,597,624,801,610,713
MQ Steps,7851,7336,5728,5651,10390,4991,8604,7620,4709,6491
EQ Steps,1456,1415,914,1178,957,910,887,915,1759,1575
ALL Steps,9307,8751,6642,6829,11347,5901,9491,8535,6468,8066
