Seed,1,2,3,4,5,6,7,8,9,10
Correct M,true,true,true,true,true,true,true,true,true,true
Max Depth,177,177,177,177,177,177,177,177,177,177
Max Tests,177,177,177,177,177,177,177,177,177,177
EQ Queries,11,11,10,9,11,9,10,10,10,12
MQ Tests,576,583,541,575,574,509,538,508,532,579
EQ Tests,191,192,195,255,351,187,196,242,289,224
ALL Tests,767,775,736,830,925,696,734,750,821,803
MQ Steps,2590,2705,2532,2701,2647,2590,2569,2318,2464,2739
EQ Steps,9494,9608,9838,12938,17717,9376,9753,12155,14598,11262
ALL Steps,12084,12313,12370,15639,20364,11966,12322,14473,17062,14001
