Seed,1,2,3,4,5,6,7,8,9,10
Correct M,true,true,true,true,true,true,true,true,true,true
Max Depth,280,280,280,280,280,280,280,280,280,280
Max Tests,280,280,280,280,280,280,280,280,280,280
EQ Queries,4,7,5,4,5,5,5,5,6,4
MQ Tests,458,804,573,461,570,574,570,575,691,458
EQ Tests,372,502,376,287,347,526,312,579,356,375
ALL Tests,830,1306,949,748,917,1100,882,1154,1047,833
MQ Steps,4645,5973,4698,6173,3267,5286,4066,4565,4390,2815
EQ Steps,2551,3305,2630,2066,2340,3646,2224,3901,2409,2588
ALL Steps,7196,9278,7328,8239,5607,8932,6290,8466,6799,5403
