Seed,1,2,3,4,5,6,7,8,9,10
Correct M,true,true,true,true,true,true,true,true,true,true
Max Depth,8,8,8,8,8,8,8,8,8,8
Max Tests,8,8,8,8,8,8,8,8,8,8
EQ Queries,3,3,3,3,3,2,3,2,3,3
MQ Tests,78,103,92,102,87,42,83,42,54,54
EQ Tests,11,10,15,10,16,9,15,9,13,10
ALL Tests,89,113,107,112,103,51,98,51,67,64
MQ Steps,945,2881,1824,2865,1467,161,1203,133,969,195
EQ Steps,501,498,727,496,773,411,712,417,621,429
ALL Steps,1446,3379,2551,3361,2240,572,1915,550,1590,624
