Seed,1,2,3,4,5,6,7,8,9,10
Correct M,true,true,true,true,true,true,true,true,true,true
Max Depth,66,66,66,66,66,66,66,66,66,66
Max Tests,66,66,66,66,66,66,66,66,66,66
EQ Queries,2,3,2,3,3,2,3,3,3,3
MQ Tests,96,94,66,110,115,66,97,103,100,100
EQ Tests,67,75,67,79,133,67,93,80,75,108
ALL Tests,163,169,133,189,248,133,190,183,175,208
MQ Steps,1094,1057,429,2140,2239,693,1438,1201,1045,1342
EQ Steps,2058,2178,2002,2396,3918,2152,2854,2509,2106,3264
ALL Steps,3152,3235,2431,4536,6157,2845,4292,3710,3151,4606
