Seed,1,2,3,4,5,6,7,8,9,10
Correct M,true,true,true,true,true,true,true,true,true,true
Max Depth,41,41,41,41,41,41,41,41,41,41
Max Tests,41,41,41,41,41,41,41,41,41,41
EQ Queries,7,8,9,9,9,6,9,8,8,7
MQ Tests,469,466,466,512,467,467,464,513,469,503
EQ Tests,75,63,98,100,63,46,61,48,73,71
ALL Tests,544,529,564,612,530,513,525,561,542,574
MQ Steps,2138,2083,1976,2140,2277,2720,2048,2355,2322,2375
EQ Steps,2786,2350,3651,3450,2285,1713,2254,1775,2871,2659
ALL Steps,4924,4433,5627,5590,4562,4433,4302,4130,5193,5034
