Seed,1,2,3,4,5,6,7,8,9,10
Correct M,true,true,true,true,true,true,true,true,true,true
Max Depth,136,136,136,136,136,136,136,136,136,136
Max Tests,136,136,136,136,136,136,136,136,136,136
EQ Queries,6,6,6,6,5,5,6,6,6,6
MQ Tests,272,263,272,271,265,266,273,266,269,271
EQ Tests,169,227,299,283,178,160,168,171,167,236
ALL Tests,441,490,571,554,443,426,441,437,436,507
MQ Steps,1131,957,1165,1112,990,970,1055,996,1059,1110
EQ Steps,5253,6862,9208,8499,6522,4581,5628,4384,4766,7916
ALL Steps,6384,7819,10373,9611,7512,5551,6683,5380,5825,9026
