Seed,1,2,3,4,5,6,7,8,9,10
Correct M,true,true,true,true,true,true,true,true,true,true
Max Depth,11,11,11,11,11,11,11,11,11,11
Max Tests,11,11,11,11,11,11,11,11,11,11
EQ Queries,2,3,2,2,3,3,3,2,3,3
MQ Tests,42,90,42,42,56,88,68,42,85,74
EQ Tests,12,16,12,12,13,20,16,12,13,23
ALL Tests,54,106,54,54,69,108,84,54,98,97
MQ Steps,245,1653,189,301,222,1630,648,329,1324,1059
EQ Steps,430,446,363,334,372,694,465,331,336,797
ALL Steps,675,2099,552,635,594,2324,1113,660,1660,1856
