Seed,1,2,3,4,5,6,7,8,9,10
Correct M,true,true,true,true,true,true,true,true,true,true
Max Depth,426,426,426,426,426,426,426,426,426,426
Max Tests,426,426,426,426,426,426,426,426,426,426
EQ Queries,3,3,3,3,3,3,3,3,3,3
MQ Tests,76,78,77,78,75,76,75,81,76,77
EQ Tests,682,527,467,619,858,522,602,640,461,739
ALL Tests,758,605,544,697,933,598,677,721,537,816
MQ Steps,202,207,204,207,198,202,198,223,200,204
EQ Steps,3875,2957,2742,3689,4909,3067,3607,3662,2754,4262
ALL Steps,4077,3164,2946,3896,5107,3269,3805,3885,2954,4466
