Seed,1,2,3,4,5,6,7,8,9,10
Correct M,true,true,true,true,true,true,true,true,true,true
Max Depth,75,75,75,75,75,75,75,75,75,75
Max Tests,75,75,75,75,75,75,75,75,75,75
EQ Queries,2,2,2,2,2,2,2,2,2,2
MQ Tests,2586,7019,4588,7019,4445,5160,2014,6876,7877,3158
EQ Tests,99,119,80,79,91,80,107,90,92,77
ALL Tests,2685,7138,4668,7098,4536,5240,2121,6966,7969,3235
MQ Steps,20891,162747,60502,150449,56498,77948,11453,150020,192062,31473
EQ Steps,5170,6158,4173,4172,4757,4158,5550,4691,4823,4008
ALL Steps,26061,168905,64675,154621,61255,82106,17003,154711,196885,35481
