Seed,1,2,3,4,5,6,7,8,9,10
Correct M,true,true,true,true,true,true,true,true,true,true
Max Depth,1,1,1,1,1,1,1,1,1,1
Max Tests,1,1,1,1,1,1,1,1,1,1
EQ Queries,1,1,1,1,1,1,1,1,1,1
MQ Tests,1449,1449,1449,1449,1449,1449,1449,1449,1449,1449
EQ Tests,1,1,1,1,1,1,1,1,1,1
ALL Tests,1450,1450,1450,1450,1450,1450,1450,1450,1450,1450
MQ Steps,6345,6345,6345,6345,6345,6345,6345,6345,6345,6345
EQ Steps,54,57,53,52,51,54,53,53,53,52
ALL Steps,6399,6402,6398,6397,6396,6399,6398,6398,6398,6397
