Seed,1,2,3,4,5,6,7,8,9,10
Correct M,true,true,true,true,true,true,true,true,true,true
Max Depth,7,7,7,7,7,7,7,7,7,7
Max Tests,7,7,7,7,7,7,7,7,7,7
EQ Queries,3,2,2,4,2,2,2,2,3,2
MQ Tests,3009,2949,2469,6489,1989,3369,2229,2949,4329,969
EQ Tests,15,8,8,16,8,8,8,9,9,8
ALL Tests,3024,2957,2477,6505,1997,3377,2237,2958,4338,977
MQ Steps,50713,66345,48405,157117,29047,94215,36105,61915,85969,6301
EQ Steps,723,420,421,809,401,419,379,463,437,375
ALL Steps,51436,66765,48826,157926,29448,94634,36484,62378,86406,6676
