Seed,1,2,3,4,5,6,7,8,9,10
Correct M,true,true,true,true,true,true,true,true,true,true
Max Depth,114,114,114,114,114,114,114,114,114,114
Max Tests,114,114,114,114,114,114,114,114,114,114
EQ Queries,11,10,12,9,13,12,7,10,9,8
MQ Tests,644,650,649,623,641,601,607,610,615,643
EQ Tests,232,161,142,130,155,146,179,179,131,156
ALL Tests,876,811,791,753,796,747,786,789,746,799
MQ Steps,3387,3463,3982,3728,4150,3324,3971,3864,3654,3977
EQ Steps,11410,7172,6909,6572,7454,6930,8897,7950,6537,7934
ALL Steps,14797,10635,10891,10300,11604,10254,12868,11814,10191,11911
