Seed,1,2,3,4,5,6,7,8,9,10
Correct M,true,true,true,true,true,true,true,true,true,true
Max Depth,426,426,426,426,426,426,426,426,426,426
Max Tests,426,426,426,426,426,426,426,426,426,426
EQ Queries,2,3,2,3,3,2,2,2,3,2
MQ Tests,66,80,66,82,80,66,66,66,80,66
EQ Tests,429,527,436,619,858,429,434,435,461,445
ALL Tests,495,607,502,701,938,495,500,501,541,511
MQ Steps,165,343,209,325,208,165,165,385,235,209
EQ Steps,2484,2957,2589,3689,4909,2571,2620,2543,2754,2640
ALL Steps,2649,3300,2798,4014,5117,2736,2785,2928,2989,2849
