Seed,1,2,3,4,5,6,7,8,9,10
Correct M,true,true,true,true,true,true,true,true,true,true
Max Depth,8,8,8,8,8,8,8,8,8,8
Max Tests,8,8,8,8,8,8,8,8,8,8
EQ Queries,3,3,3,3,3,3,3,3,3,3
MQ Tests,53,59,58,59,57,56,54,53,55,51
EQ Tests,11,10,15,10,16,16,15,17,13,10
ALL Tests,64,69,73,69,73,72,69,70,68,61
MQ Steps,163,223,194,225,184,182,167,147,185,136
EQ Steps,501,498,727,496,773,787,712,794,621,429
ALL Steps,664,721,921,721,957,969,879,941,806,565
