Seed,1,2,3,4,5,6,7,8,9,10
Correct M,true,true,true,true,true,true,true,true,true,true
Max Depth,69,69,69,69,69,69,69,69,69,69
Max Tests,69,69,69,69,69,69,69,69,69,69
EQ Queries,4,6,5,6,5,5,6,5,5,5
MQ Tests,328,498,416,496,415,413,500,414,412,413
EQ Tests,76,120,106,131,87,113,140,106,101,125
ALL Tests,404,618,522,627,502,526,640,520,513,538
MQ Steps,1621,2326,1964,2452,2240,1983,2233,1948,1703,2152
EQ Steps,3799,5783,4941,6095,4306,5093,6724,4828,5038,5632
ALL Steps,5420,8109,6905,8547,6546,7076,8957,6776,6741,7784
