Seed,1,2,3,4,5,6,7,8,9,10
Correct M,true,true,true,true,true,true,true,true,true,true
Max Depth,264,264,264,264,264,264,264,264,264,264
Max Tests,264,264,264,264,264,264,264,264,264,264
EQ Queries,8,9,10,10,9,10,11,10,10,8
MQ Tests,412,498,453,418,427,392,468,478,401,415
EQ Tests,304,309,437,311,329,317,310,426,566,534
ALL Tests,716,807,890,729,756,709,778,904,967,949
MQ Steps,3086,4242,3350,2892,3534,3461,3877,3129,2929,2827
EQ Steps,9604,9173,13086,9173,10658,8865,10330,12789,17696,16689
ALL Steps,12690,13415,16436,12065,14192,12326,14207,15918,20625,19516
