Seed,1,2,3,4,5,6,7,8,9,10
Correct M,true,true,true,true,true,true,true,true,true,true
Max Depth,691,691,691,691,691,691,691,691,691,691
Max Tests,691,691,691,691,691,691,691,691,691,691
EQ Queries,5,7,7,6,7,6,5,5,5,5
MQ Tests,578,807,811,695,808,693,580,579,581,577
EQ Tests,709,882,925,1081,1010,1428,773,700,709,731
ALL Tests,1287,1689,1736,1776,1818,2121,1353,1279,1290,1308
MQ Steps,2338,4291,4024,3526,4093,6858,3631,2694,3875,3116
EQ Steps,22149,26751,28302,34349,31868,42856,25544,21512,22556,22790
ALL Steps,24487,31042,32326,37875,35961,49714,29175,24206,26431,25906
