Seed,1,2,3,4,5,6,7,8,9,10
Correct M,true,true,true,true,true,true,true,true,true,true
Max Depth,6,6,6,6,6,6,6,6,6,6
Max Tests,6,6,6,6,6,6,6,6,6,6
EQ Queries,4,4,4,4,3,4,4,4,4,5
MQ Tests,262,253,294,256,257,261,295,263,258,257
EQ Tests,11,9,9,11,8,13,13,11,14,17
ALL Tests,273,262,303,267,265,274,308,274,272,274
MQ Steps,1641,1434,1803,1438,1801,1667,1693,1636,1575,1555
EQ Steps,488,380,364,483,341,595,615,505,640,784
ALL Steps,2129,1814,2167,1921,2142,2262,2308,2141,2215,2339
