Seed,1,2,3,4,5,6,7,8,9,10
Correct M,true,true,true,true,true,true,true,true,true,true
Max Depth,68,68,68,68,68,68,68,68,68,68
Max Tests,68,68,68,68,68,68,68,68,68,68
EQ Queries,8,9,7,9,9,8,8,8,8,8
MQ Tests,465,464,496,464,469,462,468,468,461,465
EQ Tests,102,137,75,130,78,77,92,119,126,78
ALL Tests,567,601,571,594,547,539,560,587,587,543
MQ Steps,2167,2077,2272,2264,2212,2041,2297,2033,1980,2067
EQ Steps,2331,3416,2142,2823,1834,2013,2244,2532,2539,1982
ALL Steps,4498,5493,4414,5087,4046,4054,4541,4565,4519,4049
