Seed,1,2,3,4,5,6,7,8,9,10
Correct M,true,true,true,true,true,true,true,true,true,true
Max Depth,24,24,24,24,24,24,24,24,24,24
Max Tests,24,24,24,24,24,24,24,24,24,24
EQ Queries,3,3,3,3,3,3,3,3,3,3
MQ Tests,123,102,91,130,85,123,124,126,102,119
EQ Tests,26,29,30,26,36,34,28,34,43,26
ALL Tests,149,131,121,156,121,157,152,160,145,145
MQ Steps,3200,1175,1360,3172,589,3416,2842,2723,1472,2455
EQ Steps,1325,1442,1510,1332,1808,1765,1430,1730,2193,1321
ALL Steps,4525,2617,2870,4504,2397,5181,4272,4453,3665,3776
