Seed,1,2,3,4,5,6,7,8,9,10
Correct M,true,true,true,true,true,true,true,true,true,true
Max Depth,71,71,71,71,71,71,71,71,71,71
Max Tests,71,71,71,71,71,71,71,71,71,71
EQ Queries,10,8,8,7,4,4,6,7,8,10
MQ Tests,663,640,621,495,341,419,637,565,726,642
EQ Tests,105,96,128,90,86,81,92,114,153,171
ALL Tests,768,736,749,585,427,500,729,679,879,813
MQ Steps,8882,8543,9255,5633,3786,8616,15440,8837,12743,8547
EQ Steps,2876,2559,3254,2755,3217,2571,3044,2987,4429,5586
ALL Steps,11758,11102,12509,8388,7003,11187,18484,11824,17172,14133
