Seed,1,2,3,4,5,6,7,8,9,10
Correct M,true,true,true,true,true,true,true,true,true,true
Max Depth,180,180,180,180,180,180,180,180,180,180
Max Tests,180,180,180,180,180,180,180,180,180,180
EQ Queries,3,3,3,3,3,3,3,3,3,3
MQ Tests,52,52,52,55,51,51,49,52,52,52
EQ Tests,363,214,202,287,238,241,291,274,226,188
ALL Tests,415,266,254,342,289,292,340,326,278,240
MQ Steps,140,140,140,160,136,136,131,140,147,142
EQ Steps,2042,1218,1162,1667,1248,1491,1692,1501,1272,1049
ALL Steps,2182,1358,1302,1827,1384,1627,1823,1641,1419,1191
