Seed,1,2,3,4,5,6,7,8,9,10
Correct M,true,true,true,true,true,true,true,true,true,true
Max Depth,29,29,29,29,29,29,29,29,29,29
Max Tests,29,29,29,29,29,29,29,29,29,29
EQ Queries,2,3,3,3,3,3,2,2,3,3
MQ Tests,66,96,91,91,135,195,66,66,98,94
EQ Tests,32,41,38,46,60,38,31,33,38,52
ALL Tests,98,137,129,137,195,233,97,99,136,146
MQ Steps,253,878,901,712,3560,10436,561,473,1108,1300
EQ Steps,1246,1323,1052,1627,2278,1235,1232,904,1210,1491
ALL Steps,1499,2201,1953,2339,5838,11671,1793,1377,2318,2791
