Seed,1,2,3,4,5,6,7,8,9,10
Correct M,true,true,true,true,true,true,true,true,true,true
Max Depth,1,1,1,1,1,1,1,1,1,1
Max Tests,1,1,1,1,1,1,1,1,1,1
EQ Queries,1,1,1,1,1,1,1,1,1,1
MQ Tests,175,175,175,175,175,175,175,175,175,175
EQ Tests,1,1,1,1,1,1,1,1,1,1
ALL Tests,176,176,176,176,176,176,176,176,176,176
MQ Steps,490,490,490,490,490,490,490,490,490,490
EQ Steps,33,40,38,26,23,31,28,16,13,21
ALL Steps,523,530,528,516,513,521,518,506,503,511
