Seed,1,2,3,4,5,6,7,8,9,10
Correct M,true,true,true,true,true,true,true,true,true,true
Max Depth,128,128,128,128,128,128,128,128,128,128
Max Tests,128,128,128,128,128,128,128,128,128,128
EQ Queries,4,4,4,4,4,4,4,4,4,4
MQ Tests,318,320,265,321,300,288,306,344,225,306
EQ Tests,151,131,156,146,136,147,162,131,235,211
ALL Tests,469,451,421,467,436,435,468,475,460,517
MQ Steps,6342,8133,7019,6755,3542,4358,4449,7702,2729,4765
EQ Steps,7000,6193,7257,6716,6237,6556,7897,6072,10798,9590
ALL Steps,13342,14326,14276,13471,9779,10914,12346,13774,13527,14355
