Seed,1,2,3,4,5,6,7,8,9,10
Correct M,true,true,true,true,true,true,true,true,true,true
Max Depth,1,1,1,1,1,1,1,1,1,1
Max Tests,1,1,1,1,1,1,1,1,1,1
EQ Queries,1,1,1,1,1,1,1,1,1,1
MQ Tests,1215,1215,1215,1215,1215,1215,1215,1215,1215,1215
EQ Tests,2,2,2,2,2,2,2,2,2,2
ALL Tests,1217,1217,1217,1217,1217,1217,1217,1217,1217,1217
MQ Steps,4500,4500,4500,4500,4500,4500,4500,4500,4500,4500
EQ Steps,5,4,92,5,10,7,26,10,64,34
ALL Steps,4505,4504,4592,4505,4510,4507,4526,4510,4564,4534
