Seed,1,2,3,4,5,6,7,8,9,10
Correct M,true,true,true,true,true,true,true,true,true,true
Max Depth,24,24,24,24,24,24,24,24,24,24
Max Tests,24,24,24,24,24,24,24,24,24,24
EQ Queries,3,3,4,3,4,4,5,5,4,4
MQ Tests,154,151,128,150,254,204,149,145,258,124
EQ Tests,35,41,37,43,34,41,32,60,54,39
ALL Tests,189,192,165,193,288,245,181,205,312,163
MQ Steps,927,727,644,751,1179,990,805,693,1207,551
EQ Steps,1248,1276,1020,1592,1113,1350,967,1250,1658,1161
ALL Steps,2175,2003,1664,2343,2292,2340,1772,1943,2865,1712
