Seed,1,2,3,4,5,6,7,8,9,10
Correct M,true,true,true,true,true,true,true,true,true,true
Max Depth,72,72,72,72,72,72,72,72,72,72
Max Tests,72,72,72,72,72,72,72,72,72,72
EQ Queries,5,3,3,3,5,3,4,3,3,3
MQ Tests,206,211,153,153,155,208,253,153,153,269
EQ Tests,100,80,136,144,102,77,147,84,81,85
ALL Tests,306,291,289,297,257,285,400,237,234,354
MQ Steps,1155,995,784,1026,952,1137,1319,1223,988,1174
EQ Steps,2928,2379,3928,4287,3001,2493,4503,2597,2288,2525
ALL Steps,4083,3374,4712,5313,3953,3630,5822,3820,3276,3699
