Seed,1,2,3,4,5,6,7,8,9,10
Correct M,true,true,true,true,true,true,true,true,true,true
Max Depth,74,74,74,74,74,74,74,74,74,74
Max Tests,74,74,74,74,74,74,74,74,74,74
EQ Queries,3,4,4,3,4,4,4,4,3,4
MQ Tests,234,317,322,236,316,315,317,317,237,318
EQ Tests,91,141,130,153,129,145,102,188,99,105
ALL Tests,325,458,452,389,445,460,419,505,336,423
MQ Steps,874,1987,6180,1764,2206,1648,2063,1735,1367,2623
EQ Steps,561,808,754,1037,704,895,646,1025,609,612
ALL Steps,1435,2795,6934,2801,2910,2543,2709,2760,1976,3235
