Seed,1,2,3,4,5,6,7,8,9,10
Correct M,true,true,true,true,true,true,true,true,true,true
Max Depth,64,64,64,64,64,64,64,64,64,64
Max Tests,64,64,64,64,64,64,64,64,64,64
EQ Queries,5,5,4,5,4,4,4,5,5,4
MQ Tests,453,451,358,448,359,357,358,453,445,358
EQ Tests,85,113,74,102,90,67,119,86,129,70
ALL Tests,538,564,432,550,449,424,477,539,574,428
MQ Steps,1871,1923,1410,1902,1453,1472,1468,1977,1711,1422
EQ Steps,4323,5638,3756,5045,4592,3439,5870,4305,6456,3552
ALL Steps,6194,7561,5166,6947,6045,4911,7338,6282,8167,4974
