Seed,1,2,3,4,5,6,7,8,9,10
Correct M,true,true,true,true,true,true,true,true,true,true
Max Depth,244,244,244,244,244,244,244,244,244,244
Max Tests,244,244,244,244,244,244,244,244,244,244
EQ Queries,4,4,3,4,4,4,4,4,5,5
MQ Tests,360,361,269,361,359,360,361,360,452,451
EQ Tests,330,277,248,284,296,578,315,299,396,330
ALL Tests,690,638,517,645,655,938,676,659,848,781
MQ Steps,5767,4780,4577,4974,2650,7893,2383,3795,8434,6296
EQ Steps,10044,8163,7417,8744,8808,17283,9459,9099,11246,10080
ALL Steps,15811,12943,11994,13718,11458,25176,11842,12894,19680,16376
