Seed,1,2,3,4,5,6,7,8,9,10
Correct M,true,true,true,true,true,true,true,true,true,true
Max Depth,4,4,4,4,4,4,4,4,4,4
Max Tests,4,4,4,4,4,4,4,4,4,4
EQ Queries,3,3,3,3,3,3,3,4,3,3
MQ Tests,180,183,175,185,166,201,181,197,190,165
EQ Tests,8,6,7,6,6,7,6,7,6,6
ALL Tests,188,189,182,191,172,208,187,204,196,171
MQ Steps,3471,4308,2541,2436,1020,3691,2466,2222,4527,1045
EQ Steps,327,270,285,245,225,293,244,242,275,218
ALL Steps,3798,4578,2826,2681,1245,3984,2710,2464,4802,1263
