Seed,1,2,3,4,5,6,7,8,9,10
Correct M,true,true,true,true,true,true,true,true,true,true
Max Depth,244,244,244,244,244,244,244,244,244,244
Max Tests,244,244,244,244,244,244,244,244,244,244
EQ Queries,5,4,4,4,4,4,4,4,5,4
MQ Tests,151,176,176,172,175,175,173,174,223,176
EQ Tests,330,277,407,284,296,578,315,299,396,330
ALL Tests,481,453,583,456,471,753,488,473,619,506
MQ Steps,1037,984,973,973,820,1091,862,937,1470,916
EQ Steps,10044,8163,12446,8744,8808,17283,9459,9099,11246,10080
ALL Steps,11081,9147,13419,9717,9628,18374,10321,10036,12716,10996
