Seed,1,2,3,4,5,6,7,8,9,10
Correct M,true,true,true,true,true,true,true,true,true,true
Max Depth,33,33,33,33,33,33,33,33,33,33
Max Tests,33,33,33,33,33,33,33,33,33,33
EQ Queries,2,3,3,3,3,3,3,3,3,3
MQ Tests,120,185,185,184,184,183,183,184,184,183
EQ Tests,34,66,37,60,45,67,55,45,35,40
ALL Tests,154,251,222,244,229,250,238,229,219,223
MQ Steps,1919,2217,3093,2424,1506,3785,1053,3249,2283,1865
EQ Steps,1102,1913,1168,1765,1302,2152,1772,1356,1012,1260
ALL Steps,3021,4130,4261,4189,2808,5937,2825,4605,3295,3125
