Seed,1,2,3,4,5,6,7,8,9,10
Correct M,true,true,true,true,true,true,true,true,true,true
Max Depth,200,200,200,200,200,200,200,200,200,200
Max Tests,200,200,200,200,200,200,200,200,200,200
EQ Queries,4,4,4,4,4,4,4,4,4,4
MQ Tests,287,286,288,284,286,287,287,283,286,285
EQ Tests,334,233,242,217,236,368,223,327,342,416
ALL Tests,621,519,530,501,522,655,510,610,628,701
MQ Steps,1219,1217,1204,1236,1212,1169,1267,1143,1170,1181
EQ Steps,10700,6919,7469,6717,8515,10604,7514,9716,10349,13314
ALL Steps,11919,8136,8673,7953,9727,11773,8781,10859,11519,14495
