Seed,1,2,3,4,5,6,7,8,9,10
Correct M,true,true,true,true,true,true,true,true,true,true
Max Depth,1,1,1,1,1,1,1,1,1,1
Max Tests,1,1,1,1,1,1,1,1,1,1
EQ Queries,1,1,1,1,1,1,1,1,1,1
MQ Tests,1274,1274,1274,1274,1274,1274,1274,1274,1274,1274
EQ Tests,2,2,2,2,2,2,2,2,2,2
ALL Tests,1276,1276,1276,1276,1276,1276,1276,1276,1276,1276
MQ Steps,4970,4970,4970,4970,4970,4970,4970,4970,4970,4970
EQ Steps,5,4,92,5,10,7,26,10,64,34
ALL Steps,4975,4974,5062,4975,4980,4977,4996,4980,5034,5004
