Seed,1,2,3,4,5,6,7,8,9,10
Correct M,true,true,true,true,true,true,true,true,true,true
Max Depth,200,200,200,200,200,200,200,200,200,200
Max Tests,200,200,200,200,200,200,200,200,200,200
EQ Queries,4,5,5,4,4,4,5,4,5,4
MQ Tests,404,408,563,395,393,356,400,257,396,376
EQ Tests,214,233,242,217,236,365,241,216,342,416
ALL Tests,618,641,805,612,629,721,641,473,738,792
MQ Steps,13904,9733,16996,10618,10892,14014,10276,4035,9408,8584
EQ Steps,6443,6919,7469,6717,8515,10602,7810,5834,10349,13314
ALL Steps,20347,16652,24465,17335,19407,24616,18086,9869,19757,21898
