Seed,1,2,3,4,5,6,7,8,9,10
Correct M,true,true,true,true,true,true,true,true,true,true
Max Depth,200,200,200,200,200,200,200,200,200,200
Max Tests,200,200,200,200,200,200,200,200,200,200
EQ Queries,4,5,5,4,4,4,4,4,5,4
MQ Tests,361,451,452,358,359,362,362,354,452,359
EQ Tests,214,233,242,217,236,365,226,205,342,416
ALL Tests,575,684,694,575,595,727,588,559,794,775
MQ Steps,1501,1854,1872,1496,1527,1630,1680,1412,1854,1564
EQ Steps,6443,6919,7469,6717,8515,10602,7516,5632,10349,13314
ALL Steps,7944,8773,9341,8213,10042,12232,9196,7044,12203,14878
