Seed,1,2,3,4,5,6,7,8,9,10
Correct M,true,true,true,true,true,true,true,true,true,true
Max Depth,1,1,1,1,1,1,1,1,1,1
Max Tests,1,1,1,1,1,1,1,1,1,1
EQ Queries,3,3,3,3,4,3,3,4,3,4
MQ Tests,101,102,131,131,181,135,101,189,104,159
EQ Tests,3,3,3,3,4,3,3,4,3,4
ALL Tests,104,105,134,134,185,138,104,193,107,163
MQ Steps,464,455,1495,1525,2000,1817,464,2541,629,1140
EQ Steps,62,60,71,77,92,77,64,104,64,80
ALL Steps,526,515,1566,1602,2092,1894,528,2645,693,1220
