Seed,1,2,3,4,5,6,7,8,9,10
Correct M,true,true,true,true,true,true,true,true,true,true
Max Depth,1,1,1,1,1,1,1,1,1,1
Max Tests,1,1,1,1,1,1,1,1,1,1
EQ Queries,1,1,1,1,1,1,1,1,1,1
MQ Tests,450,450,450,450,450,450,450,450,450,450
EQ Tests,1,1,1,1,1,1,1,1,1,1
ALL Tests,451,451,451,451,451,451,451,451,451,451
MQ Steps,1510,1510,1510,1510,1510,1510,1510,1510,1510,1510
EQ Steps,54,53,53,55,52,51,56,57,53,54
ALL Steps,1564,1563,1563,1565,1562,1561,1566,1567,1563,1564
