Seed,1,2,3,4,5,6,7,8,9,10
Correct M,true,true,true,true,true,true,true,true,true,true
Max Depth,4,4,4,4,4,4,4,4,4,4
Max Tests,4,4,4,4,4,4,4,4,4,4
EQ Queries,4,4,4,4,4,4,4,4,4,4
MQ Tests,141,140,144,142,145,142,143,141,142,139
EQ Tests,10,13,9,12,9,9,10,9,9,12
ALL Tests,151,153,153,154,154,151,153,150,151,151
MQ Steps,518,474,545,585,585,531,546,498,533,491
EQ Steps,258,121,160,207,200,156,243,95,165,196
ALL Steps,776,595,705,792,785,687,789,593,698,687
