Seed,1,2,3,4,5,6,7,8,9,10
Correct M,true,true,true,true,true,true,true,true,true,true
Max Depth,5944,5944,5944,5944,5944,5944,5944,5944,5944,5944
Max Tests,5944,5944,5944,5944,5944,5944,5944,5944,5944,5944
EQ Queries,12,12,14,11,14,14,12,12,11,9
MQ Tests,1569,1566,1075,1417,1073,1222,1421,1272,1566,1595
EQ Tests,7039,7293,13407,6573,16561,12524,6826,6683,6426,6238
ALL Tests,8608,8859,14482,7990,17634,13746,8247,7955,7992,7833
MQ Steps,7475,7457,5126,6600,5127,5566,7065,6227,7450,7647
EQ Steps,218759,223465,417815,206255,510948,385992,211030,203231,199738,196485
ALL Steps,226234,230922,422941,212855,516075,391558,218095,209458,207188,204132
