Seed,1,2,3,4,5,6,7,8,9,10
Correct M,true,true,true,true,true,true,true,true,true,true
Max Depth,1,1,1,1,1,1,1,1,1,1
Max Tests,1,1,1,1,1,1,1,1,1,1
EQ Queries,1,1,1,1,1,1,1,1,1,1
MQ Tests,10250,10250,10250,10250,10250,10250,10250,10250,10250,10250
EQ Tests,1,1,1,1,1,1,1,1,1,1
ALL Tests,10251,10251,10251,10251,10251,10251,10251,10251,10251,10251
MQ Steps,35550,35550,35550,35550,35550,35550,35550,35550,35550,35550
EQ Steps,3,5,4,6,3,8,8,4,10,4
ALL Steps,35553,35555,35554,35556,35553,35558,35558,35554,35560,35554
