Seed,1,2,3,4,5,6,7,8,9,10
Correct M,true,true,true,true,true,true,true,true,true,true
Max Depth,1,1,1,1,1,1,1,1,1,1
Max Tests,1,1,1,1,1,1,1,1,1,1
EQ Queries,1,1,1,1,1,1,1,1,1,1
MQ Tests,4927,4927,4927,4927,4927,4927,4927,4927,4927,4927
EQ Tests,1,1,1,1,1,1,1,1,1,1
ALL Tests,4928,4928,4928,4928,4928,4928,4928,4928,4928,4928
MQ Steps,23504,23504,23504,23504,23504,23504,23504,23504,23504,23504
EQ Steps,37,32,35,35,29,35,31,50,26,51
ALL Steps,23541,23536,23539,23539,23533,23539,23535,23554,23530,23555
