Seed,1,2,3,4,5,6,7,8,9,10
Correct M,true,true,true,true,true,true,true,true,true,true
Max Depth,1801,1801,1801,1801,1801,1801,1801,1801,1801,1801
Max Tests,1801,1801,1801,1801,1801,1801,1801,1801,1801,1801
EQ Queries,5,7,5,7,7,6,6,7,6,9
MQ Tests,447,431,391,447,421,443,412,490,467,312
EQ Tests,1955,3476,3031,2579,2071,3101,2752,2036,2158,3892
ALL Tests,2402,3907,3422,3026,2492,3544,3164,2526,2625,4204
MQ Steps,3105,2797,2594,3379,2703,3084,2689,3086,2771,2217
EQ Steps,58817,103194,90270,77558,62217,92921,83286,61132,63613,117621
ALL Steps,61922,105991,92864,80937,64920,96005,85975,64218,66384,119838
