Seed,1,2,3,4,5,6,7,8,9,10
Correct M,true,true,true,true,true,true,true,true,true,true
Max Depth,1,1,1,1,1,1,1,1,1,1
Max Tests,1,1,1,1,1,1,1,1,1,1
EQ Queries,1,1,1,1,1,1,1,1,1,1
MQ Tests,125,125,125,125,125,125,125,125,125,125
EQ Tests,1,1,1,1,1,1,1,1,1,1
ALL Tests,126,126,126,126,126,126,126,126,126,126
MQ Steps,405,405,405,405,405,405,405,405,405,405
EQ Steps,52,51,51,50,53,54,51,55,52,55
ALL Steps,457,456,456,455,458,459,456,460,457,460
