Seed,1,2,3,4,5,6,7,8,9,10
Correct M,true,true,true,true,true,true,true,true,true,true
Max Depth,10,10,10,10,10,10,10,10,10,10
Max Tests,10,10,10,10,10,10,10,10,10,10
EQ Queries,2,2,2,2,2,2,2,2,2,2
MQ Tests,97,95,95,97,95,95,98,95,95,98
EQ Tests,13,20,13,12,13,11,12,12,11,14
ALL Tests,110,115,108,109,108,106,110,107,106,112
MQ Steps,231,226,226,231,226,226,235,226,226,235
EQ Steps,81,78,51,88,48,49,85,56,45,61
ALL Steps,312,304,277,319,274,275,320,282,271,296
