Seed,1,2,3,4,5,6,7,8,9,10
Correct M,true,true,true,true,true,true,true,true,true,true
Max Depth,302,302,302,302,302,302,302,302,302,302
Max Tests,302,302,302,302,302,302,302,302,302,302
EQ Queries,11,9,10,7,10,9,8,6,9,8
MQ Tests,534,508,526,403,502,501,459,435,409,395
EQ Tests,351,407,341,388,461,311,313,308,448,492
ALL Tests,885,915,867,791,963,812,772,743,857,887
MQ Steps,2917,2830,2804,2299,2720,2769,2225,2223,2064,2037
EQ Steps,7144,8072,6351,7664,8973,8972,8905,8997,8757,9092
ALL Steps,10061,10902,9155,9963,11693,11741,11130,11220,10821,11129
