Seed,1,2,3,4,5,6,7,8,9,10
Correct M,true,true,true,true,true,true,true,true,true,true
Max Depth,1091,1091,1091,1091,1091,1091,1091,1091,1091,1091
Max Tests,1091,1091,1091,1091,1091,1091,1091,1091,1091,1091
EQ Queries,9,8,6,8,10,10,9,8,9,8
MQ Tests,1413,1280,1445,1422,1426,1562,1277,1268,1269,1422
EQ Tests,1828,1232,1210,1366,1625,2043,1981,2514,1598,1566
ALL Tests,3241,2512,2655,2788,3051,3605,3258,3782,2867,2988
MQ Steps,6599,6305,6946,6651,6662,7438,6232,6192,6200,7081
EQ Steps,55017,37219,36152,41250,49146,60987,60012,75703,46909,47178
ALL Steps,61616,43524,43098,47901,55808,68425,66244,81895,53109,54259
