Seed,1,2,3,4,5,6,7,8,9,10
Correct M,true,true,true,true,true,true,true,true,true,true
Max Depth,388,388,388,388,388,388,388,388,388,388
Max Tests,388,388,388,388,388,388,388,388,388,388
EQ Queries,11,7,7,10,9,7,11,11,10,10
MQ Tests,1561,1336,1426,1706,1532,1315,1648,1703,1550,1417
EQ Tests,505,429,397,616,399,404,488,568,427,410
ALL Tests,2066,1765,1823,2322,1931,1719,2136,2271,1977,1827
MQ Steps,8823,7423,7648,9265,8758,6770,9184,9556,8633,7190
EQ Steps,9384,8440,7667,11727,7603,8129,9840,10507,8292,8125
ALL Steps,18207,15863,15315,20992,16361,14899,19024,20063,16925,15315
