Seed,1,2,3,4,5,6,7,8,9,10
Correct M,true,true,true,true,true,true,true,true,true,true
Max Depth,1,1,1,1,1,1,1,1,1,1
Max Tests,1,1,1,1,1,1,1,1,1,1
EQ Queries,1,1,1,1,1,1,1,1,1,1
MQ Tests,41309,41309,41309,41309,41309,41309,41309,41309,41309,41309
EQ Tests,1,1,1,1,1,1,1,1,1,1
ALL Tests,41310,41310,41310,41310,41310,41310,41310,41310,41310,41310
MQ Steps,143925,143925,143925,143925,143925,143925,143925,143925,143925,143925
EQ Steps,52,53,50,54,54,55,53,56,50,53
ALL Steps,143977,143978,143975,143979,143979,143980,143978,143981,143975,143978
