Seed,1,2,3,4,5,6,7,8,9,10
Correct M,true,true,true,true,true,true,true,true,true,true
Max Depth,1,1,1,1,1,1,1,1,1,1
Max Tests,1,1,1,1,1,1,1,1,1,1
EQ Queries,1,1,1,1,1,1,1,1,1,1
MQ Tests,27306,27306,27306,27306,27306,27306,27306,27306,27306,27306
EQ Tests,1,1,1,1,1,1,1,1,1,1
ALL Tests,27307,27307,27307,27307,27307,27307,27307,27307,27307,27307
MQ Steps,95038,95038,95038,95038,95038,95038,95038,95038,95038,95038
EQ Steps,33,40,38,26,23,31,28,16,13,21
ALL Steps,95071,95078,95076,95064,95061,95069,95066,95054,95051,95059
