Seed,1,2,3,4,5,6,7,8,9,10
Correct M,true,true,true,true,true,true,true,true,true,true
Max Depth,10,10,10,10,10,10,10,10,10,10
Max Tests,10,10,10,10,10,10,10,10,10,10
EQ Queries,2,2,2,2,2,2,2,2,2,2
MQ Tests,38,38,35,38,36,36,40,37,38,36
EQ Tests,13,20,13,12,13,11,12,12,11,14
ALL Tests,51,58,48,50,49,47,52,49,49,50
MQ Steps,108,102,88,98,90,95,137,93,102,96
EQ Steps,81,78,51,88,48,49,85,56,45,61
ALL Steps,189,180,139,186,138,144,222,149,147,157
