Seed,1,2,3,4,5,6,7,8,9,10
Correct M,true,true,true,true,true,true,true,true,true,true
Max Depth,1,1,1,1,1,1,1,1,1,1
Max Tests,1,1,1,1,1,1,1,1,1,1
EQ Queries,1,1,1,1,1,1,1,1,1,1
MQ Tests,19683,19683,19683,19683,19683,19683,19683,19683,19683,19683
EQ Tests,1,1,1,1,1,1,1,1,1,1
ALL Tests,19684,19684,19684,19684,19684,19684,19684,19684,19684,19684
MQ Steps,57537,57537,57537,57537,57537,57537,57537,57537,57537,57537
EQ Steps,54,55,55,55,54,54,53,55,54,54
ALL Steps,57591,57592,57592,57592,57591,57591,57590,57592,57591,57591
