Seed,1,2,3,4,5,6,7,8,9,10
Correct M,true,true,true,true,true,true,true,true,true,true
Max Depth,12,12,12,12,12,12,12,12,12,12
Max Tests,12,12,12,12,12,12,12,12,12,12
EQ Queries,3,2,3,3,4,4,4,4,4,3
MQ Tests,357,358,357,357,353,358,358,357,353,359
EQ Tests,15,13,16,23,27,21,15,19,29,15
ALL Tests,372,371,373,380,380,379,373,376,382,374
MQ Steps,1332,1370,1262,1255,1214,1282,1364,1289,1256,1308
EQ Steps,514,354,469,676,747,738,422,553,801,522
ALL Steps,1846,1724,1731,1931,1961,2020,1786,1842,2057,1830
