Seed,1,2,3,4,5,6,7,8,9,10
Correct M,true,true,true,true,true,true,true,true,true,true
Max Depth,329,329,329,329,329,329,329,329,329,329
Max Tests,329,329,329,329,329,329,329,329,329,329
EQ Queries,3,3,3,3,3,3,3,3,3,3
MQ Tests,496,525,520,527,518,512,518,523,517,517
EQ Tests,399,447,381,661,380,469,426,402,615,489
ALL Tests,895,972,901,1188,898,981,944,925,1132,1006
MQ Steps,1609,2519,2586,2687,2669,1818,2349,2223,2301,2262
EQ Steps,2380,2698,2458,4159,2330,2884,2724,2409,3701,2942
ALL Steps,3989,5217,5044,6846,4999,4702,5073,4632,6002,5204
