Seed,1,2,3,4,5,6,7,8,9,10
Correct M,true,true,true,true,true,true,true,true,true,true
Max Depth,47,47,47,47,47,47,47,47,47,47
Max Tests,47,47,47,47,47,47,47,47,47,47
EQ Queries,2,3,3,3,3,3,3,3,2,3
MQ Tests,68,81,100,71,88,74,90,77,71,77
EQ Tests,50,67,70,51,96,53,57,85,48,52
ALL Tests,118,148,170,122,184,127,147,162,119,129
MQ Steps,231,468,879,300,747,291,860,335,284,329
EQ Steps,336,368,464,305,553,313,360,456,306,306
ALL Steps,567,836,1343,605,1300,604,1220,791,590,635
