Seed,1,2,3,4,5,6,7,8,9,10
Correct M,true,true,true,true,true,true,true,true,true,true
Max Depth,278,278,278,278,278,278,278,278,278,278
Max Tests,278,278,278,278,278,278,278,278,278,278
EQ Queries,3,3,4,3,4,3,3,4,4,4
MQ Tests,1677,1365,1683,1216,1673,1729,1680,1701,1671,1682
EQ Tests,281,299,437,281,296,283,398,568,349,374
ALL Tests,1958,1664,2120,1497,1969,2012,2078,2269,2020,2056
MQ Steps,28397,14372,26737,17418,26735,37680,23885,32458,25550,26279
EQ Steps,8409,8885,13348,8687,8808,8399,11890,16851,9878,11366
ALL Steps,36806,23257,40085,26105,35543,46079,35775,49309,35428,37645
