Seed,1,2,3,4,5,6,7,8,9,10
Correct M,true,true,true,true,true,true,true,true,true,true
Max Depth,2,2,2,2,2,2,2,2,2,2
Max Tests,2,2,2,2,2,2,2,2,2,2
EQ Queries,2,2,2,2,2,2,2,2,2,2
MQ Tests,10000,9997,10000,9998,10000,10000,9999,10000,9999,10001
EQ Tests,4,3,4,4,4,3,3,3,3,3
ALL Tests,10004,10000,10004,10002,10004,10003,10002,10003,10002,10004
MQ Steps,24922,24891,24922,24896,24922,24914,24901,24921,24905,24939
EQ Steps,193,114,192,167,195,132,120,140,127,156
ALL Steps,25115,25005,25114,25063,25117,25046,25021,25061,25032,25095
