Seed,1,2,3,4,5,6,7,8,9,10
Correct M,true,true,true,true,true,true,true,true,true,true
Max Depth,20,20,20,20,20,20,20,20,20,20
Max Tests,20,20,20,20,20,20,20,20,20,20
EQ Queries,4,4,4,4,4,4,4,4,4,4
MQ Tests,1424,1423,1403,1403,1443,1387,1425,1405,1388,1454
EQ Tests,23,23,24,30,37,24,26,25,32,24
ALL Tests,1447,1446,1427,1433,1480,1411,1451,1430,1420,1478
MQ Steps,40593,40404,21603,23503,38921,18540,40422,24718,17482,32861
EQ Steps,1146,1158,1149,1447,1740,1157,1266,1201,1521,1160
ALL Steps,41739,41562,22752,24950,40661,19697,41688,25919,19003,34021
