Seed,1,2,3,4,5,6,7,8,9,10
Correct M,true,true,true,true,true,true,true,true,true,true
Max Depth,11814,11814,11814,11814,11814,11814,11814,11814,11814,11814
Max Tests,11814,11814,11814,11814,11814,11814,11814,11814,11814,11814
EQ Queries,15,15,20,15,14,15,15,15,15,14
MQ Tests,3475,3476,2952,3478,3017,3478,3480,3021,3472,3938
EQ Tests,17945,16924,12959,17715,17326,16212,18417,16327,20734,25033
ALL Tests,21420,20400,15911,21193,20343,19690,21897,19348,24206,28971
MQ Steps,17520,17532,13442,17539,14872,17572,17545,14898,17492,18804
EQ Steps,240953,240687,188095,263207,254413,233791,261433,223737,303947,344155
ALL Steps,258473,258219,201537,280746,269285,251363,278978,238635,321439,362959
