Seed,1,2,3,4,5,6,7,8,9,10
Correct M,true,true,true,true,true,true,true,true,true,true
Max Depth,179,179,179,179,179,179,179,179,179,179
Max Tests,179,179,179,179,179,179,179,179,179,179
EQ Queries,7,7,9,8,8,7,9,7,8,6
MQ Tests,208,270,365,302,298,230,322,285,314,275
EQ Tests,649,274,331,412,429,266,294,378,247,402
ALL Tests,857,544,696,714,727,496,616,663,561,677
MQ Steps,1201,1391,2024,1626,1536,1278,1699,1532,1676,1644
EQ Steps,4696,1961,2529,3248,2921,2051,2159,2769,1870,2679
ALL Steps,5897,3352,4553,4874,4457,3329,3858,4301,3546,4323
