Seed,1,2,3,4,5,6,7,8,9,10
Correct M,true,true,true,true,true,true,true,true,true,true
Max Depth,5046,5046,5046,5046,5046,5046,5046,5046,5046,5046
Max Tests,5046,5046,5046,5046,5046,5046,5046,5046,5046,5046
EQ Queries,12,14,12,14,13,12,14,14,13,15
MQ Tests,3922,3920,3913,3924,3468,3461,3921,3459,3927,3917
EQ Tests,11763,12394,12689,11557,14061,11187,9687,12940,7225,15859
ALL Tests,15685,16314,16602,15481,17529,14648,13608,16399,11152,19776
MQ Steps,18700,18694,18658,18728,17463,17433,18699,17411,18747,18668
EQ Steps,93697,97530,100273,91559,110134,88237,75755,102096,57411,124225
ALL Steps,112397,116224,118931,110287,127597,105670,94454,119507,76158,142893
