Seed,1,2,3,4,5,6,7,8,9,10
Correct M,true,true,true,true,true,true,true,true,true,true
Max Depth,14788,14788,14788,14788,14788,14788,14788,14788,14788,14788
Max Tests,14788,14788,14788,14788,14788,14788,14788,14788,14788,14788
EQ Queries,17,17,17,17,17,17,17,17,17,17
MQ Tests,5345,5345,6104,5342,5338,4591,4591,4588,5346,5341
EQ Tests,28562,35464,32431,22744,34800,38854,19642,39500,31474,24584
ALL Tests,33907,40809,38535,28086,40138,43445,24233,44088,36820,29925
MQ Steps,27068,24769,29154,27070,27034,22713,22700,22685,27078,27019
EQ Steps,350511,438357,405699,284007,413251,459378,240752,479529,401304,309809
ALL Steps,377579,463126,434853,311077,440285,482091,263452,502214,428382,336828
