Seed,1,2,3,4,5,6,7,8,9,10
Correct M,true,true,true,true,true,true,true,true,true,true
Max Depth,1,1,1,1,1,1,1,1,1,1
Max Tests,1,1,1,1,1,1,1,1,1,1
EQ Queries,2,4,4,4,4,3,3,4,3,4
MQ Tests,142,291,291,292,291,217,216,293,217,292
EQ Tests,2,4,4,4,4,3,3,4,3,4
ALL Tests,144,295,295,296,295,220,219,297,220,296
MQ Steps,565,1889,1177,1694,1139,1485,1121,2005,1780,1118
EQ Steps,59,92,87,96,104,80,80,91,85,90
ALL Steps,624,1981,1264,1790,1243,1565,1201,2096,1865,1208
