Seed,1,2,3,4,5,6,7,8,9,10
Correct M,true,true,true,true,true,true,true,true,true,true
Max Depth,1,1,1,1,1,1,1,1,1,1
Max Tests,1,1,1,1,1,1,1,1,1,1
EQ Queries,1,1,1,1,1,1,1,1,1,1
MQ Tests,54872,54872,54872,54872,54872,54872,54872,54872,54872,54872
EQ Tests,1,1,1,1,1,1,1,1,1,1
ALL Tests,54873,54873,54873,54873,54873,54873,54873,54873,54873,54873
MQ Steps,161652,161652,161652,161652,161652,161652,161652,161652,161652,161652
EQ Steps,55,52,55,55,54,54,55,55,55,55
ALL Steps,161707,161704,161707,161707,161706,161706,161707,161707,161707,161707
