Seed,1,2,3,4,5,6,7,8,9,10
Correct M,true,true,true,true,true,true,true,true,true,true
Max Depth,1,1,1,1,1,1,1,1,1,1
Max Tests,1,1,1,1,1,1,1,1,1,1
EQ Queries,2,2,2,2,2,2,2,2,2,2
MQ Tests,220,220,220,220,220,220,220,220,220,220
EQ Tests,2,2,2,2,2,2,2,2,2,2
ALL Tests,222,222,222,222,222,222,222,222,222,222
MQ Steps,7260,1716,4092,2706,10824,7260,5280,1716,2904,2706
EQ Steps,87,59,71,60,103,84,75,59,62,61
ALL Steps,7347,1775,4163,2766,10927,7344,5355,1775,2966,2767
