Seed,1,2,3,4,5,6,7,8,9,10
Correct M,true,true,true,true,true,true,true,true,true,true
Max Depth,1,1,1,1,1,1,1,1,1,1
Max Tests,1,1,1,1,1,1,1,1,1,1
EQ Queries,1,1,1,1,1,1,1,1,1,1
MQ Tests,216,216,216,216,216,216,216,216,216,216
EQ Tests,2,2,2,2,2,2,2,2,2,2
ALL Tests,218,218,218,218,218,218,218,218,218,218
MQ Steps,564,564,564,564,564,564,564,564,564,564
EQ Steps,5,4,92,5,10,7,26,10,64,34
ALL Steps,569,568,656,569,574,571,590,574,628,598
