Seed,1,2,3,4,5,6,7,8,9,10
Correct M,true,true,true,true,true,true,true,true,true,true
Max Depth,38,38,38,38,38,38,38,38,38,38
Max Tests,38,38,38,38,38,38,38,38,38,38
EQ Queries,4,3,2,3,3,3,3,4,4,3
MQ Tests,677,676,675,677,677,677,672,676,674,675
EQ Tests,49,43,39,78,40,45,44,82,55,40
ALL Tests,726,719,714,755,717,722,716,758,729,715
MQ Steps,2474,2343,2327,2370,2369,2347,2316,2420,2312,2331
EQ Steps,1515,1289,1207,2351,1136,1497,1422,2544,1465,1260
ALL Steps,3989,3632,3534,4721,3505,3844,3738,4964,3777,3591
