Seed,1,2,3,4,5,6,7,8,9,10
Correct M,true,true,true,true,true,true,true,true,true,true
Max Depth,8,8,8,8,8,8,8,8,8,8
Max Tests,8,8,8,8,8,8,8,8,8,8
EQ Queries,4,3,3,2,2,3,3,3,2,2
MQ Tests,98,72,69,45,47,71,74,72,45,46
EQ Tests,16,17,12,10,10,11,18,16,9,12
ALL Tests,114,89,81,55,57,82,92,88,54,58
MQ Steps,426,316,230,152,192,256,385,345,243,158
EQ Steps,106,85,61,85,55,52,118,77,39,54
ALL Steps,532,401,291,237,247,308,503,422,282,212
