Seed,1,2,3,4,5,6,7,8,9,10
Correct M,true,true,true,true,true,true,true,true,true,true
Max Depth,1,1,1,1,1,1,1,1,1,1
Max Tests,1,1,1,1,1,1,1,1,1,1
EQ Queries,1,1,1,1,1,1,1,1,1,1
MQ Tests,25967,25967,25967,25967,25967,25967,25967,25967,25967,25967
EQ Tests,1,1,1,1,1,1,1,1,1,1
ALL Tests,25968,25968,25968,25968,25968,25968,25968,25968,25968,25968
MQ Steps,126454,126454,126454,126454,126454,126454,126454,126454,126454,126454
EQ Steps,3,5,4,5,6,7,7,6,12,7
ALL Steps,126457,126459,126458,126459,126460,126461,126461,126460,126466,126461
