Seed,1,2,3,4,5,6,7,8,9,10
Correct M,true,true,true,true,true,true,true,true,true,true
Max Depth,5,5,5,5,5,5,5,5,5,5
Max Tests,5,5,5,5,5,5,5,5,5,5
EQ Queries,2,2,2,2,2,2,2,2,2,2
MQ Tests,733,729,732,731,733,730,731,731,731,731
EQ Tests,11,10,7,8,10,8,7,7,7,7
ALL Tests,744,739,739,739,743,738,738,738,738,738
MQ Steps,2165,2106,2133,2117,2171,2116,2120,2120,2117,2124
EQ Steps,421,119,140,279,202,172,241,98,180,99
ALL Steps,2586,2225,2273,2396,2373,2288,2361,2218,2297,2223
