Seed,1,2,3,4,5,6,7,8,9,10
Correct M,true,true,true,true,true,true,true,true,true,true
Max Depth,4,4,4,4,4,4,4,4,4,4
Max Tests,4,4,4,4,4,4,4,4,4,4
EQ Queries,2,2,2,2,2,2,2,2,2,2
MQ Tests,1448,1446,1444,1449,1449,1448,1449,1448,1448,1448
EQ Tests,6,6,5,5,5,5,7,5,6,5
ALL Tests,1454,1452,1449,1454,1454,1453,1456,1453,1454,1453
MQ Steps,4271,4230,4218,4316,4319,4305,4320,4286,4270,4292
EQ Steps,298,278,221,267,271,261,374,252,294,255
ALL Steps,4569,4508,4439,4583,4590,4566,4694,4538,4564,4547
