Seed,1,2,3,4,5,6,7,8,9,10
Correct M,true,true,true,true,true,true,true,true,true,true
Max Depth,3826,3826,3826,3826,3826,3826,3826,3826,3826,3826
Max Tests,3826,3826,3826,3826,3826,3826,3826,3826,3826,3826
EQ Queries,16,17,11,14,11,11,11,11,11,13
MQ Tests,1774,1809,2034,2101,2122,2029,2156,2060,2014,2055
EQ Tests,7648,10172,7309,9476,8795,7504,7808,6894,6575,6757
ALL Tests,9422,11981,9343,11577,10917,9533,9964,8954,8589,8812
MQ Steps,8816,10852,11550,10461,10999,10344,13285,12351,9636,10993
EQ Steps,59130,79358,56644,74647,68995,59262,61299,53848,52185,53146
ALL Steps,67946,90210,68194,85108,79994,69606,74584,66199,61821,64139
