Seed,1,2,3,4,5,6,7,8,9,10
Correct M,true,true,true,true,true,true,true,true,true,true
Max Depth,1023,1023,1023,1023,1023,1023,1023,1023,1023,1023
Max Tests,1023,1023,1023,1023,1023,1023,1023,1023,1023,1023
EQ Queries,9,8,7,6,6,7,9,7,8,7
MQ Tests,1697,1876,1664,1673,1611,1723,1850,1676,1895,1510
EQ Tests,1530,1583,1201,1576,1571,1291,2526,1610,1382,1479
ALL Tests,3227,3459,2865,3249,3182,3014,4376,3286,3277,2989
MQ Steps,9106,10281,9161,8792,9390,9541,10400,8815,9809,8082
EQ Steps,11306,11497,9208,11750,11763,9766,19945,11872,10323,11394
ALL Steps,20412,21778,18369,20542,21153,19307,30345,20687,20132,19476
