Seed,1,2,3,4,5,6,7,8,9,10
Correct M,true,true,true,true,true,true,true,true,true,true
Max Depth,1,1,1,1,1,1,1,1,1,1
Max Tests,1,1,1,1,1,1,1,1,1,1
EQ Queries,1,1,1,1,1,1,1,1,1,1
MQ Tests,60146,60146,60146,60146,60146,60146,60146,60146,60146,60146
EQ Tests,1,1,1,1,1,1,1,1,1,1
ALL Tests,60147,60147,60147,60147,60147,60147,60147,60147,60147,60147
MQ Steps,209718,209718,209718,209718,209718,209718,209718,209718,209718,209718
EQ Steps,54,53,51,56,54,50,53,54,50,55
ALL Steps,209772,209771,209769,209774,209772,209768,209771,209772,209768,209773
