Seed,1,2,3,4,5,6,7,8,9,10
Correct M,true,true,true,true,true,true,true,true,true,true
Max Depth,41,41,41,41,41,41,41,41,41,41
Max Tests,41,41,41,41,41,41,41,41,41,41
EQ Queries,2,3,3,3,3,3,3,3,3,3
MQ Tests,528,796,798,795,796,797,797,796,796,797
EQ Tests,42,76,83,76,48,63,43,53,49,48
ALL Tests,570,872,881,871,844,860,840,849,845,845
MQ Steps,4266,9234,9832,8937,8948,13525,11926,6306,15846,11383
EQ Steps,1361,2224,2398,2300,1403,2019,1372,1571,1291,1492
ALL Steps,5627,11458,12230,11237,10351,15544,13298,7877,17137,12875
