Seed,1,2,3,4,5,6,7,8,9,10
Correct M,true,true,true,true,true,true,true,true,true,true
Max Depth,4,4,4,4,4,4,4,4,4,4
Max Tests,4,4,4,4,4,4,4,4,4,4
EQ Queries,2,2,2,2,2,2,2,2,2,2
MQ Tests,220,220,220,220,220,220,220,220,220,220
EQ Tests,9,9,6,7,6,7,6,6,6,6
ALL Tests,229,229,226,227,226,227,226,226,226,226
MQ Steps,2310,3102,1518,3300,1320,1518,1716,2706,5874,2310
EQ Steps,242,117,129,272,121,159,221,93,163,42
ALL Steps,2552,3219,1647,3572,1441,1677,1937,2799,6037,2352
