Seed,1,2,3,4,5,6,7,8,9,10
Correct M,true,true,true,true,true,true,true,true,true,true
Max Depth,90,90,90,90,90,90,90,90,90,90
Max Tests,90,90,90,90,90,90,90,90,90,90
EQ Queries,3,3,3,3,2,3,3,3,3,3
MQ Tests,517,544,559,558,416,518,531,538,528,528
EQ Tests,96,181,110,92,92,95,96,148,114,96
ALL Tests,613,725,669,650,508,613,627,686,642,624
MQ Steps,2016,4875,7027,9139,1651,2004,4445,4433,3817,3800
EQ Steps,2792,5291,3157,2744,2706,3043,2955,4436,3223,2896
ALL Steps,4808,10166,10184,11883,4357,5047,7400,8869,7040,6696
