Seed,1,2,3,4,5,6,7,8,9,10
Correct M,true,true,true,true,true,true,true,true,true,true
Max Depth,12,12,12,12,12,12,12,12,12,12
Max Tests,12,12,12,12,12,12,12,12,12,12
EQ Queries,2,2,2,2,2,2,2,2,2,2
MQ Tests,224,225,227,226,227,225,225,225,224,226
EQ Tests,20,16,19,15,14,16,13,24,18,17
ALL Tests,244,241,246,241,241,241,238,249,242,243
MQ Steps,645,1101,669,996,1242,763,763,650,645,885
EQ Steps,104,69,79,97,72,96,96,84,63,75
ALL Steps,749,1170,748,1093,1314,859,859,734,708,960
