Seed,1,2,3,4,5,6,7,8,9,10
Correct M,true,true,true,true,true,true,true,true,true,true
Max Depth,65,65,65,65,65,65,65,65,65,65
Max Tests,65,65,65,65,65,65,65,65,65,65
EQ Queries,2,2,2,2,2,2,2,2,2,2
MQ Tests,4357,4358,4358,4358,4358,4358,4359,4357,4357,4358
EQ Tests,73,75,96,68,95,66,74,130,106,70
ALL Tests,4430,4433,4454,4426,4453,4424,4433,4487,4463,4428
MQ Steps,12873,12882,12880,12888,12880,12880,12887,12876,12874,12888
EQ Steps,390,395,507,358,450,359,414,580,519,367
ALL Steps,13263,13277,13387,13246,13330,13239,13301,13456,13393,13255
