Seed,1,2,3,4,5,6,7,8,9,10
Correct M,true,true,true,true,true,true,true,true,true,true
Max Depth,49,49,49,49,49,49,49,49,49,49
Max Tests,49,49,49,49,49,49,49,49,49,49
EQ Queries,2,2,2,2,2,2,2,2,2,2
MQ Tests,326,326,324,325,324,325,328,324,327,326
EQ Tests,52,59,52,51,61,50,51,98,50,54
ALL Tests,378,385,376,376,385,375,379,422,377,380
MQ Steps,936,930,918,923,918,925,965,918,932,936
EQ Steps,303,280,302,295,298,269,289,400,278,287
ALL Steps,1239,1210,1220,1218,1216,1194,1254,1318,1210,1223
