Seed,1,2,3,4,5,6,7,8,9,10
Correct M,true,true,true,true,true,true,true,true,true,true
Max Depth,16,16,16,16,16,16,16,16,16,16
Max Tests,16,16,16,16,16,16,16,16,16,16
EQ Queries,2,2,3,2,3,3,3,3,3,2
MQ Tests,216,216,329,216,328,329,328,327,326,215
EQ Tests,17,17,20,17,31,25,19,23,33,17
ALL Tests,233,233,349,233,359,354,347,350,359,232
MQ Steps,1663,917,5833,1754,3265,2232,4157,3677,2153,1415
EQ Steps,578,488,643,462,858,873,548,651,934,592
ALL Steps,2241,1405,6476,2216,4123,3105,4705,4328,3087,2007
