Seed,1,2,3,4,5,6,7,8,9,10
Correct M,true,true,true,true,true,true,true,true,true,true
Max Depth,90,90,90,90,90,90,90,90,90,90
Max Tests,90,90,90,90,90,90,90,90,90,90
EQ Queries,4,4,4,4,4,4,4,4,4,4
MQ Tests,1350,1345,1344,1349,1348,1349,1351,1350,1352,1352
EQ Tests,191,127,103,108,171,129,124,107,121,152
ALL Tests,1541,1472,1447,1457,1519,1478,1475,1457,1473,1504
MQ Steps,4726,4661,4596,4663,4617,4868,4872,4778,4752,5064
EQ Steps,6058,3626,2590,3284,6443,3987,4252,2843,3483,5076
ALL Steps,10784,8287,7186,7947,11060,8855,9124,7621,8235,10140
