Seed,1,2,3,4,5,6,7,8,9,10
Correct M,true,true,true,true,true,true,true,true,true,true
Max Depth,11,11,11,11,11,11,11,11,11,11
Max Tests,11,11,11,11,11,11,11,11,11,11
EQ Queries,4,3,4,4,3,3,4,3,3,4
MQ Tests,615,460,615,612,458,459,615,459,458,613
EQ Tests,20,23,23,20,16,20,19,25,14,16
ALL Tests,635,483,638,632,474,479,634,484,472,629
MQ Steps,5968,3603,3910,3375,3905,11394,9981,5306,2843,3708
EQ Steps,724,706,560,377,432,619,478,620,464,500
ALL Steps,6692,4309,4470,3752,4337,12013,10459,5926,3307,4208
