Seed,1,2,3,4,5,6,7,8,9,10
Correct M,true,true,true,true,true,true,true,true,true,true
Max Depth,1,1,1,1,1,1,1,1,1,1
Max Tests,1,1,1,1,1,1,1,1,1,1
EQ Queries,1,1,1,1,1,1,1,1,1,1
MQ Tests,450,450,450,450,450,450,450,450,450,450
EQ Tests,1,1,1,1,1,1,1,1,1,1
ALL Tests,451,451,451,451,451,451,451,451,451,451
MQ Steps,1510,1510,1510,1510,1510,1510,1510,1510,1510,1510
EQ Steps,33,40,38,26,23,31,28,16,13,21
ALL Steps,1543,1550,1548,1536,1533,1541,1538,1526,1523,1531
