Seed,1,2,3,4,5,6,7,8,9,10
Correct M,true,true,true,true,true,true,true,true,true,true
Max Depth,7,7,7,7,7,7,7,7,7,7
Max Tests,7,7,7,7,7,7,7,7,7,7
EQ Queries,2,2,2,2,2,2,2,2,2,2
MQ Tests,4361,4360,4361,4361,4360,4360,4360,4361,4361,4361
EQ Tests,10,9,8,9,8,8,14,9,11,10
ALL Tests,4371,4369,4369,4370,4368,4368,4374,4370,4372,4371
MQ Steps,13008,12937,12957,12978,12953,13017,12944,12972,12966,13075
EQ Steps,333,248,253,258,232,237,396,234,292,374
ALL Steps,13341,13185,13210,13236,13185,13254,13340,13206,13258,13449
