Seed,1,2,3,4,5,6,7,8,9,10
Correct M,true,true,true,true,true,true,true,true,true,true
Max Depth,9,9,9,9,9,9,9,9,9,9
Max Tests,9,9,9,9,9,9,9,9,9,9
EQ Queries,3,3,3,3,4,3,2,4,3,3
MQ Tests,216,219,218,217,292,217,142,293,216,218
EQ Tests,14,14,14,13,15,13,11,19,13,20
ALL Tests,230,233,232,230,307,230,153,312,229,238
MQ Steps,1261,1380,1873,1147,1621,1071,564,2446,1074,1552
EQ Steps,523,300,442,369,410,362,358,495,272,530
ALL Steps,1784,1680,2315,1516,2031,1433,922,2941,1346,2082
