Seed,1,2,3,4,5,6,7,8,9,10
Correct M,true,true,true,true,true,true,true,true,true,true
Max Depth,4,4,4,4,4,4,4,4,4,4
Max Tests,4,4,4,4,4,4,4,4,4,4
EQ Queries,2,2,2,2,2,2,2,2,2,2
MQ Tests,1412,1412,1412,1412,1412,1411,1412,1412,1412,1412
EQ Tests,5,5,6,6,8,5,5,7,6,6
ALL Tests,1417,1417,1418,1418,1420,1416,1417,1419,1418,1418
MQ Steps,6346,16233,10568,11995,14106,23973,6333,19769,12013,8460
EQ Steps,143,175,193,177,232,141,181,186,173,195
ALL Steps,6489,16408,10761,12172,14338,24114,6514,19955,12186,8655
