Seed,1,2,3,4,5,6,7,8,9,10
Correct M,true,true,true,true,true,true,true,true,true,true
Max Depth,6,6,6,6,6,6,6,6,6,6
Max Tests,6,6,6,6,6,6,6,6,6,6
EQ Queries,2,2,2,2,2,2,2,2,2,2
MQ Tests,20611,20613,20612,20613,20613,20612,20612,20612,20612,20609
EQ Tests,7,7,8,7,7,8,8,9,7,11
ALL Tests,20618,20620,20620,20620,20620,20620,20620,20621,20619,20620
MQ Steps,51338,51395,51351,51396,51416,51354,51370,51367,51344,51313
EQ Steps,346,372,401,372,381,405,415,461,346,537
ALL Steps,51684,51767,51752,51768,51797,51759,51785,51828,51690,51850
