Seed,1,2,3,4,5,6,7,8,9,10
Correct M,true,true,true,true,true,true,true,true,true,true
Max Depth,1,1,1,1,1,1,1,1,1,1
Max Tests,1,1,1,1,1,1,1,1,1,1
EQ Queries,1,1,1,1,1,1,1,1,1,1
MQ Tests,125,125,125,125,125,125,125,125,125,125
EQ Tests,2,2,2,2,2,2,2,2,2,2
ALL Tests,127,127,127,127,127,127,127,127,127,127
MQ Steps,405,405,405,405,405,405,405,405,405,405
EQ Steps,5,4,92,5,10,7,26,10,64,34
ALL Steps,410,409,497,410,415,412,431,415,469,439
