Seed,1,2,3,4,5,6,7,8,9,10
Correct M,true,true,true,true,true,true,true,true,true,true
Max Depth,1,1,1,1,1,1,1,1,1,1
Max Tests,1,1,1,1,1,1,1,1,1,1
EQ Queries,1,1,1,1,1,1,1,1,1,1
MQ Tests,450,450,450,450,450,450,450,450,450,450
EQ Tests,2,2,2,2,2,2,2,2,2,2
ALL Tests,452,452,452,452,452,452,452,452,452,452
MQ Steps,1510,1510,1510,1510,1510,1510,1510,1510,1510,1510
EQ Steps,5,4,92,5,10,7,26,10,64,34
ALL Steps,1515,1514,1602,1515,1520,1517,1536,1520,1574,1544
