Seed,1,2,3,4,5,6,7,8,9,10
Correct M,true,true,true,true,true,true,true,true,true,true
Max Depth,44,44,44,44,44,44,44,44,44,44
Max Tests,44,44,44,44,44,44,44,44,44,44
EQ Queries,4,5,4,4,4,5,5,3,4,4
MQ Tests,700,878,699,703,701,880,878,522,699,700
EQ Tests,47,50,51,53,47,49,53,46,48,53
ALL Tests,747,928,750,756,748,929,931,568,747,753
MQ Steps,4008,4007,3309,4072,3150,4025,4001,2648,3311,3333
EQ Steps,917,951,917,1057,843,937,1027,786,824,1112
ALL Steps,4925,4958,4226,5129,3993,4962,5028,3434,4135,4445
