Seed,1,2,3,4,5,6,7,8,9,10
Correct M,true,true,true,true,true,true,true,true,true,true
Max Depth,16,16,16,16,16,16,16,16,16,16
Max Tests,16,16,16,16,16,16,16,16,16,16
EQ Queries,5,5,5,5,4,5,5,4,4,5
MQ Tests,298,295,300,300,236,299,298,239,237,296
EQ Tests,29,25,21,32,20,25,21,19,19,20
ALL Tests,327,320,321,332,256,324,319,258,256,316
MQ Steps,1298,1333,1430,1604,1059,1426,1411,1122,1080,1341
EQ Steps,778,552,409,600,399,593,497,362,316,456
ALL Steps,2076,1885,1839,2204,1458,2019,1908,1484,1396,1797
