Seed,1,2,3,4,5,6,7,8,9,10
Correct M,true,true,true,true,true,true,true,true,true,true
Max Depth,276,276,276,276,276,276,276,276,276,276
Max Tests,276,276,276,276,276,276,276,276,276,276
EQ Queries,9,7,9,8,8,8,7,7,9,7
MQ Tests,553,590,693,732,615,590,559,542,768,580
EQ Tests,778,552,482,579,476,492,445,558,756,690
ALL Tests,1331,1142,1175,1311,1091,1082,1004,1100,1524,1270
MQ Steps,3242,3150,3482,3861,3252,3352,3067,2839,3903,2997
EQ Steps,5603,3966,3426,4362,3420,3501,3305,4191,5487,5199
ALL Steps,8845,7116,6908,8223,6672,6853,6372,7030,9390,8196
