Seed,1,2,3,4,5,6,7,8,9,10
Correct M,true,true,true,true,true,true,true,true,true,true
Max Depth,64,64,64,64,64,64,64,64,64,64
Max Tests,64,64,64,64,64,64,64,64,64,64
EQ Queries,8,10,8,8,9,9,8,10,8,10
MQ Tests,154,177,160,169,179,169,142,213,151,178
EQ Tests,88,78,102,88,91,72,104,86,109,130
ALL Tests,242,255,262,257,270,241,246,299,260,308
MQ Steps,798,988,825,855,1027,953,811,1177,749,1008
EQ Steps,2140,1829,2474,2049,2156,1751,2462,2117,2583,3080
ALL Steps,2938,2817,3299,2904,3183,2704,3273,3294,3332,4088
