Seed,1,2,3,4,5,6,7,8,9,10
Correct M,true,true,true,true,true,true,true,true,true,true
Max Depth,64,64,64,64,64,64,64,64,64,64
Max Tests,64,64,64,64,64,64,64,64,64,64
EQ Queries,6,5,4,5,4,5,4,5,6,4
MQ Tests,3600,2997,2399,2997,2395,2994,2395,3000,3597,2397
EQ Tests,82,85,69,73,71,81,67,72,119,73
ALL Tests,3682,3082,2468,3070,2466,3075,2462,3072,3716,2470
MQ Steps,19959,15211,15299,17002,11664,15794,12859,15850,18133,13467
EQ Steps,1896,1874,1580,1755,1808,1829,1560,1616,2190,1734
ALL Steps,21855,17085,16879,18757,13472,17623,14419,17466,20323,15201
