Seed,1,2,3,4,5,6,7,8,9,10
Correct M,true,true,true,true,true,true,true,true,true,true
Max Depth,912,912,912,912,912,912,912,912,912,912
Max Tests,912,912,912,912,912,912,912,912,912,912
EQ Queries,8,7,9,7,8,8,6,8,8,8
MQ Tests,1016,854,941,1017,1028,797,939,1018,940,934
EQ Tests,1543,1000,1119,1505,1129,3550,980,1033,1295,1118
ALL Tests,2559,1854,2060,2522,2157,4347,1919,2051,2235,2052
MQ Steps,4834,4152,4401,4850,4925,3567,4388,4848,4641,4609
EQ Steps,46555,30016,33515,45347,33864,106367,29738,30643,38016,33538
ALL Steps,51389,34168,37916,50197,38789,109934,34126,35491,42657,38147
