Seed,1,2,3,4,5,6,7,8,9,10
Correct M,true,true,true,true,true,true,true,true,true,true
Max Depth,1,1,1,1,1,1,1,1,1,1
Max Tests,1,1,1,1,1,1,1,1,1,1
EQ Queries,2,2,2,2,3,2,2,3,2,2
MQ Tests,76,78,96,71,87,55,77,81,73,71
EQ Tests,2,2,2,2,3,2,2,3,2,2
ALL Tests,78,80,98,73,90,57,79,84,75,73
MQ Steps,355,413,1031,312,900,306,349,498,292,280
EQ Steps,53,59,58,62,89,45,71,83,56,56
ALL Steps,408,472,1089,374,989,351,420,581,348,336
