Seed,1,2,3,4,5,6,7,8,9,10
Correct M,true,true,true,true,true,true,true,true,true,true
Max Depth,2,2,2,2,2,2,2,2,2,2
Max Tests,2,2,2,2,2,2,2,2,2,2
EQ Queries,4,3,4,3,3,4,4,4,3,3
MQ Tests,1059,793,1062,791,793,1063,1063,1059,794,796
EQ Tests,6,4,5,4,4,5,6,6,4,4
ALL Tests,1065,797,1067,795,797,1068,1069,1065,798,800
MQ Steps,4275,5156,6935,3554,6219,5117,4597,9834,7294,7878
EQ Steps,203,129,163,121,138,174,225,214,141,161
ALL Steps,4478,5285,7098,3675,6357,5291,4822,10048,7435,8039
