Seed,1,2,3,4,5,6,7,8,9,10
Correct M,true,true,true,true,true,true,true,true,true,true
Max Depth,15,15,15,15,15,15,15,15,15,15
Max Tests,15,15,15,15,15,15,15,15,15,15
EQ Queries,3,3,4,3,3,3,3,3,3,3
MQ Tests,185,181,246,181,181,185,183,179,183,182
EQ Tests,23,20,33,30,18,27,20,18,19,31
ALL Tests,208,201,279,211,199,212,203,197,202,213
MQ Steps,784,593,838,669,601,795,624,628,607,615
EQ Steps,796,575,915,823,535,722,573,487,511,856
ALL Steps,1580,1168,1753,1492,1136,1517,1197,1115,1118,1471
