Seed,1,2,3,4,5,6,7,8,9,10
Correct M,true,true,true,true,true,true,true,true,true,true
Max Depth,1,1,1,1,1,1,1,1,1,1
Max Tests,1,1,1,1,1,1,1,1,1,1
EQ Queries,1,1,1,1,1,1,1,1,1,1
MQ Tests,1274,1274,1274,1274,1274,1274,1274,1274,1274,1274
EQ Tests,1,1,1,1,1,1,1,1,1,1
ALL Tests,1275,1275,1275,1275,1275,1275,1275,1275,1275,1275
MQ Steps,4970,4970,4970,4970,4970,4970,4970,4970,4970,4970
EQ Steps,53,53,50,55,52,50,51,50,54,54
ALL Steps,5023,5023,5020,5025,5022,5020,5021,5020,5024,5024
