Seed,1,2,3,4,5,6,7,8,9,10
Correct M,true,true,true,true,true,true,true,true,true,true
Max Depth,127,127,127,127,127,127,127,127,127,127
Max Tests,127,127,127,127,127,127,127,127,127,127
EQ Queries,4,5,4,4,4,4,4,5,4,4
MQ Tests,326,309,276,350,282,320,325,345,265,306
EQ Tests,201,139,159,132,132,173,196,233,136,147
ALL Tests,527,448,435,482,414,493,521,578,401,453
MQ Steps,6927,5245,7210,8872,2519,6372,5581,7042,4850,3922
EQ Steps,9274,6407,7237,6244,5980,8073,8647,10266,6296,6636
ALL Steps,16201,11652,14447,15116,8499,14445,14228,17308,11146,10558
