Seed,1,2,3,4,5,6,7,8,9,10
Correct M,true,true,true,true,true,true,true,true,true,true
Max Depth,9386,9386,9386,9386,9386,9386,9386,9386,9386,9386
Max Tests,9386,9386,9386,9386,9386,9386,9386,9386,9386,9386
EQ Queries,5,6,6,6,6,7,6,6,7,7
MQ Tests,7825,9390,9390,9393,9392,10955,9389,9391,10956,10958
EQ Tests,12351,12254,14735,11897,9748,16463,14629,19489,13356,11267
ALL Tests,20176,21644,24125,21290,19140,27418,24018,28880,24312,22225
MQ Steps,106298,98145,98151,137271,107523,127570,115283,113822,157282,140130
EQ Steps,138206,136601,158086,133929,115443,175142,158572,202140,146756,129434
ALL Steps,244504,234746,256237,271200,222966,302712,273855,315962,304038,269564
