Seed,1,2,3,4,5,6,7,8,9,10
Correct M,true,true,true,true,true,true,true,true,true,true
Max Depth,12388,12388,12388,12388,12388,12388,12388,12388,12388,12388
Max Tests,12388,12388,12388,12388,12388,12388,12388,12388,12388,12388
EQ Queries,51,50,50,50,52,51,49,50,50,49
MQ Tests,10375,10442,10329,10328,10394,10431,10536,10349,10471,10430
EQ Tests,25757,24181,28507,36234,35844,25929,28396,37314,22075,29378
ALL Tests,36132,34623,38836,46562,46238,36360,38932,47663,32546,39808
MQ Steps,88623,89717,88615,88016,89437,89514,90619,88498,90355,88925
EQ Steps,296093,276622,322008,421934,423527,304787,327555,410911,250766,340935
ALL Steps,384716,366339,410623,509950,512964,394301,418174,499409,341121,429860
