Seed,1,2,3,4,5,6,7,8,9,10
Correct M,true,true,true,true,true,true,true,true,true,true
Max Depth,1483948,1483948,1483948,1483948,1483948,1483948,1483948,1483948,1483948,1483948
Max Tests,1483948,1483948,1483948,1483948,1483948,1483948,1483948,1483948,1483948,1483948
EQ Queries,3,3,3,3,3,3,3,3,3,3
MQ Tests,28015,25775,27055,27855,26415,25295,25615,26735,26095,27375
EQ Tests,1623032,1893965,1622836,1606434,1532109,2967921,1739086,1902177,1758620,2067425
ALL Tests,1651047,1919740,1649891,1634289,1558524,2993216,1764701,1928912,1784715,2094800
MQ Steps,256726,202846,301086,313586,235246,192146,199226,224246,213606,291526
EQ Steps,17445429,19584315,17449248,17322752,16743257,27990802,18356776,19634119,18519238,20944567
ALL Steps,17702155,19787161,17750334,17636338,16978503,28182948,18556002,19858365,18732844,21236093
