Seed,1,2,3,4,5,6,7,8,9,10
Correct M,true,true,true,true,true,true,true,true,true,true
Max Depth,25574,25574,25574,25574,25574,25574,25574,25574,25574,25574
Max Tests,25574,25574,25574,25574,25574,25574,25574,25574,25574,25574
EQ Queries,48,50,46,50,52,50,49,52,51,51
MQ Tests,14614,14523,13773,13801,14367,14106,14532,14345,14431,13888
EQ Tests,37675,56404,31201,36009,40644,45900,32268,42698,51328,38181
ALL Tests,52289,70927,44974,49810,55011,60006,46800,57043,65759,52069
MQ Steps,190750,168087,178855,167809,177758,173664,182833,174920,182065,160718
EQ Steps,418924,633991,349645,403901,458689,517193,362837,473912,575064,428357
ALL Steps,609674,802078,528500,571710,636447,690857,545670,648832,757129,589075
