Seed,1,2,3,4,5,6,7,8,9,10
Correct M,true,true,true,true,true,true,true,true,true,true
Max Depth,9121,9121,9121,9121,9121,9121,9121,9121,9121,9121
Max Tests,9121,9121,9121,9121,9121,9121,9121,9121,9121,9121
EQ Queries,45,45,48,53,55,55,48,49,50,51
MQ Tests,12823,13507,12999,13872,13242,13789,13106,13336,13676,13452
EQ Tests,18100,22810,24072,25262,16759,26407,24043,19201,13261,19963
ALL Tests,30923,36317,37071,39134,30001,40196,37149,32537,26937,33415
MQ Steps,134108,150808,167625,173400,160613,151425,136632,148170,156438,153619
EQ Steps,197892,245686,255398,275984,187845,287310,268307,189268,146846,218811
ALL Steps,332000,396494,423023,449384,348458,438735,404939,337438,303284,372430
