Seed,1,2,3,4,5,6,7,8,9,10
Correct M,true,true,true,true,true,true,true,true,true,true
Max Depth,18037,18037,18037,18037,18037,18037,18037,18037,18037,18037
Max Tests,18037,18037,18037,18037,18037,18037,18037,18037,18037,18037
EQ Queries,43,41,41,42,43,42,42,42,44,43
MQ Tests,16688,16268,15928,15622,16826,16660,17087,16918,15925,17599
EQ Tests,34315,39785,43747,45859,31927,47400,35437,36591,29524,41870
ALL Tests,51003,56053,59675,61481,48753,64060,52524,53509,45449,59469
MQ Steps,233979,205846,203213,189895,226906,209076,221024,220061,188433,238552
EQ Steps,408661,475761,516539,552688,388703,551783,412742,411390,347909,503822
ALL Steps,642640,681607,719752,742583,615609,760859,633766,631451,536342,742374
