Seed,1,2,3,4,5,6,7,8,9,10
Correct M,true,true,true,true,true,true,true,true,true,true
Max Depth,9296,9296,9296,9296,9296,9296,9296,9296,9296,9296
Max Tests,9296,9296,9296,9296,9296,9296,9296,9296,9296,9296
EQ Queries,4,4,4,4,4,4,4,4,4,4
MQ Tests,30616,31636,37586,34356,30616,30446,32656,33846,32316,35206
EQ Tests,12739,12405,14879,11862,10171,16310,14792,18720,13300,11287
ALL Tests,43355,44041,52465,46218,40787,46756,47448,52566,45616,46493
MQ Steps,327358,340428,549638,399478,289958,296988,333438,379938,346818,409888
EQ Steps,142531,138489,160012,133474,120226,173652,160535,193127,146418,129715
ALL Steps,469889,478917,709650,532952,410184,470640,493973,573065,493236,539603
