Seed,1,2,3,4,5,6,7,8,9,10
Correct M,true,true,true,true,true,true,true,true,true,true
Max Depth,1210207,1210207,1210207,1210207,1210207,1210207,1210207,1210207,1210207,1210207
Max Tests,1210207,1210207,1210207,1210207,1210207,1210207,1210207,1210207,1210207,1210207
EQ Queries,8,6,6,8,5,8,6,7,7,8
MQ Tests,1806,1354,1354,1810,1127,1805,1356,1575,1583,1808
EQ Tests,1282901,1357863,1222603,1369515,1224280,2129425,1287342,2427264,2294062,1273418
ALL Tests,1284707,1359217,1223957,1371325,1225407,2131230,1288698,2428839,2295645,1275226
MQ Steps,11018,8430,8882,10600,7793,11230,8215,9679,10027,10825
EQ Steps,39806779,42089329,37885650,42419411,37967135,65998159,39876609,75242327,71198727,39468405
ALL Steps,39817797,42097759,37894532,42430011,37974928,66009389,39884824,75252006,71208754,39479230
