Seed,1,2,3,4,5,6,7,8,9,10
Correct M,true,true,true,true,true,true,true,true,true,true
Max Depth,260,260,260,260,260,260,260,260,260,260
Max Tests,260,260,260,260,260,260,260,260,260,260
EQ Queries,10,9,11,10,9,8,8,9,11,9
MQ Tests,1240,979,1093,1128,1079,1193,1186,1186,975,985
EQ Tests,302,314,283,454,289,368,368,317,358,309
ALL Tests,1542,1293,1376,1582,1368,1561,1554,1503,1333,1294
MQ Steps,7512,5794,6032,6728,6406,6907,6719,6835,5914,5951
EQ Steps,7902,8040,7399,11616,7576,9596,10278,8177,9137,7865
ALL Steps,15414,13834,13431,18344,13982,16503,16997,15012,15051,13816
