Seed,1,2,3,4,5,6,7,8,9,10
Correct M,true,true,true,true,true,true,true,true,true,true
Max Depth,16624,16624,16624,16624,16624,16624,16624,16624,16624,16624
Max Tests,16624,16624,16624,16624,16624,16624,16624,16624,16624,16624
EQ Queries,8,8,9,10,9,8,7,9,9,9
MQ Tests,168,158,177,193,185,164,181,167,163,208
EQ Tests,25069,21809,20611,21095,34483,23844,18296,32676,24996,19944
ALL Tests,25237,21967,20788,21288,34668,24008,18477,32843,25159,20152
MQ Steps,856,729,784,843,982,772,821,828,767,1060
EQ Steps,183898,161969,153197,157388,254252,177492,137845,237741,186205,145925
ALL Steps,184754,162698,153981,158231,255234,178264,138666,238569,186972,146985
