Seed,1,2,3,4,5,6,7,8,9,10
Correct M,true,true,true,true,true,true,true,true,true,true
Max Depth,1453,1453,1453,1453,1453,1453,1453,1453,1453,1453
Max Tests,1453,1453,1453,1453,1453,1453,1453,1453,1453,1453
EQ Queries,5,5,4,6,5,5,5,4,5,5
MQ Tests,309,311,248,371,310,309,310,244,310,313
EQ Tests,3191,2432,1845,2581,1828,2368,2171,1981,2130,1784
ALL Tests,3500,2743,2093,2952,2138,2677,2481,2225,2440,2097
MQ Steps,4270,6969,4079,6937,6210,4039,6197,2273,5751,8448
EQ Steps,94756,72226,54766,77644,55283,70594,65725,59676,62769,53988
ALL Steps,99026,79195,58845,84581,61493,74633,71922,61949,68520,62436
