Seed,1,2,3,4,5,6,7,8,9,10
Correct M,true,true,true,true,true,true,true,true,true,true
Max Depth,271702,271702,271702,271702,271702,271702,271702,271702,271702,271702
Max Tests,271702,271702,271702,271702,271702,271702,271702,271702,271702,271702
EQ Queries,9,10,12,10,9,10,11,12,12,9
MQ Tests,1646,1831,2198,1829,1642,1831,2016,2197,2199,1650
EQ Tests,296101,295425,405622,306688,298766,313787,327794,583359,351116,296998
ALL Tests,297747,297256,407820,308517,300408,315618,329810,585556,353315,298648
MQ Steps,41890,49737,54756,50420,36585,53388,58944,63663,68299,54154
EQ Steps,8881832,8872516,12163985,9206557,8958518,9409244,9827549,17508074,10532966,8902036
ALL Steps,8923722,8922253,12218741,9256977,8995103,9462632,9886493,17571737,10601265,8956190
