Seed,1,2,3,4,5,6,7,8,9,10
Correct M,true,true,true,true,true,true,true,true,true,true
Max Depth,32750,32750,32750,32750,32750,32750,32750,32750,32750,32750
Max Tests,32750,32750,32750,32750,32750,32750,32750,32750,32750,32750
EQ Queries,10,9,10,10,11,10,10,9,10,9
MQ Tests,923,829,926,928,1020,924,928,831,923,833
EQ Tests,67277,79367,66291,48682,46828,64684,66757,48538,56164,68266
ALL Tests,68200,80196,67217,49610,47848,65608,67685,49369,57087,69099
MQ Steps,5306,4461,4876,5183,5471,5144,5267,5283,5143,4490
EQ Steps,1052352,1195724,1030195,706408,653049,850762,866607,682335,825387,1046685
ALL Steps,1057658,1200185,1035071,711591,658520,855906,871874,687618,830530,1051175
