Seed,1,2,3,4,5,6,7,8,9,10
Correct M,true,true,true,true,true,true,true,true,true,true
Max Depth,71883,71883,71883,71883,71883,71883,71883,71883,71883,71883
Max Tests,71883,71883,71883,71883,71883,71883,71883,71883,71883,71883
EQ Queries,8,9,8,9,8,9,8,9,7,9
MQ Tests,337,302,324,297,328,300,296,302,296,303
EQ Tests,80687,171133,84939,128178,73456,105166,115643,130112,73388,76168
ALL Tests,81024,171435,85263,128475,73784,105466,115939,130414,73684,76471
MQ Steps,1414,1279,1385,1241,1378,1250,1233,1266,1295,1264
EQ Steps,2415648,5143148,2546205,3845543,2201524,3159277,3467424,3905105,2202528,2283192
ALL Steps,2417062,5144427,2547590,3846784,2202902,3160527,3468657,3906371,2203823,2284456
