Seed,1,2,3,4,5,6,7,8,9,10
Correct M,true,true,true,true,true,true,true,true,true,true
Max Depth,413592,413592,413592,413592,413592,413592,413592,413592,413592,413592
Max Tests,413592,413592,413592,413592,413592,413592,413592,413592,413592,413592
EQ Queries,7,10,7,8,8,10,10,9,6,8
MQ Tests,343,434,327,315,412,421,422,436,339,330
EQ Tests,454123,728607,485513,644220,452075,497576,534763,570457,829711,834247
ALL Tests,454466,729041,485840,644535,452487,497997,535185,570893,830050,834577
MQ Steps,1648,2071,1485,1234,1755,1917,1844,2091,1713,1390
EQ Steps,14110669,22554549,15037648,19966777,14033334,15428366,16608908,17699743,25736040,25869922
ALL Steps,14112317,22556620,15039133,19968011,14035089,15430283,16610752,17701834,25737753,25871312
