Seed,1,2,3,4,5,6,7,8,9,10
Correct M,true,true,true,true,true,true,true,true,true,true
Max Depth,648174,648174,648174,648174,648174,648174,648174,648174,648174,648174
Max Tests,648174,648174,648174,648174,648174,648174,648174,648174,648174,648174
EQ Queries,6,6,7,6,6,6,9,7,8,7
MQ Tests,175,183,185,182,171,183,224,225,220,180
EQ Tests,666497,1300629,910827,706974,679784,654824,812185,745519,709113,1165875
ALL Tests,666672,1300812,911012,707156,679955,655007,812409,745744,709333,1166055
MQ Steps,1152,1220,1335,1704,1332,1138,1311,1635,1316,1099
EQ Steps,19996446,39014955,27325296,21223874,20391459,19649985,24359001,22367799,21271295,34962820
ALL Steps,19997598,39016175,27326631,21225578,20392791,19651123,24360312,22369434,21272611,34963919
