Seed,1,2,3,4,5,6,7,8,9,10
Correct M,true,true,true,true,true,true,true,true,true,true
Max Depth,406270,406270,406270,406270,406270,406270,406270,406270,406270,406270
Max Tests,406270,406270,406270,406270,406270,406270,406270,406270,406270,406270
EQ Queries,8,7,7,9,7,7,7,8,8,7
MQ Tests,277,302,304,300,276,276,278,278,302,280
EQ Tests,446804,464785,478191,636901,444750,425014,420537,563135,822389,436664
ALL Tests,447081,465087,478495,637201,445026,425290,420815,563413,822691,436944
MQ Steps,1187,1358,1370,1340,1175,1184,1195,1193,1355,1200
EQ Steps,13886979,14397020,14812759,19742468,13808903,13175266,13057325,17472064,25506946,13548907
ALL Steps,13888166,14398378,14814129,19743808,13810078,13176450,13058520,17473257,25508301,13550107
