Seed,1,2,3,4,5,6,7,8,9,10
Correct M,true,true,true,true,true,true,true,true,true,true
Max Depth,2567,2567,2567,2567,2567,2567,2567,2567,2567,2567
Max Tests,2567,2567,2567,2567,2567,2567,2567,2567,2567,2567
EQ Queries,4,5,4,5,5,6,6,5,5,4
MQ Tests,237,297,236,297,296,358,356,298,298,236
EQ Tests,4434,3209,2635,3325,5494,2902,4348,2974,2598,3609
ALL Tests,4671,3506,2871,3622,5790,3260,4704,3272,2896,3845
MQ Steps,895,1112,823,1049,1107,1397,1269,1052,1056,829
EQ Steps,138207,98141,81390,105349,171135,86563,136158,88877,80524,113339
ALL Steps,139102,99253,82213,106398,172242,87960,137427,89929,81580,114168
