Seed,1,2,3,4,5,6,7,8,9,10
Correct M,true,true,true,true,true,true,true,true,true,true
Max Depth,72,72,72,72,72,72,72,72,72,72
Max Tests,72,72,72,72,72,72,72,72,72,72
EQ Queries,2,2,2,2,2,2,2,2,2,2
MQ Tests,2029,2197,2197,2197,2365,2365,2365,2197,1861,2029
EQ Tests,76,75,140,73,73,74,74,75,77,74
ALL Tests,2105,2272,2337,2270,2438,2439,2439,2272,1938,2103
MQ Steps,9086,10430,9590,10430,10934,10934,10934,9590,7910,8414
EQ Steps,1255,1109,2296,1098,993,1162,1020,932,1352,1146
ALL Steps,10341,11539,11886,11528,11927,12096,11954,10522,9262,9560
