Seed,1,2,3,4,5,6,7,8,9,10
Correct M,true,true,true,true,true,true,true,true,true,true
Max Depth,39652,39652,39652,39652,39652,39652,39652,39652,39652,39652
Max Tests,39652,39652,39652,39652,39652,39652,39652,39652,39652,39652
EQ Queries,9,9,9,9,10,10,10,10,9,10
MQ Tests,272,279,300,302,277,279,278,277,302,300
EQ Tests,69359,47313,64195,67097,81342,79349,91197,71989,73365,56792
ALL Tests,69631,47592,64495,67399,81619,79628,91475,72266,73667,57092
MQ Steps,1210,1191,1339,1359,1186,1199,1193,1189,1352,1347
EQ Steps,535701,367730,496044,518169,625227,610648,699543,552172,563967,437428
ALL Steps,536911,368921,497383,519528,626413,611847,700736,553361,565319,438775
