Seed,1,2,3,4,5,6,7,8,9,10
Correct M,true,true,true,true,true,true,true,true,true,true
Max Depth,23860,23860,23860,23860,23860,23860,23860,23860,23860,23860
Max Tests,23860,23860,23860,23860,23860,23860,23860,23860,23860,23860
EQ Queries,7,8,8,8,7,8,8,9,7,7
MQ Tests,703,801,803,799,703,802,802,901,700,702
EQ Tests,43585,45235,66115,38416,55027,27769,37478,31067,48319,47304
ALL Tests,44288,46036,66918,39215,55730,28571,38280,31968,49019,48006
MQ Steps,3612,3918,3924,3696,3407,4102,4111,4037,3374,3404
EQ Steps,1359336,1401324,2053792,1185188,1697360,859694,1155355,964223,1496902,1465398
ALL Steps,1362948,1405242,2057716,1188884,1700767,863796,1159466,968260,1500276,1468802
