Seed,1,2,3,4,5,6,7,8,9,10
Correct M,true,true,true,true,true,true,true,true,true,true
Max Depth,6010928,6010928,6010928,6010928,6010928,6010928,6010928,6010928,6010928,6010928
Max Tests,6010928,6010928,6010928,6010928,6010928,6010928,6010928,6010928,6010928,6010928
EQ Queries,12,13,10,11,9,9,9,11,10,11
MQ Tests,656,737,702,597,665,731,602,691,637,650
EQ Tests,10798483,12575052,8181953,9857769,8100321,10536386,13297475,14884474,9421253,8676482
ALL Tests,10799139,12575789,8182655,9858366,8100986,10537117,13298077,14885165,9421890,8677132
MQ Steps,2972,3128,3040,2775,3174,3606,2636,2905,2680,2745
EQ Steps,334835314,389804772,253713938,305612236,251120239,326583949,412175152,461489316,292185745,268944783
ALL Steps,334838286,389807900,253716978,305615011,251123413,326587555,412177788,461492221,292188425,268947528
