Seed,1,2,3,4,5,6,7,8,9,10
Correct M,true,true,true,true,true,true,true,true,true,true
Max Depth,22044,22044,22044,22044,22044,22044,22044,22044,22044,22044
Max Tests,22044,22044,22044,22044,22044,22044,22044,22044,22044,22044
EQ Queries,11,10,14,8,9,11,11,9,8,7
MQ Tests,648,639,760,614,646,718,652,656,623,565
EQ Tests,54354,42660,87027,39557,53785,53493,53711,37755,34319,46415
ALL Tests,55002,43299,87787,40171,54431,54211,54363,38411,34942,46980
MQ Steps,2854,2785,3573,2868,2800,3358,3017,3050,3261,2418
EQ Steps,766673,466725,1130492,427560,677823,650671,711611,450149,377695,615452
ALL Steps,769527,469510,1134065,430428,680623,654029,714628,453199,380956,617870
