Seed,1,2,3,4,5,6,7,8,9,10
Correct M,true,true,true,true,true,true,true,true,true,true
Max Depth,544412,544412,544412,544412,544412,544412,544412,544412,544412,544412
Max Tests,544412,544412,544412,544412,544412,544412,544412,544412,544412,544412
EQ Queries,9,9,10,10,10,10,11,9,9,9
MQ Tests,544,535,610,553,590,621,622,533,619,526
EQ Tests,589091,677019,717710,663606,639833,1092078,1069947,589821,760463,605932
ALL Tests,589635,677554,718320,664159,640423,1092699,1070569,590354,761082,606458
MQ Steps,2551,2317,2642,2177,2458,2660,2764,2328,2937,2450
EQ Steps,18297067,20959142,22226144,20569725,19854135,33868758,33160027,18301667,23588820,18794717
ALL Steps,18299618,20961459,22228786,20571902,19856593,33871418,33162791,18303995,23591757,18797167
