Seed,1,2,3,4,5,6,7,8,9,10
Correct M,true,true,true,true,true,true,true,true,true,true
Max Depth,295153,295153,295153,295153,295153,295153,295153,295153,295153,295153
Max Tests,295153,295153,295153,295153,295153,295153,295153,295153,295153,295153
EQ Queries,9,10,8,9,9,10,10,10,11,10
MQ Tests,850,946,760,854,852,946,949,945,1043,950
EQ Tests,378543,408498,438790,393427,374182,389751,404394,377912,613934,656818
ALL Tests,379393,409444,439550,394281,375034,390697,405343,378857,614977,657768
MQ Steps,17252,22138,21983,24719,18220,20570,23505,21186,26931,25442
EQ Steps,11355187,12263163,13161955,11815300,11219064,11690784,12123830,11341310,18416059,19694234
ALL Steps,11372439,12285301,13183938,11840019,11237284,11711354,12147335,11362496,18442990,19719676
