Seed,1,2,3,4,5,6,7,8,9,10
Correct M,true,true,true,true,true,true,true,true,true,true
Max Depth,347067,347067,347067,347067,347067,347067,347067,347067,347067,347067
Max Tests,347067,347067,347067,347067,347067,347067,347067,347067,347067,347067
EQ Queries,8,8,5,7,7,6,8,8,10,8
MQ Tests,208,207,185,188,191,178,196,194,192,228
EQ Tests,395345,378192,347155,414527,391521,441665,456308,394300,665848,708732
ALL Tests,395553,378399,347340,414715,391712,441843,456504,394494,666040,708960
MQ Steps,1520,1893,1787,1725,1558,1185,1705,1582,1902,1907
EQ Steps,11859811,11356274,10407310,12444509,11740088,13241569,13680983,11833171,19975399,21251817
ALL Steps,11861331,11358167,10409097,12446234,11741646,13242754,13682688,11834753,19977301,21253724
