Seed,1,2,3,4,5,6,7,8,9,10
Correct M,true,true,true,true,true,true,true,true,true,true
Max Depth,406270,406270,406270,406270,406270,406270,406270,406270,406270,406270
Max Tests,406270,406270,406270,406270,406270,406270,406270,406270,406270,406270
EQ Queries,10,8,6,8,7,8,7,8,7,7
MQ Tests,196,198,161,151,169,178,187,186,162,193
EQ Tests,446804,464785,478191,636898,444750,425011,420540,563135,822389,436664
ALL Tests,447000,464983,478352,637049,444919,425189,420727,563321,822551,436857
MQ Steps,912,960,763,680,823,874,855,843,779,877
EQ Steps,13886979,14397020,14812759,19742466,13808903,13175264,13057327,17472064,25506946,13548907
ALL Steps,13887891,14397980,14813522,19743146,13809726,13176138,13058182,17472907,25507725,13549784
