Seed,1,2,3,4,5,6,7,8,9,10
Correct M,true,true,true,true,true,true,true,true,true,true
Max Depth,3582,3582,3582,3582,3582,3582,3582,3582,3582,3582
Max Tests,3582,3582,3582,3582,3582,3582,3582,3582,3582,3582
EQ Queries,10,8,8,9,8,8,12,12,9,10
MQ Tests,273,317,323,319,299,342,332,321,323,280
EQ Tests,5428,7175,4777,5398,4944,4926,3837,4231,5312,5972
ALL Tests,5701,7492,5100,5717,5243,5268,4169,4552,5635,6252
MQ Steps,1387,1416,1451,1415,1403,1584,1473,1422,1455,1275
EQ Steps,64711,85435,56022,65038,58246,58536,44959,49976,62389,70699
ALL Steps,66098,86851,57473,66453,59649,60120,46432,51398,63844,71974
