Seed,1,2,3,4,5,6,7,8,9,10
Correct M,true,true,true,true,true,true,true,true,true,true
Max Depth,5350,5350,5350,5350,5350,5350,5350,5350,5350,5350
Max Tests,5350,5350,5350,5350,5350,5350,5350,5350,5350,5350
EQ Queries,4,4,3,4,3,4,3,3,4,4
MQ Tests,6065,4337,4121,4985,3689,5201,3905,4121,4769,4769
EQ Tests,6535,5839,5619,10960,5662,5860,6510,5413,6061,6129
ALL Tests,12600,10176,9740,15945,9351,11061,10415,9534,10830,10898
MQ Steps,38164,23812,24556,28708,19564,29260,21628,23692,26644,26644
EQ Steps,74584,63596,61629,132240,75655,68632,76134,61920,65896,71771
ALL Steps,112748,87408,86185,160948,95219,97892,97762,85612,92540,98415
