Seed,1,2,3,4,5,6,7,8,9,10
Correct M,true,true,true,true,true,true,true,true,true,true
Max Depth,1294850,1294850,1294850,1294850,1294850,1294850,1294850,1294850,1294850,1294850
Max Tests,1294850,1294850,1294850,1294850,1294850,1294850,1294850,1294850,1294850,1294850
EQ Queries,243,243,243,243,243,243,243,242,243,243
MQ Tests,4090210,4198190,3958591,3993992,4144376,4250505,4386211,4078456,4193857,3931525
EQ Tests,1927636,1835524,3531521,2256451,1904932,1714439,3135924,2395961,1749493,2614461
ALL Tests,6017846,6033714,7490112,6250443,6049308,5964944,7522135,6474417,5943350,6545986
MQ Steps,39039091,37479830,33993107,35747810,37082671,36124802,39855120,35697344,35578117,34114437
EQ Steps,13679129,12969021,25209882,16067924,13528629,12160635,22133334,17079586,12459490,18578461
ALL Steps,52718220,50448851,59202989,51815734,50611300,48285437,61988454,52776930,48037607,52692898
