Seed,1,2,3,4,5,6,7,8,9,10
Correct M,true,true,true,true,true,true,true,true,true,true
Max Depth,38,38,38,38,38,38,38,38,38,38
Max Tests,38,38,38,38,38,38,38,38,38,38
EQ Queries,33,33,33,33,33,33,33,32,32,33
MQ Tests,17395,15343,16748,15758,16204,15302,16591,15600,16249,15969
EQ Tests,90,85,88,81,87,93,94,82,95,77
ALL Tests,17485,15428,16836,15839,16291,15395,16685,15682,16344,16046
MQ Steps,257494,161213,212778,184812,210251,156780,227273,174329,219918,193354
EQ Steps,2716,2462,2633,2320,2714,2720,2719,2284,2831,2269
ALL Steps,260210,163675,215411,187132,212965,159500,229992,176613,222749,195623
