Seed,1,2,3,4,5,6,7,8,9,10
Correct M,true,true,true,true,true,true,true,true,true,true
Max Depth,109625,109625,109625,109625,109625,109625,109625,109625,109625,109625
Max Tests,109625,109625,109625,109625,109625,109625,109625,109625,109625,109625
EQ Queries,129,129,129,129,128,129,129,129,128,129
MQ Tests,616725,616747,657370,649246,584211,689881,624843,657375,616716,584226
EQ Tests,160413,178871,175857,278984,173667,191666,154202,160712,207500,174363
ALL Tests,777138,795618,833227,928230,757878,881547,779045,818087,824216,758589
MQ Steps,2421976,2422132,2585082,2552583,2291535,2715272,2454423,2584992,2421671,2292045
EQ Steps,1126046,1264529,1233750,1966493,1227869,1341780,1082455,1120061,1456795,1229244
ALL Steps,3548022,3686661,3818832,4519076,3519404,4057052,3536878,3705053,3878466,3521289
