Seed,1,2,3,4,5,6,7,8,9,10
Correct M,true,true,true,true,true,true,true,true,true,true
Max Depth,348,348,348,348,348,348,348,348,348,348
Max Tests,348,348,348,348,348,348,348,348,348,348
EQ Queries,36,30,29,35,36,31,32,31,30,27
MQ Tests,353075,294232,284413,343274,353076,304021,313844,304038,294229,264818
EQ Tests,684,506,543,492,568,499,739,546,562,551
ALL Tests,353759,294738,284956,343766,353644,304520,314583,304584,294791,265369
MQ Steps,3868670,4144110,3658555,4001123,4280423,3158005,3859257,3805611,3761506,3688552
EQ Steps,16587,12546,13573,12571,13876,12174,16970,13609,13703,13642
ALL Steps,3885257,4156656,3672128,4013694,4294299,3170179,3876227,3819220,3775209,3702194
