Seed,1,2,3,4,5,6,7,8,9,10
Correct M,true,true,true,true,true,true,true,true,true,true
Max Depth,286,286,286,286,286,286,286,286,286,286
Max Tests,286,286,286,286,286,286,286,286,286,286
EQ Queries,128,126,128,128,127,128,128,123,128,127
MQ Tests,42971,43102,43280,43311,42987,43587,43267,42967,42876,42810
EQ Tests,774,610,592,709,623,637,725,601,699,678
ALL Tests,43745,43712,43872,44020,43610,44224,43992,43568,43575,43488
MQ Steps,1427206,1473011,1441147,1450020,1436445,1455281,1447561,1527820,1422200,1432667
EQ Steps,19025,14488,13373,16544,14146,15563,17096,14250,16371,16452
ALL Steps,1446231,1487499,1454520,1466564,1450591,1470844,1464657,1542070,1438571,1449119
