Seed,1,2,3,4,5,6,7,8,9,10
Correct M,true,true,true,true,true,true,true,true,true,true
Max Depth,267,267,267,267,267,267,267,267,267,267
Max Tests,267,267,267,267,267,267,267,267,267,267
EQ Queries,6,7,6,7,5,8,7,8,8,8
MQ Tests,244,259,234,253,207,261,241,242,243,237
EQ Tests,354,697,320,376,304,476,353,370,313,321
ALL Tests,598,956,554,629,511,737,594,612,556,558
MQ Steps,1751,1994,1618,1765,1104,1640,1702,1565,1460,1382
EQ Steps,2300,4332,2241,2536,1940,3104,2353,2349,2036,2095
ALL Steps,4051,6326,3859,4301,3044,4744,4055,3914,3496,3477
