Seed,1,2,3,4,5,6,7,8,9,10
Correct M,true,true,true,true,true,true,true,true,true,true
Max Depth,388,388,388,388,388,388,388,388,388,388
Max Tests,388,388,388,388,388,388,388,388,388,388
EQ Queries,64,64,64,64,64,64,64,64,64,64
MQ Tests,29453343,30499017,31445103,30499017,28507257,31345515,28059111,32142219,28880712,30175356
EQ Tests,665,583,704,755,584,869,854,506,863,801
ALL Tests,29454008,30499600,31445807,30499772,28507841,31346384,28059965,32142725,28881575,30176157
MQ Steps,376368978,410988063,420877332,404489946,361475412,421144104,357870765,442686975,361197030,397439709
EQ Steps,14098,12604,16057,17249,12524,20022,18501,11046,19668,18798
ALL Steps,376383076,411000667,420893389,404507195,361487936,421164126,357889266,442698021,361216698,397458507
