Seed,1,2,3,4,5,6,7,8,9,10
Correct M,true,true,true,true,true,true,true,true,true,true
Max Depth,64,64,64,64,64,64,64,64,64,64
Max Tests,64,64,64,64,64,64,64,64,64,64
EQ Queries,4,5,4,5,4,4,4,4,5,4
MQ Tests,114,127,112,127,111,111,110,110,126,151
EQ Tests,74,83,89,93,88,93,86,93,103,88
ALL Tests,188,210,201,220,199,204,196,203,229,239
MQ Steps,394,415,401,415,377,361,356,356,424,512
EQ Steps,1603,1642,1878,1952,1647,1988,1867,2054,2415,2078
ALL Steps,1997,2057,2279,2367,2024,2349,2223,2410,2839,2590
