Seed,1,2,3,4,5,6,7,8,9,10
Correct M,true,true,true,true,true,true,true,true,true,true
Max Depth,6045,6045,6045,6045,6045,6045,6045,6045,6045,6045
Max Tests,6045,6045,6045,6045,6045,6045,6045,6045,6045,6045
EQ Queries,4,4,4,4,4,4,4,4,4,4
MQ Tests,187,165,188,164,164,187,163,187,187,218
EQ Tests,7783,7735,6437,7173,6420,9983,6135,6270,6722,12441
ALL Tests,7970,7900,6625,7337,6584,10170,6298,6457,6909,12659
MQ Steps,709,626,711,623,623,709,621,709,709,823
EQ Steps,232889,231743,192166,216749,193020,300567,186217,188857,200240,372749
ALL Steps,233598,232369,192877,217372,193643,301276,186838,189566,200949,373572
