Seed,1,2,3,4,5,6,7,8,9,10
Correct M,true,true,true,true,true,true,true,true,true,true
Max Depth,9601,9601,9601,9601,9601,9601,9601,9601,9601,9601
Max Tests,9601,9601,9601,9601,9601,9601,9601,9601,9601,9601
EQ Queries,4,3,4,4,4,3,4,3,4,3
MQ Tests,111,102,114,111,112,111,125,111,114,153
EQ Tests,11339,9924,10922,9855,12926,9881,9691,9826,19214,15997
ALL Tests,11450,10026,11036,9966,13038,9992,9816,9937,19328,16150
MQ Steps,361,367,394,381,385,366,405,366,378,551
EQ Steps,339161,297122,325925,297122,387726,297383,292508,295671,576089,479274
ALL Steps,339522,297489,326319,297503,388111,297749,292913,296037,576467,479825
