Seed,1,2,3,4,5,6,7,8,9,10
Correct M,true,true,true,true,true,true,true,true,true,true
Max Depth,21780,21780,21780,21780,21780,21780,21780,21780,21780,21780
Max Tests,21780,21780,21780,21780,21780,21780,21780,21780,21780,21780
EQ Queries,8,7,5,5,7,5,7,8,8,7
MQ Tests,198,166,163,162,163,164,163,198,198,199
EQ Tests,41455,43068,21871,21918,28933,21871,21876,34415,43642,22426
ALL Tests,41653,43234,22034,22080,29096,22035,22039,34613,43840,22625
MQ Steps,748,668,658,653,658,660,697,748,748,753
EQ Steps,560137,680221,297174,300121,440325,300304,294698,473637,578945,308466
ALL Steps,560885,680889,297832,300774,440983,300964,295395,474385,579693,309219
