Seed,1,2,3,4,5,6,7,8,9,10
Correct M,true,true,true,true,true,true,true,true,true,true
Max Depth,59004,59004,59004,59004,59004,59004,59004,59004,59004,59004
Max Tests,59004,59004,59004,59004,59004,59004,59004,59004,59004,59004
EQ Queries,7,7,8,8,8,8,6,6,7,8
MQ Tests,319,339,442,338,338,373,340,319,321,375
EQ Tests,119674,82122,74768,65270,76317,76131,91140,60522,66299,76848
ALL Tests,119993,82461,75210,65608,76655,76504,91480,60841,66620,77223
MQ Steps,1246,1275,1672,1208,1251,1374,1239,1165,1183,1335
EQ Steps,821370,583668,537746,474226,544841,542459,638757,441097,478786,547806
ALL Steps,822616,584943,539418,475434,546092,543833,639996,442262,479969,549141
