Seed,1,2,3,4,5,6,7,8,9,10
Correct M,true,true,true,true,true,true,true,true,true,true
Max Depth,1,1,1,1,1,1,1,1,1,1
Max Tests,1,1,1,1,1,1,1,1,1,1
EQ Queries,1,1,1,1,1,1,1,1,1,1
MQ Tests,584,584,584,584,584,584,584,584,584,584
EQ Tests,1,1,1,1,1,1,1,1,1,1
ALL Tests,585,585,585,585,585,585,585,585,585,585
MQ Steps,2320,2320,2320,2320,2320,2320,2320,2320,2320,2320
EQ Steps,22,28,45,31,27,53,21,51,20,31
ALL Steps,2342,2348,2365,2351,2347,2373,2341,2371,2340,2351
