Seed,1,2,3,4,5,6,7,8,9,10
Correct M,true,true,true,true,true,true,true,true,true,true
Max Depth,21044,21044,21044,21044,21044,21044,21044,21044,21044,21044
Max Tests,21044,21044,21044,21044,21044,21044,21044,21044,21044,21044
EQ Queries,4,6,5,5,5,4,5,5,5,4
MQ Tests,127,158,181,181,138,129,144,143,181,129
EQ Tests,27623,41274,38807,25727,42456,21402,39148,29573,38157,25913
ALL Tests,27750,41432,38988,25908,42594,21531,39292,29716,38338,26042
MQ Steps,484,560,688,688,545,480,520,519,688,496
EQ Steps,860961,1277544,1205446,793589,1304772,663871,1208240,915396,1180266,802917
ALL Steps,861445,1278104,1206134,794277,1305317,664351,1208760,915915,1180954,803413
