Seed,1,2,3,4,5,6,7,8,9,10
Correct M,true,true,true,true,true,true,true,true,true,true
Max Depth,59716,59716,59716,59716,59716,59716,59716,59716,59716,59716
Max Tests,59716,59716,59716,59716,59716,59716,59716,59716,59716,59716
EQ Queries,2,2,2,2,2,2,2,2,2,2
MQ Tests,3037,3205,2701,2533,2029,5053,2197,2029,2029,2029
EQ Tests,119432,82430,74447,65761,76173,60299,91830,80699,66993,76887
ALL Tests,122469,85635,77148,68294,78202,65352,94027,82728,69022,78916
MQ Steps,18494,20678,14630,12950,8918,55790,10094,8918,8918,8918
EQ Steps,820304,586404,535275,478046,543944,442264,643818,569871,484406,549602
ALL Steps,838798,607082,549905,490996,552862,498054,653912,578789,493324,558520
