Seed,1,2,3,4,5,6,7,8,9,10
Correct M,true,true,true,true,true,true,true,true,true,true
Max Depth,28311,28311,28311,28311,28311,28311,28311,28311,28311,28311
Max Tests,28311,28311,28311,28311,28311,28311,28311,28311,28311,28311
EQ Queries,6,6,6,6,6,6,6,6,6,6
MQ Tests,162,179,168,164,163,163,179,179,163,163
EQ Tests,31171,37886,34109,40001,37440,38180,36035,35424,57787,37869
ALL Tests,31333,38065,34277,40165,37603,38343,36214,35603,57950,38032
MQ Steps,631,674,649,635,633,633,674,674,633,633
EQ Steps,972967,1171688,1063068,1236195,1150766,1179179,1110987,1102687,1779979,1170478
ALL Steps,973598,1172362,1063717,1236830,1151399,1179812,1111661,1103361,1780612,1171111
