Seed,1,2,3,4,5,6,7,8,9,10
Correct M,true,true,true,true,true,true,true,true,true,true
Max Depth,175172,175172,175172,175172,175172,175172,175172,175172,175172,175172
Max Tests,175172,175172,175172,175172,175172,175172,175172,175172,175172,175172
EQ Queries,6,7,6,7,7,8,7,6,7,7
MQ Tests,813,949,812,948,949,1087,948,812,949,950
EQ Tests,195462,194294,184907,428853,250539,240092,301550,192423,202595,182785
ALL Tests,196275,195243,185719,429801,251488,241179,302498,193235,203544,183735
MQ Steps,3431,4000,3418,3994,4001,4582,3997,3418,3992,3998
EQ Steps,6065104,6015422,5728963,13296072,7768947,7441883,9369325,5976067,6279649,5687872
ALL Steps,6068535,6019422,5732381,13300066,7772948,7446465,9373322,5979485,6283641,5691870
