Seed,1,2,3,4,5,6,7,8,9,10
Correct M,true,true,true,true,true,true,true,true,true,true
Max Depth,11817,11817,11817,11817,11817,11817,11817,11817,11817,11817
Max Tests,11817,11817,11817,11817,11817,11817,11817,11817,11817,11817
EQ Queries,6,4,5,4,5,5,4,5,5,4
MQ Tests,419,280,350,278,352,351,280,348,347,279
EQ Tests,22801,11949,15924,12007,17308,24331,12941,24737,18928,12650
ALL Tests,23220,12229,16274,12285,17660,24682,13221,25085,19275,12929
MQ Steps,6173,5213,6736,3149,5894,7244,6553,6387,4980,5667
EQ Steps,682740,357951,476540,362226,518721,731422,388386,742654,567428,379100
ALL Steps,688913,363164,483276,365375,524615,738666,394939,749041,572408,384767
