Seed,1,2,3,4,5,6,7,8,9,10
Correct M,true,true,true,true,true,true,true,true,true,true
Max Depth,598,598,598,598,598,598,598,598,598,598
Max Tests,598,598,598,598,598,598,598,598,598,598
EQ Queries,5,6,5,5,5,7,5,6,4,6
MQ Tests,76,75,74,76,78,102,78,77,77,101
EQ Tests,656,1313,1200,1323,1363,994,1024,1269,988,1144
ALL Tests,732,1388,1274,1399,1441,1096,1102,1346,1065,1245
MQ Steps,318,310,299,330,326,389,323,325,350,413
EQ Steps,4667,8640,8098,8720,9080,6596,6937,8486,6796,7646
ALL Steps,4985,8950,8397,9050,9406,6985,7260,8811,7146,8059
