Seed,1,2,3,4,5,6,7,8,9,10
Correct M,true,true,true,true,true,true,true,true,true,true
Max Depth,9516,9516,9516,9516,9516,9516,9516,9516,9516,9516
Max Tests,9516,9516,9516,9516,9516,9516,9516,9516,9516,9516
EQ Queries,21,17,21,22,20,21,16,18,16,21
MQ Tests,3632,3621,3428,4157,3813,3195,3554,3287,3443,4485
EQ Tests,17723,11695,17550,17942,17091,16970,19268,19213,9830,22788
ALL Tests,21355,15316,20978,22099,20904,20165,22822,22500,13273,27273
MQ Steps,41087,41988,38747,50278,47291,31640,45520,38364,43242,50420
EQ Steps,282990,208015,273634,300391,281789,308735,289931,305678,155985,353756
ALL Steps,324077,250003,312381,350669,329080,340375,335451,344042,199227,404176
