Seed,1,2,3,4,5,6,7,8,9,10
Correct M,true,true,true,true,true,true,true,true,true,true
Max Depth,14399,14399,14399,14399,14399,14399,14399,14399,14399,14399
Max Tests,14399,14399,14399,14399,14399,14399,14399,14399,14399,14399
EQ Queries,5,5,6,6,5,7,5,6,7,6
MQ Tests,402,404,486,486,405,568,405,485,566,487
EQ Tests,28801,14403,14405,27990,14523,14974,14444,14404,14520,14409
ALL Tests,29203,14807,14891,28476,14928,15542,14849,14889,15086,14896
MQ Steps,1717,1964,2080,2161,1897,2431,1897,2243,2579,2168
EQ Steps,484865,282399,189657,386034,191623,191311,204094,338326,189779,179613
ALL Steps,486582,284363,191737,388195,193520,193742,205991,340569,192358,181781
