Seed,1,2,3,4,5,6,7,8,9,10
Correct M,true,true,true,true,true,true,true,true,true,true
Max Depth,33558,33558,33558,33558,33558,33558,33558,33558,33558,33558
Max Tests,33558,33558,33558,33558,33558,33558,33558,33558,33558,33558
EQ Queries,5,7,8,7,7,6,6,6,8,5
MQ Tests,212,257,252,269,260,322,269,288,318,283
EQ Tests,37128,35040,37452,41546,34169,34710,33908,54713,69271,57389
ALL Tests,37340,35297,37704,41815,34429,35032,34177,55001,69589,57672
MQ Steps,825,1062,993,1114,1001,1334,1082,1245,1233,1380
EQ Steps,1112336,1049688,1125411,1248833,1025799,1042759,1017555,1642158,2078284,1719562
ALL Steps,1113161,1050750,1126404,1249947,1026800,1044093,1018637,1643403,2079517,1720942
