Seed,1,2,3,4,5,6,7,8,9,10
Correct M,true,true,true,true,true,true,true,true,true,true
Max Depth,213126,213126,213126,213126,213126,213126,213126,213126,213126,213126
Max Tests,213126,213126,213126,213126,213126,213126,213126,213126,213126,213126
EQ Queries,7,5,6,6,6,7,7,6,7,8
MQ Tests,673,480,580,578,579,677,678,577,677,772
EQ Tests,338677,258933,270383,318568,433128,319318,229464,238751,329907,313713
ALL Tests,339350,259413,270963,319146,433707,319995,230142,239328,330584,314485
MQ Steps,10735,5072,17040,15346,8637,15449,16401,7324,19686,19239
EQ Steps,10157594,7776015,8107301,9563367,12986319,9575786,6882418,7166285,9895717,9405453
ALL Steps,10168329,7781087,8124341,9578713,12994956,9591235,6898819,7173609,9915403,9424692
