Seed,1,2,3,4,5,6,7,8,9,10
Correct M,true,true,true,true,true,true,true,true,true,true
Max Depth,140,140,140,140,140,140,140,140,140,140
Max Tests,140,140,140,140,140,140,140,140,140,140
EQ Queries,6,6,6,6,6,6,6,6,6,6
MQ Tests,109,108,135,109,111,137,110,109,110,109
EQ Tests,165,169,165,174,163,172,175,231,173,163
ALL Tests,274,277,300,283,274,309,285,340,283,272
MQ Steps,397,393,489,398,398,495,399,399,399,398
EQ Steps,3711,3787,3534,3827,3821,3594,3889,4789,3242,3162
ALL Steps,4108,4180,4023,4225,4219,4089,4288,5188,3641,3560
