Seed,1,2,3,4,5,6,7,8,9,10
Correct M,true,true,true,true,true,true,true,true,true,true
Max Depth,17987,17987,17987,17987,17987,17987,17987,17987,17987,17987
Max Tests,17987,17987,17987,17987,17987,17987,17987,17987,17987,17987
EQ Queries,9,9,7,10,10,8,8,11,10,8
MQ Tests,399,376,411,397,394,377,409,450,375,429
EQ Tests,36333,18981,24283,18767,18402,28972,20348,22768,24215,18521
ALL Tests,36732,19357,24694,19164,18796,29349,20757,23218,24590,18950
MQ Steps,1791,1721,1851,1782,1788,1708,1841,2097,1715,1933
EQ Steps,277857,145007,185395,143923,141108,222773,156680,173566,185325,141589
ALL Steps,279648,146728,187246,145705,142896,224481,158521,175663,187040,143522
