Seed,1,2,3,4,5,6,7,8,9,10
Correct M,true,true,true,true,true,true,true,true,true,true
Max Depth,8098,8098,8098,8098,8098,8098,8098,8098,8098,8098
Max Tests,8098,8098,8098,8098,8098,8098,8098,8098,8098,8098
EQ Queries,4,6,4,5,5,4,5,5,5,5
MQ Tests,301,457,305,381,380,302,380,382,381,379
EQ Tests,16230,10293,15098,10284,8593,8837,9239,9017,8219,8373
ALL Tests,16531,10750,15403,10665,8973,9139,9619,9399,8600,8752
MQ Steps,3535,8125,6191,9276,6599,4989,7659,9720,10138,7485
EQ Steps,485905,308246,451757,310039,258279,265531,278444,271130,245343,250819
ALL Steps,489440,316371,457948,319315,264878,270520,286103,280850,255481,258304
