Seed,1,2,3,4,5,6,7,8,9,10
Correct M,true,true,true,true,true,true,true,true,true,true
Max Depth,16408,16408,16408,16408,16408,16408,16408,16408,16408,16408
Max Tests,16408,16408,16408,16408,16408,16408,16408,16408,16408,16408
EQ Queries,8,9,8,9,9,8,8,6,8,8
MQ Tests,478,386,347,427,434,512,543,366,397,427
EQ Tests,29951,17997,23131,20364,33061,35937,26967,16414,16481,31534
ALL Tests,30429,18383,23478,20791,33495,36449,27510,16780,16878,31961
MQ Steps,2144,1640,1549,1952,1962,2300,2948,1822,1733,2081
EQ Steps,338332,191661,251472,209663,376156,420726,291481,206556,177165,426097
ALL Steps,340476,193301,253021,211615,378118,423026,294429,208378,178898,428178
