Seed,1,2,3,4,5,6,7,8,9,10
Correct M,true,true,true,true,true,true,true,true,true,true
Max Depth,17054,17054,17054,17054,17054,17054,17054,17054,17054,17054
Max Tests,17054,17054,17054,17054,17054,17054,17054,17054,17054,17054
EQ Queries,7,7,5,7,6,7,6,8,7,8
MQ Tests,144,129,163,139,167,150,216,166,126,126
EQ Tests,19644,17786,18443,22704,31525,24478,17798,19907,34330,17244
ALL Tests,19788,17915,18606,22843,31692,24628,18014,20073,34456,17370
MQ Steps,677,634,775,648,757,681,958,803,714,615
EQ Steps,144652,129670,135483,165774,228452,178678,131168,145142,247841,125892
ALL Steps,145329,130304,136258,166422,229209,179359,132126,145945,248555,126507
