Seed,1,2,3,4,5,6,7,8,9,10
Correct M,true,true,true,true,true,true,true,true,true,true
Max Depth,1445814,1445814,1445814,1445814,1445814,1445814,1445814,1445814,1445814,1445814
Max Tests,1445814,1445814,1445814,1445814,1445814,1445814,1445814,1445814,1445814,1445814
EQ Queries,22,21,24,22,19,26,22,20,23,21
MQ Tests,3057,3379,4227,3852,2953,3553,3301,3060,3420,3020
EQ Tests,1466289,2961552,1512720,2135070,1659592,1511354,1615871,1544230,1618900,1809974
ALL Tests,1469346,2964931,1516947,2138922,1662545,1514907,1619172,1547290,1622320,1812994
MQ Steps,21968,22652,28260,27439,19758,23798,22769,23078,22430,21012
EQ Steps,13109069,25869856,13515854,18952209,14735003,13506944,14379230,13807339,14429835,16025398
ALL Steps,13131037,25892508,13544114,18979648,14754761,13530742,14401999,13830417,14452265,16046410
