Seed,1,2,3,4,5,6,7,8,9,10
Correct M,true,true,true,true,true,true,true,true,true,true
Max Depth,1,1,1,1,1,1,1,1,1,1
Max Tests,1,1,1,1,1,1,1,1,1,1
EQ Queries,1,1,1,1,1,1,1,1,1,1
MQ Tests,343,343,343,343,343,343,343,343,343,343
EQ Tests,1,1,1,1,1,1,1,1,1,1
ALL Tests,344,344,344,344,344,344,344,344,344,344
MQ Steps,1253,1253,1253,1253,1253,1253,1253,1253,1253,1253
EQ Steps,34,33,22,29,45,28,46,30,39,23
ALL Steps,1287,1286,1275,1282,1298,1281,1299,1283,1292,1276
