Seed,1,2,3,4,5,6,7,8,9,10
Correct M,true,true,true,true,true,true,true,true,true,true
Max Depth,671,671,671,671,671,671,671,671,671,671
Max Tests,671,671,671,671,671,671,671,671,671,671
EQ Queries,7,6,5,6,6,5,6,7,7,7
MQ Tests,115,108,143,109,100,105,107,112,117,114
EQ Tests,677,800,718,717,677,713,715,691,677,725
ALL Tests,792,908,861,826,777,818,822,803,794,839
MQ Steps,525,492,595,505,449,458,488,520,542,534
EQ Steps,18503,12468,11090,10890,10841,12008,11036,11669,15355,11997
ALL Steps,19028,12960,11685,11395,11290,12466,11524,12189,15897,12531
