Seed,1,2,3,4,5,6,7,8,9,10
Correct M,true,true,true,true,true,true,true,true,true,true
Max Depth,607970,607970,607970,607970,607970,607970,607970,607970,607970,607970
Max Tests,607970,607970,607970,607970,607970,607970,607970,607970,607970,607970
EQ Queries,19,19,20,19,18,17,20,16,21,19
MQ Tests,1640,1806,1958,1873,1766,1551,1595,1606,2135,2004
EQ Tests,1026809,1238545,862856,1297226,713325,1161078,760124,706386,781056,725600
ALL Tests,1028449,1240351,864814,1299099,715091,1162629,761719,707992,783191,727604
MQ Steps,12940,12702,16751,12117,12359,10597,11211,10928,13089,14185
EQ Steps,9011093,10819370,7609497,11404543,6348179,10155632,6733229,6282433,6944384,6427258
ALL Steps,9024033,10832072,7626248,11416660,6360538,10166229,6744440,6293361,6957473,6441443
