Seed,1,2,3,4,5,6,7,8,9,10
Correct M,true,true,true,true,true,true,true,true,true,true
Max Depth,8098,8098,8098,8098,8098,8098,8098,8098,8098,8098
Max Tests,8098,8098,8098,8098,8098,8098,8098,8098,8098,8098
EQ Queries,4,5,4,4,4,4,5,5,4,4
MQ Tests,189,239,193,191,190,190,241,239,190,190
EQ Tests,16230,10293,16682,12260,14347,8837,12289,9587,8219,9132
ALL Tests,16419,10532,16875,12451,14537,9027,12530,9826,8409,9322
MQ Steps,2106,2566,4288,3311,2415,3028,5767,4551,4349,3132
EQ Steps,485905,308246,499680,369591,429578,265531,369648,288377,245343,273865
ALL Steps,488011,310812,503968,372902,431993,268559,375415,292928,249692,276997
