Seed,1,2,3,4,5,6,7,8,9,10
Correct M,true,true,true,true,true,true,true,true,true,true
Max Depth,1,1,1,1,1,1,1,1,1,1
Max Tests,1,1,1,1,1,1,1,1,1,1
EQ Queries,1,1,1,1,1,1,1,1,1,1
MQ Tests,343,343,343,343,343,343,343,343,343,343
EQ Tests,1,1,1,1,1,1,1,1,1,1
ALL Tests,344,344,344,344,344,344,344,344,344,344
MQ Steps,1253,1253,1253,1253,1253,1253,1253,1253,1253,1253
EQ Steps,33,40,38,26,23,31,28,16,13,21
ALL Steps,1286,1293,1291,1279,1276,1284,1281,1269,1266,1274
