Seed,1,2,3,4,5,6,7,8,9,10
Correct M,true,true,true,true,true,true,true,true,true,true
Max Depth,12710,12710,12710,12710,12710,12710,12710,12710,12710,12710
Max Tests,12710,12710,12710,12710,12710,12710,12710,12710,12710,12710
EQ Queries,8,8,9,10,9,6,8,7,10,9
MQ Tests,212,168,195,196,170,225,187,169,195,174
EQ Tests,21434,14535,13075,21515,18638,12783,17056,25737,23918,13468
ALL Tests,21646,14703,13270,21711,18808,13008,17243,25906,24113,13642
MQ Steps,1045,786,929,989,857,1045,896,850,981,879
EQ Steps,670809,447596,407500,662783,574621,395369,523320,795917,739056,419249
ALL Steps,671854,448382,408429,663772,575478,396414,524216,796767,740037,420128
