Seed,1,2,3,4,5,6,7,8,9,10
Correct M,true,true,true,true,true,true,true,true,true,true
Max Depth,6159,6159,6159,6159,6159,6159,6159,6159,6159,6159
Max Tests,6159,6159,6159,6159,6159,6159,6159,6159,6159,6159
EQ Queries,8,6,6,8,7,7,8,8,8,7
MQ Tests,268,301,240,238,239,239,241,267,239,242
EQ Tests,6715,7036,6943,17870,7161,8562,12800,10306,11869,7067
ALL Tests,6983,7337,7183,18108,7400,8801,13041,10573,12108,7309
MQ Steps,983,1106,938,861,936,878,874,980,868,946
EQ Steps,46648,47630,48631,116116,49399,58727,83007,70192,77944,48473
ALL Steps,47631,48736,49569,116977,50335,59605,83881,71172,78812,49419
