Seed,1,2,3,4,5,6,7,8,9,10
Correct M,true,true,true,true,true,true,true,true,true,true
Max Depth,5806,5806,5806,5806,5806,5806,5806,5806,5806,5806
Max Tests,5806,5806,5806,5806,5806,5806,5806,5806,5806,5806
EQ Queries,8,6,7,7,7,6,6,7,8,6
MQ Tests,139,104,134,101,117,101,102,134,115,145
EQ Tests,10583,11755,12594,9817,11275,7227,8218,7427,10658,6923
ALL Tests,10722,11859,12728,9918,11392,7328,8320,7561,10773,7068
MQ Steps,613,471,582,430,531,433,444,577,524,675
EQ Steps,330425,362224,391521,306124,349508,221733,254910,225964,332232,217400
ALL Steps,331038,362695,392103,306554,350039,222166,255354,226541,332756,218075
