Seed,1,2,3,4,5,6,7,8,9,10
Correct M,true,true,true,true,true,true,true,true,true,true
Max Depth,191,191,191,191,191,191,191,191,191,191
Max Tests,191,191,191,191,191,191,191,191,191,191
EQ Queries,6,6,6,5,6,5,4,5,6,6
MQ Tests,70,65,88,62,86,109,87,61,72,70
EQ Tests,224,243,237,206,227,214,194,207,214,221
ALL Tests,294,308,325,268,313,323,281,268,286,291
MQ Steps,280,253,323,232,314,387,319,225,293,277
EQ Steps,4394,5161,5427,4280,5166,4371,5844,4793,4745,4851
ALL Steps,4674,5414,5750,4512,5480,4758,6163,5018,5038,5128
