Seed,1,2,3,4,5,6,7,8,9,10
Correct M,true,true,true,true,true,true,true,true,true,true
Max Depth,35713,35713,35713,35713,35713,35713,35713,35713,35713,35713
Max Tests,35713,35713,35713,35713,35713,35713,35713,35713,35713,35713
EQ Queries,2,2,2,2,2,2,2,2,2,2
MQ Tests,1835,2402,3536,3284,3473,1394,2150,3410,2024,3221
EQ Tests,39283,37195,39607,43701,36324,36865,46306,56868,71426,59544
ALL Tests,41118,39597,43143,46985,39797,38259,48456,60278,73450,62765
MQ Steps,20421,38754,88083,75357,84807,12042,30564,81594,25335,72333
EQ Steps,1176174,1114391,1190230,1312494,1091017,1107848,1388205,1706375,2143100,1784291
ALL Steps,1196595,1153145,1278313,1387851,1175824,1119890,1418769,1787969,2168435,1856624
