Seed,1,2,3,4,5,6,7,8,9,10
Correct M,true,true,true,true,true,true,true,true,true,true
Max Depth,14176,14176,14176,14176,14176,14176,14176,14176,14176,14176
Max Tests,14176,14176,14176,14176,14176,14176,14176,14176,14176,14176
EQ Queries,20,17,17,17,21,22,18,23,18,20
MQ Tests,1958,1753,1722,1311,1753,1911,1842,2172,1758,1736
EQ Tests,14623,15423,15368,14690,16051,17038,15513,16702,15525,28820
ALL Tests,16581,17176,17090,16001,17804,18949,17355,18874,17283,30556
MQ Steps,12781,11915,11558,9083,12275,13566,12657,15456,12074,11144
EQ Steps,247445,249915,256861,252027,270616,278064,257948,276566,261339,479561
ALL Steps,260226,261830,268419,261110,282891,291630,270605,292022,273413,490705
