Seed,1,2,3,4,5,6,7,8,9,10
Correct M,true,true,true,true,true,true,true,true,true,true
Max Depth,36,36,36,36,36,36,36,36,36,36
Max Tests,36,36,36,36,36,36,36,36,36,36
EQ Queries,2,2,2,2,2,2,2,2,2,2
MQ Tests,764,827,827,890,701,890,764,701,890,764
EQ Tests,37,37,38,37,37,37,37,55,37,37
ALL Tests,801,864,865,927,738,927,801,756,927,801
MQ Steps,3537,3789,3789,4734,3033,4356,3537,3033,4356,3537
EQ Steps,535,436,491,449,573,514,546,806,494,479
ALL Steps,4072,4225,4280,5183,3606,4870,4083,3839,4850,4016
