Seed,1,2,3,4,5,6,7,8,9,10
Correct M,true,true,true,true,true,true,true,true,true,true
Max Depth,9645,9645,9645,9645,9645,9645,9645,9645,9645,9645
Max Tests,9645,9645,9645,9645,9645,9645,9645,9645,9645,9645
EQ Queries,5,5,6,6,6,5,6,5,6,5
MQ Tests,136,152,147,164,143,161,173,174,174,181
EQ Tests,10187,10777,11837,10469,10132,10259,9995,19302,14187,12011
ALL Tests,10323,10929,11984,10633,10275,10420,10168,19476,14361,12192
MQ Steps,430,578,525,633,494,572,619,687,613,793
EQ Steps,304719,322861,353431,315617,303922,309144,302007,580467,424638,359774
ALL Steps,305149,323439,353956,316250,304416,309716,302626,581154,425251,360567
