Seed,1,2,3,4,5,6,7,8,9,10
Correct M,true,true,true,true,true,true,true,true,true,true
Max Depth,586,586,586,586,586,586,586,586,586,586
Max Tests,586,586,586,586,586,586,586,586,586,586
EQ Queries,5,7,7,6,6,7,5,8,5,6
MQ Tests,103,120,109,116,106,109,119,121,113,158
EQ Tests,741,881,1736,778,933,1060,649,1023,844,701
ALL Tests,844,1001,1845,894,1039,1169,768,1144,957,859
MQ Steps,512,625,482,728,478,492,615,584,545,714
EQ Steps,5317,6162,12664,5644,6883,7612,4950,7445,6138,5121
ALL Steps,5829,6787,13146,6372,7361,8104,5565,8029,6683,5835
