Seed,1,2,3,4,5,6,7,8,9,10
Correct M,true,true,true,true,true,true,true,true,true,true
Max Depth,60,60,60,60,60,60,60,60,60,60
Max Tests,60,60,60,60,60,60,60,60,60,60
EQ Queries,5,4,5,4,6,5,5,4,5,6
MQ Tests,226,181,230,182,275,226,229,182,231,274
EQ Tests,81,76,78,84,91,98,82,87,85,91
ALL Tests,307,257,308,266,366,324,311,269,316,365
MQ Steps,840,631,860,636,1024,840,856,636,817,1013
EQ Steps,1704,1657,1649,1881,1746,2253,1513,2166,1947,1691
ALL Steps,2544,2288,2509,2517,2770,3093,2369,2802,2764,2704
