Seed,1,2,3,4,5,6,7,8,9,10
Correct M,true,true,true,true,true,true,true,true,true,true
Max Depth,20076,20076,20076,20076,20076,20076,20076,20076,20076,20076
Max Tests,20076,20076,20076,20076,20076,20076,20076,20076,20076,20076
EQ Queries,6,5,5,6,6,7,5,5,5,6
MQ Tests,173,138,144,184,178,229,165,142,144,180
EQ Tests,20081,20108,20080,20086,20197,35610,40173,20099,20106,20083
ALL Tests,20254,20246,20224,20270,20375,35839,40338,20241,20250,20263
MQ Steps,624,472,585,798,677,772,634,547,558,732
EQ Steps,583050,364035,535051,326134,325274,634670,732094,360827,367642,327923
ALL Steps,583674,364507,535636,326932,325951,635442,732728,361374,368200,328655
