Seed,1,2,3,4,5,6,7,8,9,10
Correct M,true,true,true,true,true,true,true,true,true,true
Max Depth,1,1,1,1,1,1,1,1,1,1
Max Tests,1,1,1,1,1,1,1,1,1,1
EQ Queries,1,1,1,1,1,1,1,1,1,1
MQ Tests,741,741,741,741,741,741,741,741,741,741
EQ Tests,1,1,1,1,1,1,1,1,1,1
ALL Tests,742,742,742,742,742,742,742,742,742,742
MQ Steps,2509,2509,2509,2509,2509,2509,2509,2509,2509,2509
EQ Steps,3,5,4,6,3,8,8,4,10,4
ALL Steps,2512,2514,2513,2515,2512,2517,2517,2513,2519,2513
