Seed,1,2,3,4,5,6,7,8,9,10
Correct M,true,true,true,true,true,true,true,true,true,true
Max Depth,1,1,1,1,1,1,1,1,1,1
Max Tests,1,1,1,1,1,1,1,1,1,1
EQ Queries,1,1,1,1,1,1,1,1,1,1
MQ Tests,975,975,975,975,975,975,975,975,975,975
EQ Tests,1,1,1,1,1,1,1,1,1,1
ALL Tests,976,976,976,976,976,976,976,976,976,976
MQ Steps,3315,3315,3315,3315,3315,3315,3315,3315,3315,3315
EQ Steps,51,55,55,54,52,52,54,53,50,53
ALL Steps,3366,3370,3370,3369,3367,3367,3369,3368,3365,3368
