Seed,1,2,3,4,5,6,7,8,9,10
Correct M,true,true,true,true,true,true,true,true,true,true
Max Depth,418,418,418,418,418,418,418,418,418,418
Max Tests,418,418,418,418,418,418,418,418,418,418
EQ Queries,4,3,3,4,3,4,2,4,3,4
MQ Tests,220,136,202,216,134,218,83,215,216,216
EQ Tests,485,479,458,579,501,687,429,534,964,538
ALL Tests,705,615,660,795,635,905,512,749,1180,754
MQ Steps,1060,651,824,908,690,963,397,905,940,908
EQ Steps,2985,2908,2959,3715,2961,4143,2860,3081,5887,3290
ALL Steps,4045,3559,3783,4623,3651,5106,3257,3986,6827,4198
