Seed,1,2,3,4,5,6,7,8,9,10
Correct M,true,true,true,true,true,true,true,true,true,true
Max Depth,32,32,32,32,32,32,32,32,32,32
Max Tests,32,32,32,32,32,32,32,32,32,32
EQ Queries,4,4,4,4,4,4,4,4,4,4
MQ Tests,253,255,251,252,253,251,248,254,252,248
EQ Tests,35,48,40,40,41,50,64,36,48,50
ALL Tests,288,303,291,292,294,301,312,290,300,298
MQ Steps,953,969,867,920,903,878,892,953,936,861
EQ Steps,1746,2480,1973,2030,2019,2427,3241,1808,2380,2466
ALL Steps,2699,3449,2840,2950,2922,3305,4133,2761,3316,3327
