Seed,1,2,3,4,5,6,7,8,9,10
Correct M,true,true,true,true,true,true,true,true,true,true
Max Depth,12,12,12,12,12,12,12,12,12,12
Max Tests,12,12,12,12,12,12,12,12,12,12
EQ Queries,4,3,3,4,4,4,2,3,3,3
MQ Tests,209,125,140,244,209,250,96,136,128,139
EQ Tests,21,15,14,18,16,17,14,14,19,15
ALL Tests,230,140,154,262,225,267,110,150,147,154
MQ Steps,1081,662,748,1055,1059,1164,825,605,737,777
EQ Steps,970,713,686,859,753,798,723,658,962,747
ALL Steps,2051,1375,1434,1914,1812,1962,1548,1263,1699,1524
