Seed,1,2,3,4,5,6,7,8,9,10
Correct M,true,true,true,true,true,true,true,true,true,true
Max Depth,79,79,79,79,79,79,79,79,79,79
Max Tests,79,79,79,79,79,79,79,79,79,79
EQ Queries,3,3,2,3,2,4,4,4,4,3
MQ Tests,194,194,126,197,127,265,263,265,261,195
EQ Tests,94,92,86,84,90,176,99,128,104,88
ALL Tests,288,286,212,281,217,441,362,393,365,283
MQ Steps,835,1266,693,1098,777,1051,1286,1471,1145,983
EQ Steps,2870,2624,2218,2631,3557,5111,3426,3475,3086,2859
ALL Steps,3705,3890,2911,3729,4334,6162,4712,4946,4231,3842
