Seed,1,2,3,4,5,6,7,8,9,10
Correct M,true,true,true,true,true,true,true,true,true,true
Max Depth,28,28,28,28,28,28,28,28,28,28
Max Tests,28,28,28,28,28,28,28,28,28,28
EQ Queries,4,4,4,4,4,4,4,4,4,4
MQ Tests,184,188,190,183,185,186,183,189,188,187
EQ Tests,39,31,49,50,35,42,32,31,37,41
ALL Tests,223,219,239,233,220,228,215,220,225,228
MQ Steps,637,683,708,623,658,662,615,707,684,670
EQ Steps,1921,1548,2490,2459,1736,2073,1516,1564,1866,2042
ALL Steps,2558,2231,3198,3082,2394,2735,2131,2271,2550,2712
