Seed,1,2,3,4,5,6,7,8,9,10
Correct M,true,true,true,true,true,true,true,true,true,true
Max Depth,12,12,12,12,12,12,12,12,12,12
Max Tests,12,12,12,12,12,12,12,12,12,12
EQ Queries,3,3,4,4,3,4,3,3,4,4
MQ Tests,221,220,295,292,216,292,218,219,297,292
EQ Tests,17,21,21,19,14,22,14,14,18,16
ALL Tests,238,241,316,311,230,314,232,233,315,308
MQ Steps,1385,1320,1646,1190,791,1316,1357,1037,1329,1345
EQ Steps,858,1087,981,861,658,1034,656,695,895,737
ALL Steps,2243,2407,2627,2051,1449,2350,2013,1732,2224,2082
