Seed,1,2,3,4,5,6,7,8,9,10
Correct M,true,true,true,true,true,true,true,true,true,true
Max Depth,61,61,61,61,61,61,61,61,61,61
Max Tests,61,61,61,61,61,61,61,61,61,61
EQ Queries,4,4,3,3,3,3,4,3,3,4
MQ Tests,175,173,173,171,173,174,174,171,177,173
EQ Tests,79,75,64,123,64,82,70,122,78,69
ALL Tests,254,248,237,294,237,256,244,293,255,242
MQ Steps,640,615,604,606,604,633,626,588,667,605
EQ Steps,2373,2178,1918,3615,1828,2672,2239,3744,2175,2070
ALL Steps,3013,2793,2522,4221,2432,3305,2865,4332,2842,2675
