Seed,1,2,3,4,5,6,7,8,9,10
Correct M,true,true,true,true,true,true,true,true,true,true
Max Depth,122,122,122,122,122,122,122,122,122,122
Max Tests,122,122,122,122,122,122,122,122,122,122
EQ Queries,4,4,4,4,4,4,4,4,4,4
MQ Tests,232,278,272,296,230,235,293,332,229,230
EQ Tests,195,151,249,128,148,132,127,175,154,178
ALL Tests,427,429,521,424,378,367,420,507,383,408
MQ Steps,5150,8307,7588,8827,4767,4719,10418,12864,4350,4818
EQ Steps,6141,4626,7590,4017,5763,3989,4360,4594,4509,5996
ALL Steps,11291,12933,15178,12844,10530,8708,14778,17458,8859,10814
