Seed,1,2,3,4,5,6,7,8,9,10
Correct M,true,true,true,true,true,true,true,true,true,true
Max Depth,388,388,388,388,388,388,388,388,388,388
Max Tests,388,388,388,388,388,388,388,388,388,388
EQ Queries,4,4,3,2,4,4,4,3,4,4
MQ Tests,216,215,171,141,231,232,220,116,235,224
EQ Tests,851,531,522,391,492,556,520,432,454,598
ALL Tests,1067,746,693,532,723,788,740,548,689,822
MQ Steps,825,839,722,618,1004,1075,920,675,1128,831
EQ Steps,5059,3124,3202,2623,2899,3421,3284,2647,2847,3689
ALL Steps,5884,3963,3924,3241,3903,4496,4204,3322,3975,4520
