Seed,1,2,3,4,5,6,7,8,9,10
Correct M,true,true,true,true,true,true,true,true,true,true
Max Depth,61,61,61,61,61,61,61,61,61,61
Max Tests,61,61,61,61,61,61,61,61,61,61
EQ Queries,3,4,3,3,3,3,4,3,3,3
MQ Tests,116,178,136,177,173,92,177,173,111,104
EQ Tests,67,75,64,123,64,82,70,122,78,66
ALL Tests,183,253,200,300,237,174,247,295,189,170
MQ Steps,607,877,745,933,925,656,858,815,580,636
EQ Steps,2058,2178,1918,3615,1828,2672,2239,3744,2175,2003
ALL Steps,2665,3055,2663,4548,2753,3328,3097,4559,2755,2639
