Seed,1,2,3,4,5,6,7,8,9,10
Correct M,true,true,true,true,true,true,true,true,true,true
Max Depth,298,298,298,298,298,298,298,298,298,298
Max Tests,298,298,298,298,298,298,298,298,298,298
EQ Queries,3,3,4,3,4,3,3,3,3,4
MQ Tests,126,237,230,227,239,202,152,126,154,245
EQ Tests,339,367,332,398,482,634,330,467,472,611
ALL Tests,465,604,562,625,721,836,482,593,626,856
MQ Steps,787,877,940,878,965,887,875,624,656,1235
EQ Steps,2073,2135,2175,2624,2859,3897,2143,2707,2815,3689
ALL Steps,2860,3012,3115,3502,3824,4784,3018,3331,3471,4924
