Seed,1,2,3,4,5,6,7,8,9,10
Correct M,true,true,true,true,true,true,true,true,true,true
Max Depth,213,213,213,213,213,213,213,213,213,213
Max Tests,213,213,213,213,213,213,213,213,213,213
EQ Queries,4,4,4,3,3,4,3,4,3,4
MQ Tests,249,245,249,244,247,249,248,246,248,245
EQ Tests,290,301,512,279,330,373,273,349,364,473
ALL Tests,539,546,761,523,577,622,521,595,612,718
MQ Steps,870,823,884,822,834,850,847,829,859,827
EQ Steps,1782,1823,3039,1737,1873,2324,1769,1981,2153,2869
ALL Steps,2652,2646,3923,2559,2707,3174,2616,2810,3012,3696
