Seed,1,2,3,4,5,6,7,8,9,10
Correct M,true,true,true,true,true,true,true,true,true,true
Max Depth,412,412,412,412,412,412,412,412,412,412
Max Tests,412,412,412,412,412,412,412,412,412,412
EQ Queries,4,3,4,4,3,4,2,4,4,4
MQ Tests,274,204,274,276,204,277,134,274,277,273
EQ Tests,479,473,452,573,495,681,423,528,958,532
ALL Tests,753,677,726,849,699,958,557,802,1235,805
MQ Steps,2731,1787,2372,2019,1174,3138,668,1700,1883,1551
EQ Steps,2949,2878,2913,3682,2924,4108,2810,2997,5830,3269
ALL Steps,5680,4665,5285,5701,4098,7246,3478,4697,7713,4820
