Seed,1,2,3,4,5,6,7,8,9,10
Correct M,true,true,true,true,true,true,true,true,true,true
Max Depth,452,452,452,452,452,452,452,452,452,452
Max Tests,452,452,452,452,452,452,452,452,452,452
EQ Queries,4,4,3,3,4,4,4,4,4,4
MQ Tests,221,218,218,217,220,220,218,220,218,217
EQ Tests,915,595,586,907,556,620,584,793,518,662
ALL Tests,1136,813,804,1124,776,840,802,1013,736,879
MQ Steps,746,734,735,729,747,749,733,743,736,726
EQ Steps,5478,3568,3634,5707,3332,3851,3808,4776,3309,4064
ALL Steps,6224,4302,4369,6436,4079,4600,4541,5519,4045,4790
