Seed,1,2,3,4,5,6,7,8,9,10
Correct M,true,true,true,true,true,true,true,true,true,true
Max Depth,1,1,1,1,1,1,1,1,1,1
Max Tests,1,1,1,1,1,1,1,1,1,1
EQ Queries,1,1,1,1,1,1,1,1,1,1
MQ Tests,1104,1104,1104,1104,1104,1104,1104,1104,1104,1104
EQ Tests,1,1,1,1,1,1,1,1,1,1
ALL Tests,1105,1105,1105,1105,1105,1105,1105,1105,1105,1105
MQ Steps,3760,3760,3760,3760,3760,3760,3760,3760,3760,3760
EQ Steps,53,53,54,54,50,54,53,53,52,54
ALL Steps,3813,3813,3814,3814,3810,3814,3813,3813,3812,3814
