Seed,1,2,3,4,5,6,7,8,9,10
Correct M,true,true,true,true,true,true,true,true,true,true
Max Depth,7,7,7,7,7,7,7,7,7,7
Max Tests,7,7,7,7,7,7,7,7,7,7
EQ Queries,4,4,4,4,4,4,4,4,4,4
MQ Tests,281,293,204,262,238,231,262,228,266,224
EQ Tests,19,11,14,13,10,10,11,16,10,11
ALL Tests,300,304,218,275,248,241,273,244,276,235
MQ Steps,5911,6787,1652,4731,3564,3607,5333,2130,6134,2139
EQ Steps,837,501,605,587,403,435,507,692,466,454
ALL Steps,6748,7288,2257,5318,3967,4042,5840,2822,6600,2593
