Seed,1,2,3,4,5,6,7,8,9,10
Correct M,true,true,true,true,true,true,true,true,true,true
Max Depth,78,78,78,78,78,78,78,78,78,78
Max Tests,78,78,78,78,78,78,78,78,78,78
EQ Queries,3,4,4,3,4,4,2,4,4,3
MQ Tests,70,124,130,91,130,139,66,127,112,82
EQ Tests,89,91,139,88,102,114,81,165,103,111
ALL Tests,159,215,269,179,232,253,147,292,215,193
MQ Steps,430,483,625,439,533,757,382,551,538,430
EQ Steps,2783,2533,3739,2767,3985,3520,2924,4312,3192,3677
ALL Steps,3213,3016,4364,3206,4518,4277,3306,4863,3730,4107
