Seed,1,2,3,4,5,6,7,8,9,10
Correct M,true,true,true,true,true,true,true,true,true,true
Max Depth,1,1,1,1,1,1,1,1,1,1
Max Tests,1,1,1,1,1,1,1,1,1,1
EQ Queries,1,1,1,1,1,1,1,1,1,1
MQ Tests,854,854,854,854,854,854,854,854,854,854
EQ Tests,1,1,1,1,1,1,1,1,1,1
ALL Tests,855,855,855,855,855,855,855,855,855,855
MQ Steps,2898,2898,2898,2898,2898,2898,2898,2898,2898,2898
EQ Steps,33,40,38,26,23,31,28,16,13,21
ALL Steps,2931,2938,2936,2924,2921,2929,2926,2914,2911,2919
