Seed,1,2,3,4,5,6,7,8,9,10
Correct M,true,true,true,true,true,true,true,true,true,true
Max Depth,291,291,291,291,291,291,291,291,291,291
Max Tests,291,291,291,291,291,291,291,291,291,291
EQ Queries,3,4,4,3,3,3,4,4,4,4
MQ Tests,81,132,158,161,94,94,135,154,151,163
EQ Tests,591,421,390,399,347,303,410,416,418,521
ALL Tests,672,553,548,560,441,397,545,570,569,684
MQ Steps,380,521,625,854,397,464,558,653,582,759
EQ Steps,3568,2471,2451,2621,2023,2008,2611,2416,2598,3191
ALL Steps,3948,2992,3076,3475,2420,2472,3169,3069,3180,3950
