Seed,1,2,3,4,5,6,7,8,9,10
Correct M,true,true,true,true,true,true,true,true,true,true
Max Depth,148,148,148,148,148,148,148,148,148,148
Max Tests,148,148,148,148,148,148,148,148,148,148
EQ Queries,4,3,4,3,4,3,3,3,3,4
MQ Tests,218,160,216,161,217,161,161,159,159,219
EQ Tests,299,153,212,164,218,155,169,163,203,165
ALL Tests,517,313,428,325,435,316,330,322,362,384
MQ Steps,3387,1723,3146,1348,3308,3005,965,1024,1498,2230
EQ Steps,9006,4459,6192,4962,6503,4748,5121,4954,5787,5060
ALL Steps,12393,6182,9338,6310,9811,7753,6086,5978,7285,7290
