Seed,1,2,3,4,5,6,7,8,9,10
Correct M,true,true,true,true,true,true,true,true,true,true
Max Depth,36,36,36,36,36,36,36,36,36,36
Max Tests,36,36,36,36,36,36,36,36,36,36
EQ Queries,4,4,4,4,4,4,4,4,4,4
MQ Tests,215,215,210,212,213,209,211,214,212,213
EQ Tests,40,39,45,39,39,41,49,64,45,65
ALL Tests,255,254,255,251,252,250,260,278,257,278
MQ Steps,789,794,723,741,752,727,749,776,751,757
EQ Steps,1995,1958,2212,1881,1893,1998,2433,3256,2236,3302
ALL Steps,2784,2752,2935,2622,2645,2725,3182,4032,2987,4059
