Seed,1,2,3,4,5,6,7,8,9,10
Correct M,true,true,true,true,true,true,true,true,true,true
Max Depth,87,87,87,87,87,87,87,87,87,87
Max Tests,87,87,87,87,87,87,87,87,87,87
EQ Queries,3,4,3,4,4,2,2,4,4,3
MQ Tests,91,143,110,145,151,57,59,147,149,92
EQ Tests,127,103,96,158,180,90,90,101,132,96
ALL Tests,218,246,206,303,331,147,149,248,281,188
MQ Steps,681,635,532,635,779,302,331,669,649,336
EQ Steps,4117,2977,2431,4943,6715,2846,3067,2776,3947,3006
ALL Steps,4798,3612,2963,5578,7494,3148,3398,3445,4596,3342
