Seed,1,2,3,4,5,6,7,8,9,10
Correct M,true,true,true,true,true,true,true,true,true,true
Max Depth,1,1,1,1,1,1,1,1,1,1
Max Tests,1,1,1,1,1,1,1,1,1,1
EQ Queries,1,1,1,1,1,1,1,1,1,1
MQ Tests,1386,1386,1386,1386,1386,1386,1386,1386,1386,1386
EQ Tests,2,2,2,2,2,2,2,2,2,2
ALL Tests,1388,1388,1388,1388,1388,1388,1388,1388,1388,1388
MQ Steps,4734,4734,4734,4734,4734,4734,4734,4734,4734,4734
EQ Steps,5,4,92,5,10,7,26,10,64,34
ALL Steps,4739,4738,4826,4739,4744,4741,4760,4744,4798,4768
