Seed,1,2,3,4,5,6,7,8,9,10
Correct M,true,true,true,true,true,true,true,true,true,true
Max Depth,24,24,24,24,24,24,24,24,24,24
Max Tests,24,24,24,24,24,24,24,24,24,24
EQ Queries,4,4,4,4,4,4,4,4,4,4
MQ Tests,159,164,163,159,160,158,159,159,163,163
EQ Tests,37,38,40,30,37,27,45,28,31,27
ALL Tests,196,202,203,189,197,185,204,187,194,190
MQ Steps,560,643,620,569,572,565,573,563,596,616
EQ Steps,1803,1913,2012,1481,1813,1294,2240,1364,1539,1357
ALL Steps,2363,2556,2632,2050,2385,1859,2813,1927,2135,1973
