Seed,1,2,3,4,5,6,7,8,9,10
Correct M,true,true,true,true,true,true,true,true,true,true
Max Depth,1,1,1,1,1,1,1,1,1,1
Max Tests,1,1,1,1,1,1,1,1,1,1
EQ Queries,1,1,1,1,1,1,1,1,1,1
MQ Tests,1386,1386,1386,1386,1386,1386,1386,1386,1386,1386
EQ Tests,1,1,1,1,1,1,1,1,1,1
ALL Tests,1387,1387,1387,1387,1387,1387,1387,1387,1387,1387
MQ Steps,4734,4734,4734,4734,4734,4734,4734,4734,4734,4734
EQ Steps,33,40,38,26,23,31,28,16,13,21
ALL Steps,4767,4774,4772,4760,4757,4765,4762,4750,4747,4755
