Seed,1,2,3,4,5,6,7,8,9,10
Correct M,true,true,true,true,true,true,true,true,true,true
Max Depth,1,1,1,1,1,1,1,1,1,1
Max Tests,1,1,1,1,1,1,1,1,1,1
EQ Queries,1,1,1,1,1,1,1,1,1,1
MQ Tests,1539,1539,1539,1539,1539,1539,1539,1539,1539,1539
EQ Tests,1,1,1,1,1,1,1,1,1,1
ALL Tests,1540,1540,1540,1540,1540,1540,1540,1540,1540,1540
MQ Steps,5263,5263,5263,5263,5263,5263,5263,5263,5263,5263
EQ Steps,52,54,53,53,53,52,53,50,55,52
ALL Steps,5315,5317,5316,5316,5316,5315,5316,5313,5318,5315
