Seed,1,2,3,4,5,6,7,8,9,10
Correct M,true,true,true,true,true,true,true,true,true,true
Max Depth,122,122,122,122,122,122,122,122,122,122
Max Tests,122,122,122,122,122,122,122,122,122,122
EQ Queries,4,4,4,3,3,2,3,2,4,3
MQ Tests,163,158,166,100,86,64,88,64,165,106
EQ Tests,195,151,249,128,148,125,127,132,154,137
ALL Tests,358,309,415,228,234,189,215,196,319,243
MQ Steps,749,766,847,547,571,311,674,313,847,556
EQ Steps,6141,4626,7590,4017,5763,3868,4360,3617,4509,4671
ALL Steps,6890,5392,8437,4564,6334,4179,5034,3930,5356,5227
