Seed,1,2,3,4,5,6,7,8,9,10
Correct M,true,true,true,true,true,true,true,true,true,true
Max Depth,36,36,36,36,36,36,36,36,36,36
Max Tests,36,36,36,36,36,36,36,36,36,36
EQ Queries,4,3,4,3,4,4,3,3,3,4
MQ Tests,231,148,234,141,237,232,145,118,145,233
EQ Tests,50,38,39,40,42,40,56,49,39,49
ALL Tests,281,186,273,181,279,272,201,167,184,282
MQ Steps,1001,947,1127,673,1207,1073,1151,857,681,1067
EQ Steps,2474,1938,1925,1997,2114,1992,2885,2510,1986,2455
ALL Steps,3475,2885,3052,2670,3321,3065,4036,3367,2667,3522
