Seed,1,2,3,4,5,6,7,8,9,10
Correct M,true,true,true,true,true,true,true,true,true,true
Max Depth,12,12,12,12,12,12,12,12,12,12
Max Tests,12,12,12,12,12,12,12,12,12,12
EQ Queries,4,4,4,4,4,4,4,4,4,4
MQ Tests,186,185,183,187,187,187,187,184,188,186
EQ Tests,25,18,16,24,18,16,16,16,19,19
ALL Tests,211,203,199,211,205,203,203,200,207,205
MQ Steps,659,648,624,669,670,673,702,640,690,663
EQ Steps,1128,813,708,1109,835,758,773,730,861,874
ALL Steps,1787,1461,1332,1778,1505,1431,1475,1370,1551,1537
