Seed,1,2,3,4,5,6,7,8,9,10
Correct M,true,true,true,true,true,true,true,true,true,true
Max Depth,138,138,138,138,138,138,138,138,138,138
Max Tests,138,138,138,138,138,138,138,138,138,138
EQ Queries,4,4,4,4,4,4,4,4,4,4
MQ Tests,227,229,223,225,226,228,228,225,228,227
EQ Tests,175,183,226,229,186,164,166,290,160,159
ALL Tests,402,412,449,454,412,392,394,515,388,386
MQ Steps,808,896,771,823,805,889,885,789,867,834
EQ Steps,5679,5545,6675,7082,6790,4849,5648,8571,4602,5114
ALL Steps,6487,6441,7446,7905,7595,5738,6533,9360,5469,5948
