Seed,1,2,3,4,5,6,7,8,9,10
Correct M,true,true,true,true,true,true,true,true,true,true
Max Depth,564,564,564,564,564,564,564,564,564,564
Max Tests,564,564,564,564,564,564,564,564,564,564
EQ Queries,3,3,3,3,3,3,3,3,2,3
MQ Tests,3407,2287,2287,3807,2327,2687,3567,1287,2247,3447
EQ Tests,742,662,665,892,688,972,591,733,565,651
ALL Tests,4149,2949,2952,4699,3015,3659,4158,2020,2812,4098
MQ Steps,77580,35060,36820,91840,49910,48640,82340,12250,58410,81430
EQ Steps,33628,30790,30498,42105,31154,44874,28589,34215,28637,30234
ALL Steps,111208,65850,67318,133945,81064,93514,110929,46465,87047,111664
