Seed,1,2,3,4,5,6,7,8,9,10
Correct M,true,true,true,true,true,true,true,true,true,true
Max Depth,5,5,5,5,5,5,5,5,5,5
Max Tests,5,5,5,5,5,5,5,5,5,5
EQ Queries,4,3,4,4,4,4,4,4,4,4
MQ Tests,47,38,47,42,48,48,48,46,44,45
EQ Tests,11,9,10,9,12,10,11,10,9,13
ALL Tests,58,47,57,51,60,58,59,56,53,58
MQ Steps,253,129,179,159,210,232,211,179,192,177
EQ Steps,421,117,142,205,250,161,208,100,165,212
ALL Steps,674,246,321,364,460,393,419,279,357,389
