Seed,1,2,3,4,5,6,7,8,9,10
Correct M,true,true,true,true,true,true,true,true,true,true
Max Depth,96,96,96,96,96,96,96,96,96,96
Max Tests,96,96,96,96,96,96,96,96,96,96
EQ Queries,4,4,4,5,4,4,4,4,4,4
MQ Tests,360,361,360,452,356,360,360,360,359,359
EQ Tests,177,114,143,102,130,154,157,99,158,114
ALL Tests,537,475,503,554,486,514,517,459,517,473
MQ Steps,1429,1483,1475,1840,1388,1563,1494,1464,1406,1447
EQ Steps,8390,5419,6615,4634,6267,6900,7486,4354,7444,5235
ALL Steps,9819,6902,8090,6474,7655,8463,8980,5818,8850,6682
