Seed,1,2,3,4,5,6,7,8,9,10
Correct M,true,true,true,true,true,true,true,true,true,true
Max Depth,449,449,449,449,449,449,449,449,449,449
Max Tests,449,449,449,449,449,449,449,449,449,449
EQ Queries,4,5,5,4,5,4,5,5,5,3
MQ Tests,442,391,365,373,474,366,384,358,368,216
EQ Tests,463,605,745,503,583,902,647,623,953,452
ALL Tests,905,996,1110,876,1057,1268,1031,981,1321,668
MQ Steps,17261,7297,6632,11789,16642,14019,6761,6215,5474,2820
EQ Steps,14316,18091,22840,15696,18355,27747,21653,19145,30513,14447
ALL Steps,31577,25388,29472,27485,34997,41766,28414,25360,35987,17267
