Seed,1,2,3,4,5,6,7,8,9,10
Correct M,true,true,true,true,true,true,true,true,true,true
Max Depth,852,852,852,852,852,852,852,852,852,852
Max Tests,852,852,852,852,852,852,852,852,852,852
EQ Queries,4,4,4,4,4,4,4,4,4,4
MQ Tests,352,355,355,357,353,353,355,352,355,353
EQ Tests,1333,1463,1954,1533,1406,931,1259,903,1503,1644
ALL Tests,1685,1818,2309,1890,1759,1284,1614,1255,1858,1997
MQ Steps,2284,2491,2468,2758,2194,2199,3267,2704,3444,2195
EQ Steps,9063,9759,13392,10485,9613,6303,8806,6253,10503,11329
ALL Steps,11347,12250,15860,13243,11807,8502,12073,8957,13947,13524
