Seed,1,2,3,4,5,6,7,8,9,10
Correct M,true,true,true,true,true,true,true,true,true,true
Max Depth,39,39,39,39,39,39,39,39,39,39
Max Tests,39,39,39,39,39,39,39,39,39,39
EQ Queries,4,4,5,4,4,4,4,4,4,5
MQ Tests,295,355,361,332,279,306,297,297,387,344
EQ Tests,45,50,73,42,45,59,52,43,43,69
ALL Tests,340,405,434,374,324,365,349,340,430,413
MQ Steps,4110,8234,5620,6237,8331,6146,5596,4284,12069,4201
EQ Steps,2211,2405,3448,2087,2248,2960,2530,1995,2147,3286
ALL Steps,6321,10639,9068,8324,10579,9106,8126,6279,14216,7487
