Seed,1,2,3,4,5,6,7,8,9,10
Correct M,true,true,true,true,true,true,true,true,true,true
Max Depth,3,3,3,3,3,3,3,3,3,3
Max Tests,3,3,3,3,3,3,3,3,3,3
EQ Queries,4,5,4,4,4,4,4,4,5,5
MQ Tests,109,158,81,140,178,83,113,88,191,201
EQ Tests,6,9,7,6,8,6,6,6,8,7
ALL Tests,115,167,88,146,186,89,119,94,199,208
MQ Steps,751,2262,602,2818,2772,592,1581,698,2959,4084
EQ Steps,181,324,209,227,267,178,221,172,285,213
ALL Steps,932,2586,811,3045,3039,770,1802,870,3244,4297
