Seed,1,2,3,4,5,6,7,8,9,10
Correct M,true,true,true,true,true,true,true,true,true,true
Max Depth,160,160,160,160,160,160,160,160,160,160
Max Tests,160,160,160,160,160,160,160,160,160,160
EQ Queries,6,6,7,6,7,6,6,7,7,6
MQ Tests,525,524,616,526,611,522,523,610,617,527
EQ Tests,414,378,518,214,342,373,440,391,242,327
ALL Tests,939,902,1134,740,953,895,963,1001,859,854
MQ Steps,6173,4730,6542,6089,8669,5952,4925,5230,6533,7175
EQ Steps,12987,11010,15855,6715,11336,10855,14678,11744,7087,10917
ALL Steps,19160,15740,22397,12804,20005,16807,19603,16974,13620,18092
