Seed,1,2,3,4,5,6,7,8,9,10
Correct M,true,true,true,true,true,true,true,true,true,true
Max Depth,24,24,24,24,24,24,24,24,24,24
Max Tests,24,24,24,24,24,24,24,24,24,24
EQ Queries,6,5,6,6,6,6,6,6,6,6
MQ Tests,328,330,331,319,331,325,362,326,331,327
EQ Tests,41,34,55,42,44,35,43,32,31,32
ALL Tests,369,364,386,361,375,360,405,358,362,359
MQ Steps,1929,1962,1984,1862,2005,1843,2094,1907,1948,1844
EQ Steps,1957,1606,2509,1923,2132,1542,2020,1529,1534,1547
ALL Steps,3886,3568,4493,3785,4137,3385,4114,3436,3482,3391
