Seed,1,2,3,4,5,6,7,8,9,10
Correct M,true,true,true,true,true,true,true,true,true,true
Max Depth,349,349,349,349,349,349,349,349,349,349
Max Tests,349,349,349,349,349,349,349,349,349,349
EQ Queries,5,5,4,5,5,6,4,5,4,6
MQ Tests,210,254,241,254,220,220,220,257,210,258
EQ Tests,453,553,740,641,627,619,453,545,510,439
ALL Tests,663,807,981,895,847,839,673,802,720,697
MQ Steps,2685,2704,1805,2581,1937,2463,2162,2146,2202,2262
EQ Steps,13518,16693,22385,19781,18866,18501,13597,16274,14599,13492
ALL Steps,16203,19397,24190,22362,20803,20964,15759,18420,16801,15754
