Seed,1,2,3,4,5,6,7,8,9,10
Correct M,true,true,true,true,true,true,true,true,true,true
Max Depth,24,24,24,24,24,24,24,24,24,24
Max Tests,24,24,24,24,24,24,24,24,24,24
EQ Queries,5,6,6,6,6,6,6,6,6,6
MQ Tests,282,320,285,315,292,293,318,315,291,291
EQ Tests,29,47,32,48,60,32,53,33,32,36
ALL Tests,311,367,317,363,352,325,371,348,323,327
MQ Steps,1556,1790,1590,1689,1707,1688,1819,1701,1699,1657
EQ Steps,1378,2295,1542,2374,3070,1531,2641,1584,1540,1753
ALL Steps,2934,4085,3132,4063,4777,3219,4460,3285,3239,3410
