Seed,1,2,3,4,5,6,7,8,9,10
Correct M,true,true,true,true,true,true,true,true,true,true
Max Depth,1288,1288,1288,1288,1288,1288,1288,1288,1288,1288
Max Tests,1288,1288,1288,1288,1288,1288,1288,1288,1288,1288
EQ Queries,5,6,4,4,5,4,5,6,6,6
MQ Tests,249,252,289,248,249,277,249,246,246,250
EQ Tests,1857,1794,1588,1411,1827,2290,2079,2671,1518,1785
ALL Tests,2106,2046,1877,1659,2076,2567,2328,2917,1764,2035
MQ Steps,1404,1425,1908,1373,1387,1482,1328,1376,1318,1388
EQ Steps,14686,14070,12869,11670,14723,17577,16704,20161,12455,14372
ALL Steps,16090,15495,14777,13043,16110,19059,18032,21537,13773,15760
