Seed,1,2,3,4,5,6,7,8,9,10
Correct M,true,true,true,true,true,true,true,true,true,true
Max Depth,8,8,8,8,8,8,8,8,8,8
Max Tests,8,8,8,8,8,8,8,8,8,8
EQ Queries,2,4,4,2,3,2,3,4,4,4
MQ Tests,116,174,126,94,186,123,84,82,79,198
EQ Tests,9,13,18,9,10,9,10,15,13,15
ALL Tests,125,187,144,103,196,132,94,97,92,213
MQ Steps,1870,2890,2217,1150,3644,2267,710,510,813,3715
EQ Steps,289,354,551,258,293,281,312,407,336,522
ALL Steps,2159,3244,2768,1408,3937,2548,1022,917,1149,4237
