Seed,1,2,3,4,5,6,7,8,9,10
Correct M,true,true,true,true,true,true,true,true,true,true
Max Depth,2254,2254,2254,2254,2254,2254,2254,2254,2254,2254
Max Tests,2254,2254,2254,2254,2254,2254,2254,2254,2254,2254
EQ Queries,5,6,5,4,6,6,6,5,6,6
MQ Tests,301,316,267,292,252,245,256,228,294,250
EQ Tests,2655,2788,2530,4534,3680,2477,3214,2960,3365,4658
ALL Tests,2956,3104,2797,4826,3932,2722,3470,3188,3659,4908
MQ Steps,2039,2443,2561,1940,2336,1842,1887,1789,1794,1895
EQ Steps,21844,23332,20869,35791,29043,20406,26788,23514,26971,34979
ALL Steps,23883,25775,23430,37731,31379,22248,28675,25303,28765,36874
