Seed,1,2,3,4,5,6,7,8,9,10
Correct M,true,true,true,true,true,true,true,true,true,true
Max Depth,2244,2244,2244,2244,2244,2244,2244,2244,2244,2244
Max Tests,2244,2244,2244,2244,2244,2244,2244,2244,2244,2244
EQ Queries,5,6,6,4,6,5,6,5,6,6
MQ Tests,390,400,393,396,399,388,388,394,384,384
EQ Tests,2645,2778,2548,4524,3670,2467,3204,2950,3355,4648
ALL Tests,3035,3178,2941,4920,4069,2855,3592,3344,3739,5032
MQ Steps,2091,2356,2144,2264,2321,2197,2060,2263,2120,2029
EQ Steps,21776,22937,20985,35702,28898,20324,26669,23427,26898,34883
ALL Steps,23867,25293,23129,37966,31219,22521,28729,25690,29018,36912
