Seed,1,2,3,4,5,6,7,8,9,10
Correct M,true,true,true,true,true,true,true,true,true,true
Max Depth,263,263,263,263,263,263,263,263,263,263
Max Tests,263,263,263,263,263,263,263,263,263,263
EQ Queries,5,7,5,6,6,6,7,6,6,7
MQ Tests,870,638,649,1264,689,558,812,677,647,667
EQ Tests,386,589,331,396,391,494,460,417,434,480
ALL Tests,1256,1227,980,1660,1080,1052,1272,1094,1081,1147
MQ Steps,25479,16202,13901,84645,18428,11608,23015,16535,12611,20030
EQ Steps,12117,17675,10201,11956,12683,14507,15602,12708,13593,15065
ALL Steps,37596,33877,24102,96601,31111,26115,38617,29243,26204,35095
