Seed,1,2,3,4,5,6,7,8,9,10
Correct M,true,true,true,true,true,true,true,true,true,true
Max Depth,3,3,3,3,3,3,3,3,3,3
Max Tests,3,3,3,3,3,3,3,3,3,3
EQ Queries,4,3,4,3,4,4,4,3,5,5
MQ Tests,99,74,98,76,100,97,99,68,127,127
EQ Tests,6,5,7,5,8,6,6,5,8,7
ALL Tests,105,79,105,81,108,103,105,73,135,134
MQ Steps,407,303,508,332,540,442,481,231,576,649
EQ Steps,181,194,209,199,267,178,221,161,285,213
ALL Steps,588,497,717,531,807,620,702,392,861,862
