Seed,1,2,3,4,5,6,7,8,9,10
Correct M,true,true,true,true,true,true,true,true,true,true
Max Depth,65,65,65,65,65,65,65,65,65,65
Max Tests,65,65,65,65,65,65,65,65,65,65
EQ Queries,7,6,6,5,6,6,4,6,6,5
MQ Tests,143,117,111,138,115,108,115,148,146,120
EQ Tests,161,148,133,83,91,113,73,123,143,73
ALL Tests,304,265,244,221,206,221,188,271,289,193
MQ Steps,1019,975,835,985,831,876,984,1146,1035,827
EQ Steps,5050,4451,3435,2497,3580,3504,2458,3327,4203,2118
ALL Steps,6069,5426,4270,3482,4411,4380,3442,4473,5238,2945
