Seed,1,2,3,4,5,6,7,8,9,10
Correct M,true,true,true,true,true,true,true,true,true,true
Max Depth,281,281,281,281,281,281,281,281,281,281
Max Tests,281,281,281,281,281,281,281,281,281,281
EQ Queries,4,6,4,5,5,4,5,5,4,6
MQ Tests,159,174,173,161,158,170,208,199,176,155
EQ Tests,422,324,411,402,326,350,617,313,473,381
ALL Tests,581,498,584,563,484,520,825,512,649,536
MQ Steps,1691,1579,1659,1643,1600,1586,1952,1726,1769,1689
EQ Steps,12503,9788,12521,12292,9777,10494,18765,9507,13601,11584
ALL Steps,14194,11367,14180,13935,11377,12080,20717,11233,15370,13273
