Seed,1,2,3,4,5,6,7,8,9,10
Correct M,true,true,true,true,true,true,true,true,true,true
Max Depth,391,391,391,391,391,391,391,391,391,391
Max Tests,391,391,391,391,391,391,391,391,391,391
EQ Queries,5,5,5,4,5,5,5,5,4,5
MQ Tests,290,297,297,289,294,290,291,301,292,291
EQ Tests,590,590,803,552,506,452,657,596,463,502
ALL Tests,880,887,1100,841,800,742,948,897,755,793
MQ Steps,1710,1718,1814,1617,1658,1653,1637,2044,1666,1647
EQ Steps,17622,17771,24150,17089,15074,13472,19891,17738,13325,15321
ALL Steps,19332,19489,25964,18706,16732,15125,21528,19782,14991,16968
