Seed,1,2,3,4,5,6,7,8,9,10
Correct M,true,true,true,true,true,true,true,true,true,true
Max Depth,2323,2323,2323,2323,2323,2323,2323,2323,2323,2323
Max Tests,2323,2323,2323,2323,2323,2323,2323,2323,2323,2323
EQ Queries,7,6,7,6,6,6,6,7,6,5
MQ Tests,666,571,667,573,572,574,572,667,569,475
EQ Tests,4468,4973,3141,3248,3469,3763,4449,4738,3608,3202
ALL Tests,5134,5544,3808,3821,4041,4337,5021,5405,4177,3677
MQ Steps,6249,6502,5925,7713,5456,8339,7123,7130,5224,5322
EQ Steps,34536,38268,26256,26975,27822,30047,35229,35809,28840,25608
ALL Steps,40785,44770,32181,34688,33278,38386,42352,42939,34064,30930
