Seed,1,2,3,4,5,6,7,8,9,10
Correct M,true,true,true,true,true,true,true,true,true,true
Max Depth,2,2,2,2,2,2,2,2,2,2
Max Tests,2,2,2,2,2,2,2,2,2,2
EQ Queries,4,4,4,4,4,4,4,4,4,4
MQ Tests,64,65,64,70,68,65,68,67,65,63
EQ Tests,5,6,5,5,5,5,5,5,5,5
ALL Tests,69,71,69,75,73,70,73,72,70,68
MQ Steps,242,274,262,320,281,271,267,275,278,242
EQ Steps,137,217,147,186,156,156,143,151,153,127
ALL Steps,379,491,409,506,437,427,410,426,431,369
