Seed,1,2,3,4,5,6,7,8,9,10
Correct M,true,true,true,true,true,true,true,true,true,true
Max Depth,78,78,78,78,78,78,78,78,78,78
Max Tests,78,78,78,78,78,78,78,78,78,78
EQ Queries,6,5,6,5,6,6,6,5,6,6
MQ Tests,179,190,184,185,180,196,193,194,185,176
EQ Tests,174,114,143,96,104,129,114,117,156,164
ALL Tests,353,304,327,281,284,325,307,311,341,340
MQ Steps,992,1298,1026,1099,967,1117,1257,1384,1110,999
EQ Steps,5441,3092,3752,2924,4043,3825,3796,3154,4545,5569
ALL Steps,6433,4390,4778,4023,5010,4942,5053,4538,5655,6568
