Seed,1,2,3,4,5,6,7,8,9,10
Correct M,true,true,true,true,true,true,true,true,true,true
Max Depth,1761,1761,1761,1761,1761,1761,1761,1761,1761,1761
Max Tests,1761,1761,1761,1761,1761,1761,1761,1761,1761,1761
EQ Queries,6,6,6,6,6,7,6,6,6,6
MQ Tests,518,517,516,517,518,603,516,518,515,515
EQ Tests,2218,2708,1936,2794,2576,3511,4109,2849,3176,2542
ALL Tests,2736,3225,2452,3311,3094,4114,4625,3367,3691,3057
MQ Steps,5949,4483,7517,5523,5266,5419,4378,5520,5555,5320
EQ Steps,18098,21244,16199,22211,20941,27315,31345,22179,26514,20739
ALL Steps,24047,25727,23716,27734,26207,32734,35723,27699,32069,26059
