Seed,1,2,3,4,5,6,7,8,9,10
Correct M,true,true,true,true,true,true,true,true,true,true
Max Depth,24,24,24,24,24,24,24,24,24,24
Max Tests,24,24,24,24,24,24,24,24,24,24
EQ Queries,7,7,7,7,7,7,7,6,7,7
MQ Tests,678,674,675,672,678,677,677,584,673,676
EQ Tests,59,64,59,54,49,64,42,44,42,54
ALL Tests,737,738,734,726,727,741,719,628,715,730
MQ Steps,5561,5134,5442,5912,4875,4452,5779,4637,6221,6719
EQ Steps,2997,3159,2919,2666,2441,3223,2028,2225,2062,2672
ALL Steps,8558,8293,8361,8578,7316,7675,7807,6862,8283,9391
