Seed,1,2,3,4,5,6,7,8,9,10
Correct M,true,true,true,true,true,true,true,true,true,true
Max Depth,434,434,434,434,434,434,434,434,434,434
Max Tests,434,434,434,434,434,434,434,434,434,434
EQ Queries,6,6,5,5,5,6,5,6,5,7
MQ Tests,474,475,393,393,393,473,393,471,393,555
EQ Tests,675,972,846,560,925,929,1039,764,716,619
ALL Tests,1149,1447,1239,953,1318,1402,1432,1235,1109,1174
MQ Steps,9736,7384,6843,7533,9025,7584,8024,7007,8128,7041
EQ Steps,20198,29250,25300,17336,27681,27635,31546,22788,20817,18626
ALL Steps,29934,36634,32143,24869,36706,35219,39570,29795,28945,25667
