Seed,1,2,3,4,5,6,7,8,9,10
Correct M,true,true,true,true,true,true,true,true,true,true
Max Depth,5833,5833,5833,5833,5833,5833,5833,5833,5833,5833
Max Tests,5833,5833,5833,5833,5833,5833,5833,5833,5833,5833
EQ Queries,4,5,4,5,4,5,5,5,4,4
MQ Tests,204,256,204,256,204,256,256,256,204,204
EQ Tests,7700,11137,5852,11871,8760,8398,6839,7448,5890,6951
ALL Tests,7904,11393,6056,12127,8964,8654,7095,7704,6094,7155
MQ Steps,707,894,703,895,705,894,894,896,703,708
EQ Steps,238713,344571,182960,367977,271475,258749,211561,226488,182645,218578
ALL Steps,239420,345465,183663,368872,272180,259643,212455,227384,183348,219286
