Seed,1,2,3,4,5,6,7,8,9,10
Correct M,true,true,true,true,true,true,true,true,true,true
Max Depth,822,822,822,822,822,822,822,822,822,822
Max Tests,822,822,822,822,822,822,822,822,822,822
EQ Queries,6,5,5,7,5,6,5,7,8,7
MQ Tests,182,169,166,200,169,201,168,199,268,202
EQ Tests,1250,1657,865,978,1777,1352,910,1315,1671,1135
ALL Tests,1432,1826,1031,1178,1946,1553,1078,1514,1939,1337
MQ Steps,625,583,557,671,575,706,582,692,951,738
EQ Steps,7978,10154,5902,6712,12191,8791,6388,8601,11569,7648
ALL Steps,8603,10737,6459,7383,12766,9497,6970,9293,12520,8386
