Seed,1,2,3,4,5,6,7,8,9,10
Correct M,true,true,true,true,true,true,true,true,true,true
Max Depth,1,1,1,1,1,1,1,1,1,1
Max Tests,1,1,1,1,1,1,1,1,1,1
EQ Queries,1,1,1,1,1,1,1,1,1,1
MQ Tests,656,656,656,656,656,656,656,656,656,656
EQ Tests,1,1,1,1,1,1,1,1,1,1
ALL Tests,657,657,657,657,657,657,657,657,657,657
MQ Steps,2456,2456,2456,2456,2456,2456,2456,2456,2456,2456
EQ Steps,4,4,4,8,5,10,10,3,9,2
ALL Steps,2460,2460,2460,2464,2461,2466,2466,2459,2465,2458
