Seed,1,2,3,4,5,6,7,8,9,10
Correct M,true,true,true,true,true,true,true,true,true,true
Max Depth,1,1,1,1,1,1,1,1,1,1
Max Tests,1,1,1,1,1,1,1,1,1,1
EQ Queries,1,1,1,1,1,1,1,1,1,1
MQ Tests,656,656,656,656,656,656,656,656,656,656
EQ Tests,1,1,1,1,1,1,1,1,1,1
ALL Tests,657,657,657,657,657,657,657,657,657,657
MQ Steps,2456,2456,2456,2456,2456,2456,2456,2456,2456,2456
EQ Steps,25,25,18,45,21,20,24,41,52,53
ALL Steps,2481,2481,2474,2501,2477,2476,2480,2497,2508,2509
