Seed,1,2,3,4,5,6,7,8,9,10
Correct M,true,true,true,true,true,true,true,true,true,true
Max Depth,11856,11856,11856,11856,11856,11856,11856,11856,11856,11856
Max Tests,11856,11856,11856,11856,11856,11856,11856,11856,11856,11856
EQ Queries,7,5,8,5,5,6,4,5,6,6
MQ Tests,203,187,272,167,167,179,160,174,180,186
EQ Tests,12256,11887,11886,15403,11886,13988,12031,23754,13943,15436
ALL Tests,12459,12074,12158,15570,12053,14167,12191,23928,14123,15622
MQ Steps,749,698,1020,561,645,653,649,675,711,679
EQ Steps,197002,196177,196223,272194,197682,210676,164429,363479,217993,272132
ALL Steps,197751,196875,197243,272755,198327,211329,165078,364154,218704,272811
