Seed,1,2,3,4,5,6,7,8,9,10
Correct M,true,true,true,true,true,true,true,true,true,true
Max Depth,8,8,8,8,8,8,8,8,8,8
Max Tests,8,8,8,8,8,8,8,8,8,8
EQ Queries,7,7,7,7,6,6,6,7,6,6
MQ Tests,660,836,838,696,645,789,783,812,782,690
EQ Tests,15,17,19,17,16,15,13,14,14,13
ALL Tests,675,853,857,713,661,804,796,826,796,703
MQ Steps,3156,3672,3672,3224,2909,3583,3436,3488,3412,3185
EQ Steps,408,424,431,395,447,345,347,274,382,336
ALL Steps,3564,4096,4103,3619,3356,3928,3783,3762,3794,3521
