Seed,1,2,3,4,5,6,7,8,9,10
Correct M,true,true,true,true,true,true,true,true,true,true
Max Depth,4,4,4,4,4,4,4,4,4,4
Max Tests,4,4,4,4,4,4,4,4,4,4
EQ Queries,7,5,4,6,6,5,6,5,5,6
MQ Tests,341,317,293,332,321,430,391,385,289,384
EQ Tests,10,8,9,11,9,9,10,8,8,9
ALL Tests,351,325,302,343,330,439,401,393,297,393
MQ Steps,1825,1638,1654,1790,1696,2293,2202,2129,1625,2041
EQ Steps,222,151,292,311,247,249,246,206,203,174
ALL Steps,2047,1789,1946,2101,1943,2542,2448,2335,1828,2215
