Seed,1,2,3,4,5,6,7,8,9,10
Correct M,true,true,true,true,true,true,true,true,true,true
Max Depth,14790,14790,14790,14790,14790,14790,14790,14790,14790,14790
Max Tests,14790,14790,14790,14790,14790,14790,14790,14790,14790,14790
EQ Queries,8,9,6,7,9,9,9,9,6,9
MQ Tests,355487,369809,352883,350836,397151,395849,386735,415379,377621,376319
EQ Tests,19073,31795,17523,17791,17002,18815,17601,17195,18694,18804
ALL Tests,374560,401604,370406,368627,414153,414664,404336,432574,396315,395123
MQ Steps,1940682,2034891,1964862,1995333,2431350,2586009,2344488,2808930,2436279,2178204
EQ Steps,148994,246265,135582,138508,132155,146631,137554,132962,144402,145248
ALL Steps,2089676,2281156,2100444,2133841,2563505,2732640,2482042,2941892,2580681,2323452
