Seed,1,2,3,4,5,6,7,8,9,10
Correct M,true,true,true,true,true,true,true,true,true,true
Max Depth,732,732,732,732,732,732,732,732,732,732
Max Tests,732,732,732,732,732,732,732,732,732,732
EQ Queries,13,12,14,11,13,12,11,12,12,12
MQ Tests,36675,33847,39491,31035,36674,33854,31034,33850,33853,33859
EQ Tests,1359,1163,1041,1548,1214,1658,1241,1682,1090,2144
ALL Tests,38034,35010,40532,32583,37888,35512,32275,35532,34943,36003
MQ Steps,298591,212862,294283,344720,228653,283451,259607,235712,210395,323258
EQ Steps,10169,8523,8036,11844,9242,12443,9552,12613,8456,16192
ALL Steps,308760,221385,302319,356564,237895,295894,269159,248325,218851,339450
