Seed,1,2,3,4,5,6,7,8,9,10
Correct M,true,true,true,true,true,true,true,true,true,true
Max Depth,258,258,258,258,258,258,258,258,258,258
Max Tests,258,258,258,258,258,258,258,258,258,258
EQ Queries,22,14,19,13,12,17,15,18,13,17
MQ Tests,2756,2484,2672,2554,2402,2872,2080,2537,2960,2506
EQ Tests,665,589,607,374,730,490,455,487,573,419
ALL Tests,3421,3073,3279,2928,3132,3362,2535,3024,3533,2925
MQ Steps,25156,19316,18691,27985,20911,22949,19308,19129,26527,21033
EQ Steps,20113,17440,18387,11427,22760,14137,15138,14363,18109,13221
ALL Steps,45269,36756,37078,39412,43671,37086,34446,33492,44636,34254
