Seed,1,2,3,4,5,6,7,8,9,10
Correct M,true,true,true,true,true,true,true,true,true,true
Max Depth,252,252,252,252,252,252,252,252,252,252
Max Tests,252,252,252,252,252,252,252,252,252,252
EQ Queries,16,13,20,26,16,19,16,19,21,20
MQ Tests,4024,4822,5054,5054,3414,3992,3407,5158,4884,4078
EQ Tests,311,274,324,311,342,282,291,392,333,277
ALL Tests,4335,5096,5378,5365,3756,4274,3698,5550,5217,4355
MQ Steps,21565,25314,26075,24793,17492,20747,17284,26566,24453,21043
EQ Steps,9623,8731,11684,7987,11330,11197,10939,13171,12051,11081
ALL Steps,31188,34045,37759,32780,28822,31944,28223,39737,36504,32124
