Seed,1,2,3,4,5,6,7,8,9,10
Correct M,true,true,true,true,true,true,true,true,true,true
Max Depth,12256,12256,12256,12256,12256,12256,12256,12256,12256,12256
Max Tests,12256,12256,12256,12256,12256,12256,12256,12256,12256,12256
EQ Queries,18,17,19,17,19,17,17,20,18,17
MQ Tests,176345,166545,186143,166548,186150,166548,166553,195947,176354,166555
EQ Tests,14660,14890,16299,17020,14760,14449,13795,19304,13277,26064
ALL Tests,191005,181435,202442,183568,200910,180997,180348,215251,189631,192619
MQ Steps,1474900,1159617,1325558,1561887,1507208,1089900,1324494,1476116,1465838,1159140
EQ Steps,114530,116140,126734,131968,114471,112596,107662,149524,103497,202316
ALL Steps,1589430,1275757,1452292,1693855,1621679,1202496,1432156,1625640,1569335,1361456
