Seed,1,2,3,4,5,6,7,8,9,10
Correct M,true,true,true,true,true,true,true,true,true,true
Max Depth,354,354,354,354,354,354,354,354,354,354
Max Tests,354,354,354,354,354,354,354,354,354,354
EQ Queries,9,9,9,9,9,9,8,10,10,9
MQ Tests,10413,10407,10410,10415,10414,10409,9260,11569,11569,10412
EQ Tests,574,525,586,556,773,656,933,581,836,853
ALL Tests,10987,10932,10996,10971,11187,11065,10193,12150,12405,11265
MQ Steps,89178,76261,84370,90364,64760,79875,107197,61812,75351,70378
EQ Steps,4255,3774,4281,4298,5779,4901,7179,4274,6333,6461
ALL Steps,93433,80035,88651,94662,70539,84776,114376,66086,81684,76839
