Seed,1,2,3,4,5,6,7,8,9,10
Correct M,true,true,true,true,true,true,true,true,true,true
Max Depth,5202,5202,5202,5202,5202,5202,5202,5202,5202,5202
Max Tests,5202,5202,5202,5202,5202,5202,5202,5202,5202,5202
EQ Queries,86,80,95,81,82,82,86,93,80,86
MQ Tests,34879,28945,34331,34187,35164,34876,34540,34402,28717,36584
EQ Tests,11213,8564,9337,8870,10481,17471,12528,12927,12006,12768
ALL Tests,46092,37509,43668,43057,45645,52347,47068,47329,40723,49352
MQ Steps,189883,157739,184077,181602,192513,188764,183386,184179,158743,201444
EQ Steps,86074,65840,71914,68438,80687,134542,96475,99680,92952,97282
ALL Steps,275957,223579,255991,250040,273200,323306,279861,283859,251695,298726
