Seed,1,2,3,4,5,6,7,8,9,10
Correct M,true,true,true,true,true,true,true,true,true,true
Max Depth,2379,2379,2379,2379,2379,2379,2379,2379,2379,2379
Max Tests,2379,2379,2379,2379,2379,2379,2379,2379,2379,2379
EQ Queries,66,60,71,73,71,70,65,65,71,74
MQ Tests,20779,18482,20821,23049,22364,22478,22760,23303,23158,22658
EQ Tests,6422,9532,5537,4700,5483,6567,8463,6613,9714,6608
ALL Tests,27201,28014,26358,27749,27847,29045,31223,29916,32872,29266
MQ Steps,108938,99132,111334,121234,118262,122127,119100,125507,121597,120064
EQ Steps,49545,73107,43076,36040,42096,50852,64614,50411,74619,50658
ALL Steps,158483,172239,154410,157274,160358,172979,183714,175918,196216,170722
