Seed,1,2,3,4,5,6,7,8,9,10
Correct M,true,true,true,true,true,true,true,true,true,true
Max Depth,5384,5384,5384,5384,5384,5384,5384,5384,5384,5384
Max Tests,5384,5384,5384,5384,5384,5384,5384,5384,5384,5384
EQ Queries,8,7,7,7,8,8,7,7,7,7
MQ Tests,177683,180233,157607,158133,162383,194683,174932,179383,152183,170033
EQ Tests,6451,12434,6995,6620,5899,10425,11562,7705,6023,7224
ALL Tests,184134,192667,164602,164753,168282,205108,186494,187088,158206,177257
MQ Steps,1135666,1159991,872664,856241,900466,1502116,1246239,1274566,770866,1032941
EQ Steps,50203,95758,54707,51116,45484,79817,88882,58777,46947,55672
ALL Steps,1185869,1255749,927371,907357,945950,1581933,1335121,1333343,817813,1088613
