Seed,1,2,3,4,5,6,7,8,9,10
Correct M,true,true,true,true,true,true,true,true,true,true
Max Depth,12,12,12,12,12,12,12,12,12,12
Max Tests,12,12,12,12,12,12,12,12,12,12
EQ Queries,4,5,3,5,4,4,4,5,4,3
MQ Tests,225,239,214,169,219,238,221,274,145,128
EQ Tests,16,17,14,16,26,17,16,16,16,14
ALL Tests,241,256,228,185,245,255,237,290,161,142
MQ Steps,2381,1360,1526,838,1451,1425,1767,1496,1036,1166
EQ Steps,786,761,668,685,1234,767,761,724,751,681
ALL Steps,3167,2121,2194,1523,2685,2192,2528,2220,1787,1847
