Seed,1,2,3,4,5,6,7,8,9,10
Correct M,true,true,true,true,true,true,true,true,true,true
Max Depth,6,6,6,6,6,6,6,6,6,6
Max Tests,6,6,6,6,6,6,6,6,6,6
EQ Queries,4,2,3,4,2,3,3,3,3,4
MQ Tests,417,205,310,418,203,309,311,309,310,415
EQ Tests,12,7,10,14,7,13,9,11,8,11
ALL Tests,429,212,320,432,210,322,320,320,318,426
MQ Steps,6291,3343,2995,5687,2440,5520,3202,2023,3782,5320
EQ Steps,430,207,312,393,221,405,292,283,222,389
ALL Steps,6721,3550,3307,6080,2661,5925,3494,2306,4004,5709
